==3003== Memcheck, a memory error detector
==3003== Copyright (C) 2002-2017, and GNU GPL'd, by Julian Seward et al.
==3003== Using Valgrind-3.13.0 and LibVEX; rerun with -h for copyright info
==3003== Command: ./louvain ./sample/Output/example-l0 -l -1 -i ./sample/input/example-l1.txt -g ./sample/Output/full/example-l1.bin -x ./sample/Output/full/example-lw1.bin -f ./sample/Output/full/example-l0.bin -u ./sample/Output/example-l-n2c.txt -q id_qual
==3003== Parent PID: 3001
==3003== 
==3003== Conditional jump or move depends on uninitialised value(s)
==3003==    at 0x4344F13: std::ostreambuf_iterator<char, std::char_traits<char> > std::num_put<char, std::ostreambuf_iterator<char, std::char_traits<char> > >::_M_insert_int<long>(std::ostreambuf_iterator<char, std::char_traits<char> >, std::ios_base&, char, long) const (in /usr/lib/i386-linux-gnu/libstdc++.so.6.0.19)
==3003==    by 0x4345558: std::num_put<char, std::ostreambuf_iterator<char, std::char_traits<char> > >::do_put(std::ostreambuf_iterator<char, std::char_traits<char> >, std::ios_base&, char, long) const (in /usr/lib/i386-linux-gnu/libstdc++.so.6.0.19)
==3003==    by 0x43515DD: std::ostream& std::ostream::_M_insert<long>(long) (in /usr/lib/i386-linux-gnu/libstdc++.so.6.0.19)
==3003==    by 0x43517D2: std::ostream::operator<<(int) (in /usr/lib/i386-linux-gnu/libstdc++.so.6.0.19)
==3003==    by 0x805AD85: exchange_updated_community(Louvain) (in /home/safrin/Desktop/Test/louvain-bdsc/Test-2/louvain)
==3003==    by 0x804AA51: main (in /home/safrin/Desktop/Test/louvain-bdsc/Test-2/louvain)
==3003== 
==3003== Use of uninitialised value of size 4
==3003==    at 0x4344E03: ??? (in /usr/lib/i386-linux-gnu/libstdc++.so.6.0.19)
==3003==    by 0x4344F47: std::ostreambuf_iterator<char, std::char_traits<char> > std::num_put<char, std::ostreambuf_iterator<char, std::char_traits<char> > >::_M_insert_int<long>(std::ostreambuf_iterator<char, std::char_traits<char> >, std::ios_base&, char, long) const (in /usr/lib/i386-linux-gnu/libstdc++.so.6.0.19)
==3003==    by 0x4345558: std::num_put<char, std::ostreambuf_iterator<char, std::char_traits<char> > >::do_put(std::ostreambuf_iterator<char, std::char_traits<char> >, std::ios_base&, char, long) const (in /usr/lib/i386-linux-gnu/libstdc++.so.6.0.19)
==3003==    by 0x43515DD: std::ostream& std::ostream::_M_insert<long>(long) (in /usr/lib/i386-linux-gnu/libstdc++.so.6.0.19)
==3003==    by 0x43517D2: std::ostream::operator<<(int) (in /usr/lib/i386-linux-gnu/libstdc++.so.6.0.19)
==3003==    by 0x805AD85: exchange_updated_community(Louvain) (in /home/safrin/Desktop/Test/louvain-bdsc/Test-2/louvain)
==3003==    by 0x804AA51: main (in /home/safrin/Desktop/Test/louvain-bdsc/Test-2/louvain)
==3003== 
==3003== Conditional jump or move depends on uninitialised value(s)
==3003==    at 0x4344E0C: ??? (in /usr/lib/i386-linux-gnu/libstdc++.so.6.0.19)
==3003==    by 0x4344F47: std::ostreambuf_iterator<char, std::char_traits<char> > std::num_put<char, std::ostreambuf_iterator<char, std::char_traits<char> > >::_M_insert_int<long>(std::ostreambuf_iterator<char, std::char_traits<char> >, std::ios_base&, char, long) const (in /usr/lib/i386-linux-gnu/libstdc++.so.6.0.19)
==3003==    by 0x4345558: std::num_put<char, std::ostreambuf_iterator<char, std::char_traits<char> > >::do_put(std::ostreambuf_iterator<char, std::char_traits<char> >, std::ios_base&, char, long) const (in /usr/lib/i386-linux-gnu/libstdc++.so.6.0.19)
==3003==    by 0x43515DD: std::ostream& std::ostream::_M_insert<long>(long) (in /usr/lib/i386-linux-gnu/libstdc++.so.6.0.19)
==3003==    by 0x43517D2: std::ostream::operator<<(int) (in /usr/lib/i386-linux-gnu/libstdc++.so.6.0.19)
==3003==    by 0x805AD85: exchange_updated_community(Louvain) (in /home/safrin/Desktop/Test/louvain-bdsc/Test-2/louvain)
==3003==    by 0x804AA51: main (in /home/safrin/Desktop/Test/louvain-bdsc/Test-2/louvain)
==3003== 
==3003== Conditional jump or move depends on uninitialised value(s)
==3003==    at 0x4344F6F: std::ostreambuf_iterator<char, std::char_traits<char> > std::num_put<char, std::ostreambuf_iterator<char, std::char_traits<char> > >::_M_insert_int<long>(std::ostreambuf_iterator<char, std::char_traits<char> >, std::ios_base&, char, long) const (in /usr/lib/i386-linux-gnu/libstdc++.so.6.0.19)
==3003==    by 0x4345558: std::num_put<char, std::ostreambuf_iterator<char, std::char_traits<char> > >::do_put(std::ostreambuf_iterator<char, std::char_traits<char> >, std::ios_base&, char, long) const (in /usr/lib/i386-linux-gnu/libstdc++.so.6.0.19)
==3003==    by 0x43515DD: std::ostream& std::ostream::_M_insert<long>(long) (in /usr/lib/i386-linux-gnu/libstdc++.so.6.0.19)
==3003==    by 0x43517D2: std::ostream::operator<<(int) (in /usr/lib/i386-linux-gnu/libstdc++.so.6.0.19)
==3003==    by 0x805AD85: exchange_updated_community(Louvain) (in /home/safrin/Desktop/Test/louvain-bdsc/Test-2/louvain)
==3003==    by 0x804AA51: main (in /home/safrin/Desktop/Test/louvain-bdsc/Test-2/louvain)
==3003== 
==3003== Conditional jump or move depends on uninitialised value(s)
==3003==    at 0x441BBD4: __printf_fp (printf_fp.c:355)
==3003==    by 0x441727E: vfprintf (vfprintf.c:1660)
==3003==    by 0x443AFA2: vsnprintf (vsnprintf.c:119)
==3003==    by 0x433EED4: ??? (in /usr/lib/i386-linux-gnu/libstdc++.so.6.0.19)
==3003==    by 0x4346A99: std::ostreambuf_iterator<char, std::char_traits<char> > std::num_put<char, std::ostreambuf_iterator<char, std::char_traits<char> > >::_M_insert_float<long double>(std::ostreambuf_iterator<char, std::char_traits<char> >, std::ios_base&, char, char, long double) const (in /usr/lib/i386-linux-gnu/libstdc++.so.6.0.19)
==3003==    by 0x4346DC0: std::num_put<char, std::ostreambuf_iterator<char, std::char_traits<char> > >::do_put(std::ostreambuf_iterator<char, std::char_traits<char> >, std::ios_base&, char, long double) const (in /usr/lib/i386-linux-gnu/libstdc++.so.6.0.19)
==3003==    by 0x43524A0: std::ostream& std::ostream::_M_insert<long double>(long double) (in /usr/lib/i386-linux-gnu/libstdc++.so.6.0.19)
==3003==    by 0x805ADAF: exchange_updated_community(Louvain) (in /home/safrin/Desktop/Test/louvain-bdsc/Test-2/louvain)
==3003==    by 0x804AA51: main (in /home/safrin/Desktop/Test/louvain-bdsc/Test-2/louvain)
==3003== 
==3003== Conditional jump or move depends on uninitialised value(s)
==3003==    at 0x441BD0A: __printf_fp (printf_fp.c:369)
==3003==    by 0x441727E: vfprintf (vfprintf.c:1660)
==3003==    by 0x443AFA2: vsnprintf (vsnprintf.c:119)
==3003==    by 0x433EED4: ??? (in /usr/lib/i386-linux-gnu/libstdc++.so.6.0.19)
==3003==    by 0x4346A99: std::ostreambuf_iterator<char, std::char_traits<char> > std::num_put<char, std::ostreambuf_iterator<char, std::char_traits<char> > >::_M_insert_float<long double>(std::ostreambuf_iterator<char, std::char_traits<char> >, std::ios_base&, char, char, long double) const (in /usr/lib/i386-linux-gnu/libstdc++.so.6.0.19)
==3003==    by 0x4346DC0: std::num_put<char, std::ostreambuf_iterator<char, std::char_traits<char> > >::do_put(std::ostreambuf_iterator<char, std::char_traits<char> >, std::ios_base&, char, long double) const (in /usr/lib/i386-linux-gnu/libstdc++.so.6.0.19)
==3003==    by 0x43524A0: std::ostream& std::ostream::_M_insert<long double>(long double) (in /usr/lib/i386-linux-gnu/libstdc++.so.6.0.19)
==3003==    by 0x805ADAF: exchange_updated_community(Louvain) (in /home/safrin/Desktop/Test/louvain-bdsc/Test-2/louvain)
==3003==    by 0x804AA51: main (in /home/safrin/Desktop/Test/louvain-bdsc/Test-2/louvain)
==3003== 
==3003== Conditional jump or move depends on uninitialised value(s)
==3003==    at 0x44046DC: __mpn_extract_long_double (ldbl2mpn.c:54)
==3003==    by 0x441C01C: __printf_fp (printf_fp.c:385)
==3003==    by 0x441727E: vfprintf (vfprintf.c:1660)
==3003==    by 0x443AFA2: vsnprintf (vsnprintf.c:119)
==3003==    by 0x433EED4: ??? (in /usr/lib/i386-linux-gnu/libstdc++.so.6.0.19)
==3003==    by 0x4346A99: std::ostreambuf_iterator<char, std::char_traits<char> > std::num_put<char, std::ostreambuf_iterator<char, std::char_traits<char> > >::_M_insert_float<long double>(std::ostreambuf_iterator<char, std::char_traits<char> >, std::ios_base&, char, char, long double) const (in /usr/lib/i386-linux-gnu/libstdc++.so.6.0.19)
==3003==    by 0x4346DC0: std::num_put<char, std::ostreambuf_iterator<char, std::char_traits<char> > >::do_put(std::ostreambuf_iterator<char, std::char_traits<char> >, std::ios_base&, char, long double) const (in /usr/lib/i386-linux-gnu/libstdc++.so.6.0.19)
==3003==    by 0x43524A0: std::ostream& std::ostream::_M_insert<long double>(long double) (in /usr/lib/i386-linux-gnu/libstdc++.so.6.0.19)
==3003==    by 0x805ADAF: exchange_updated_community(Louvain) (in /home/safrin/Desktop/Test/louvain-bdsc/Test-2/louvain)
==3003==    by 0x804AA51: main (in /home/safrin/Desktop/Test/louvain-bdsc/Test-2/louvain)
==3003== 
==3003== Conditional jump or move depends on uninitialised value(s)
==3003==    at 0x44046E0: __mpn_extract_long_double (ldbl2mpn.c:58)
==3003==    by 0x441C01C: __printf_fp (printf_fp.c:385)
==3003==    by 0x441727E: vfprintf (vfprintf.c:1660)
==3003==    by 0x443AFA2: vsnprintf (vsnprintf.c:119)
==3003==    by 0x433EED4: ??? (in /usr/lib/i386-linux-gnu/libstdc++.so.6.0.19)
==3003==    by 0x4346A99: std::ostreambuf_iterator<char, std::char_traits<char> > std::num_put<char, std::ostreambuf_iterator<char, std::char_traits<char> > >::_M_insert_float<long double>(std::ostreambuf_iterator<char, std::char_traits<char> >, std::ios_base&, char, char, long double) const (in /usr/lib/i386-linux-gnu/libstdc++.so.6.0.19)
==3003==    by 0x4346DC0: std::num_put<char, std::ostreambuf_iterator<char, std::char_traits<char> > >::do_put(std::ostreambuf_iterator<char, std::char_traits<char> >, std::ios_base&, char, long double) const (in /usr/lib/i386-linux-gnu/libstdc++.so.6.0.19)
==3003==    by 0x43524A0: std::ostream& std::ostream::_M_insert<long double>(long double) (in /usr/lib/i386-linux-gnu/libstdc++.so.6.0.19)
==3003==    by 0x805ADAF: exchange_updated_community(Louvain) (in /home/safrin/Desktop/Test/louvain-bdsc/Test-2/louvain)
==3003==    by 0x804AA51: main (in /home/safrin/Desktop/Test/louvain-bdsc/Test-2/louvain)
==3003== 
==3003== Conditional jump or move depends on uninitialised value(s)
==3003==    at 0x440474A: __mpn_extract_long_double (ldbl2mpn.c:58)
==3003==    by 0x441C01C: __printf_fp (printf_fp.c:385)
==3003==    by 0x441727E: vfprintf (vfprintf.c:1660)
==3003==    by 0x443AFA2: vsnprintf (vsnprintf.c:119)
==3003==    by 0x433EED4: ??? (in /usr/lib/i386-linux-gnu/libstdc++.so.6.0.19)
==3003==    by 0x4346A99: std::ostreambuf_iterator<char, std::char_traits<char> > std::num_put<char, std::ostreambuf_iterator<char, std::char_traits<char> > >::_M_insert_float<long double>(std::ostreambuf_iterator<char, std::char_traits<char> >, std::ios_base&, char, char, long double) const (in /usr/lib/i386-linux-gnu/libstdc++.so.6.0.19)
==3003==    by 0x4346DC0: std::num_put<char, std::ostreambuf_iterator<char, std::char_traits<char> > >::do_put(std::ostreambuf_iterator<char, std::char_traits<char> >, std::ios_base&, char, long double) const (in /usr/lib/i386-linux-gnu/libstdc++.so.6.0.19)
==3003==    by 0x43524A0: std::ostream& std::ostream::_M_insert<long double>(long double) (in /usr/lib/i386-linux-gnu/libstdc++.so.6.0.19)
==3003==    by 0x805ADAF: exchange_updated_community(Louvain) (in /home/safrin/Desktop/Test/louvain-bdsc/Test-2/louvain)
==3003==    by 0x804AA51: main (in /home/safrin/Desktop/Test/louvain-bdsc/Test-2/louvain)
==3003== 
==3003== Conditional jump or move depends on uninitialised value(s)
==3003==    at 0x441C6CB: __printf_fp (printf_fp.c:964)
==3003==    by 0x441727E: vfprintf (vfprintf.c:1660)
==3003==    by 0x443AFA2: vsnprintf (vsnprintf.c:119)
==3003==    by 0x433EED4: ??? (in /usr/lib/i386-linux-gnu/libstdc++.so.6.0.19)
==3003==    by 0x4346A99: std::ostreambuf_iterator<char, std::char_traits<char> > std::num_put<char, std::ostreambuf_iterator<char, std::char_traits<char> > >::_M_insert_float<long double>(std::ostreambuf_iterator<char, std::char_traits<char> >, std::ios_base&, char, char, long double) const (in /usr/lib/i386-linux-gnu/libstdc++.so.6.0.19)
==3003==    by 0x4346DC0: std::num_put<char, std::ostreambuf_iterator<char, std::char_traits<char> > >::do_put(std::ostreambuf_iterator<char, std::char_traits<char> >, std::ios_base&, char, long double) const (in /usr/lib/i386-linux-gnu/libstdc++.so.6.0.19)
==3003==    by 0x43524A0: std::ostream& std::ostream::_M_insert<long double>(long double) (in /usr/lib/i386-linux-gnu/libstdc++.so.6.0.19)
==3003==    by 0x805ADAF: exchange_updated_community(Louvain) (in /home/safrin/Desktop/Test/louvain-bdsc/Test-2/louvain)
==3003==    by 0x804AA51: main (in /home/safrin/Desktop/Test/louvain-bdsc/Test-2/louvain)
==3003== 
==3003== Conditional jump or move depends on uninitialised value(s)
==3003==    at 0x441C70D: __printf_fp (printf_fp.c:975)
==3003==    by 0x441727E: vfprintf (vfprintf.c:1660)
==3003==    by 0x443AFA2: vsnprintf (vsnprintf.c:119)
==3003==    by 0x433EED4: ??? (in /usr/lib/i386-linux-gnu/libstdc++.so.6.0.19)
==3003==    by 0x4346A99: std::ostreambuf_iterator<char, std::char_traits<char> > std::num_put<char, std::ostreambuf_iterator<char, std::char_traits<char> > >::_M_insert_float<long double>(std::ostreambuf_iterator<char, std::char_traits<char> >, std::ios_base&, char, char, long double) const (in /usr/lib/i386-linux-gnu/libstdc++.so.6.0.19)
==3003==    by 0x4346DC0: std::num_put<char, std::ostreambuf_iterator<char, std::char_traits<char> > >::do_put(std::ostreambuf_iterator<char, std::char_traits<char> >, std::ios_base&, char, long double) const (in /usr/lib/i386-linux-gnu/libstdc++.so.6.0.19)
==3003==    by 0x43524A0: std::ostream& std::ostream::_M_insert<long double>(long double) (in /usr/lib/i386-linux-gnu/libstdc++.so.6.0.19)
==3003==    by 0x805ADAF: exchange_updated_community(Louvain) (in /home/safrin/Desktop/Test/louvain-bdsc/Test-2/louvain)
==3003==    by 0x804AA51: main (in /home/safrin/Desktop/Test/louvain-bdsc/Test-2/louvain)
==3003== 
==3003== Conditional jump or move depends on uninitialised value(s)
==3003==    at 0x441C720: __printf_fp (printf_fp.c:978)
==3003==    by 0x441727E: vfprintf (vfprintf.c:1660)
==3003==    by 0x443AFA2: vsnprintf (vsnprintf.c:119)
==3003==    by 0x433EED4: ??? (in /usr/lib/i386-linux-gnu/libstdc++.so.6.0.19)
==3003==    by 0x4346A99: std::ostreambuf_iterator<char, std::char_traits<char> > std::num_put<char, std::ostreambuf_iterator<char, std::char_traits<char> > >::_M_insert_float<long double>(std::ostreambuf_iterator<char, std::char_traits<char> >, std::ios_base&, char, char, long double) const (in /usr/lib/i386-linux-gnu/libstdc++.so.6.0.19)
==3003==    by 0x4346DC0: std::num_put<char, std::ostreambuf_iterator<char, std::char_traits<char> > >::do_put(std::ostreambuf_iterator<char, std::char_traits<char> >, std::ios_base&, char, long double) const (in /usr/lib/i386-linux-gnu/libstdc++.so.6.0.19)
==3003==    by 0x43524A0: std::ostream& std::ostream::_M_insert<long double>(long double) (in /usr/lib/i386-linux-gnu/libstdc++.so.6.0.19)
==3003==    by 0x805ADAF: exchange_updated_community(Louvain) (in /home/safrin/Desktop/Test/louvain-bdsc/Test-2/louvain)
==3003==    by 0x804AA51: main (in /home/safrin/Desktop/Test/louvain-bdsc/Test-2/louvain)
==3003== 
==3003== Conditional jump or move depends on uninitialised value(s)
==3003==    at 0x441C729: __printf_fp (printf_fp.c:978)
==3003==    by 0x441727E: vfprintf (vfprintf.c:1660)
==3003==    by 0x443AFA2: vsnprintf (vsnprintf.c:119)
==3003==    by 0x433EED4: ??? (in /usr/lib/i386-linux-gnu/libstdc++.so.6.0.19)
==3003==    by 0x4346A99: std::ostreambuf_iterator<char, std::char_traits<char> > std::num_put<char, std::ostreambuf_iterator<char, std::char_traits<char> > >::_M_insert_float<long double>(std::ostreambuf_iterator<char, std::char_traits<char> >, std::ios_base&, char, char, long double) const (in /usr/lib/i386-linux-gnu/libstdc++.so.6.0.19)
==3003==    by 0x4346DC0: std::num_put<char, std::ostreambuf_iterator<char, std::char_traits<char> > >::do_put(std::ostreambuf_iterator<char, std::char_traits<char> >, std::ios_base&, char, long double) const (in /usr/lib/i386-linux-gnu/libstdc++.so.6.0.19)
==3003==    by 0x43524A0: std::ostream& std::ostream::_M_insert<long double>(long double) (in /usr/lib/i386-linux-gnu/libstdc++.so.6.0.19)
==3003==    by 0x805ADAF: exchange_updated_community(Louvain) (in /home/safrin/Desktop/Test/louvain-bdsc/Test-2/louvain)
==3003==    by 0x804AA51: main (in /home/safrin/Desktop/Test/louvain-bdsc/Test-2/louvain)
==3003== 
==3003== Conditional jump or move depends on uninitialised value(s)
==3003==    at 0x441C755: __printf_fp (printf_fp.c:988)
==3003==    by 0x441727E: vfprintf (vfprintf.c:1660)
==3003==    by 0x443AFA2: vsnprintf (vsnprintf.c:119)
==3003==    by 0x433EED4: ??? (in /usr/lib/i386-linux-gnu/libstdc++.so.6.0.19)
==3003==    by 0x4346A99: std::ostreambuf_iterator<char, std::char_traits<char> > std::num_put<char, std::ostreambuf_iterator<char, std::char_traits<char> > >::_M_insert_float<long double>(std::ostreambuf_iterator<char, std::char_traits<char> >, std::ios_base&, char, char, long double) const (in /usr/lib/i386-linux-gnu/libstdc++.so.6.0.19)
==3003==    by 0x4346DC0: std::num_put<char, std::ostreambuf_iterator<char, std::char_traits<char> > >::do_put(std::ostreambuf_iterator<char, std::char_traits<char> >, std::ios_base&, char, long double) const (in /usr/lib/i386-linux-gnu/libstdc++.so.6.0.19)
==3003==    by 0x43524A0: std::ostream& std::ostream::_M_insert<long double>(long double) (in /usr/lib/i386-linux-gnu/libstdc++.so.6.0.19)
==3003==    by 0x805ADAF: exchange_updated_community(Louvain) (in /home/safrin/Desktop/Test/louvain-bdsc/Test-2/louvain)
==3003==    by 0x804AA51: main (in /home/safrin/Desktop/Test/louvain-bdsc/Test-2/louvain)
==3003== 
==3003== Conditional jump or move depends on uninitialised value(s)
==3003==    at 0x441C765: __printf_fp (printf_fp.c:988)
==3003==    by 0x441727E: vfprintf (vfprintf.c:1660)
==3003==    by 0x443AFA2: vsnprintf (vsnprintf.c:119)
==3003==    by 0x433EED4: ??? (in /usr/lib/i386-linux-gnu/libstdc++.so.6.0.19)
==3003==    by 0x4346A99: std::ostreambuf_iterator<char, std::char_traits<char> > std::num_put<char, std::ostreambuf_iterator<char, std::char_traits<char> > >::_M_insert_float<long double>(std::ostreambuf_iterator<char, std::char_traits<char> >, std::ios_base&, char, char, long double) const (in /usr/lib/i386-linux-gnu/libstdc++.so.6.0.19)
==3003==    by 0x4346DC0: std::num_put<char, std::ostreambuf_iterator<char, std::char_traits<char> > >::do_put(std::ostreambuf_iterator<char, std::char_traits<char> >, std::ios_base&, char, long double) const (in /usr/lib/i386-linux-gnu/libstdc++.so.6.0.19)
==3003==    by 0x43524A0: std::ostream& std::ostream::_M_insert<long double>(long double) (in /usr/lib/i386-linux-gnu/libstdc++.so.6.0.19)
==3003==    by 0x805ADAF: exchange_updated_community(Louvain) (in /home/safrin/Desktop/Test/louvain-bdsc/Test-2/louvain)
==3003==    by 0x804AA51: main (in /home/safrin/Desktop/Test/louvain-bdsc/Test-2/louvain)
==3003== 
==3003== Conditional jump or move depends on uninitialised value(s)
==3003==    at 0x441CADC: round_away (rounding-mode.h:52)
==3003==    by 0x441CADC: __printf_fp (printf_fp.c:995)
==3003==    by 0x441727E: vfprintf (vfprintf.c:1660)
==3003==    by 0x443AFA2: vsnprintf (vsnprintf.c:119)
==3003==    by 0x433EED4: ??? (in /usr/lib/i386-linux-gnu/libstdc++.so.6.0.19)
==3003==    by 0x4346A99: std::ostreambuf_iterator<char, std::char_traits<char> > std::num_put<char, std::ostreambuf_iterator<char, std::char_traits<char> > >::_M_insert_float<long double>(std::ostreambuf_iterator<char, std::char_traits<char> >, std::ios_base&, char, char, long double) const (in /usr/lib/i386-linux-gnu/libstdc++.so.6.0.19)
==3003==    by 0x4346DC0: std::num_put<char, std::ostreambuf_iterator<char, std::char_traits<char> > >::do_put(std::ostreambuf_iterator<char, std::char_traits<char> >, std::ios_base&, char, long double) const (in /usr/lib/i386-linux-gnu/libstdc++.so.6.0.19)
==3003==    by 0x43524A0: std::ostream& std::ostream::_M_insert<long double>(long double) (in /usr/lib/i386-linux-gnu/libstdc++.so.6.0.19)
==3003==    by 0x805ADAF: exchange_updated_community(Louvain) (in /home/safrin/Desktop/Test/louvain-bdsc/Test-2/louvain)
==3003==    by 0x804AA51: main (in /home/safrin/Desktop/Test/louvain-bdsc/Test-2/louvain)
==3003== 
==3003== Conditional jump or move depends on uninitialised value(s)
==3003==    at 0x441C7B3: __printf_fp (printf_fp.c:1094)
==3003==    by 0x441727E: vfprintf (vfprintf.c:1660)
==3003==    by 0x443AFA2: vsnprintf (vsnprintf.c:119)
==3003==    by 0x433EED4: ??? (in /usr/lib/i386-linux-gnu/libstdc++.so.6.0.19)
==3003==    by 0x4346A99: std::ostreambuf_iterator<char, std::char_traits<char> > std::num_put<char, std::ostreambuf_iterator<char, std::char_traits<char> > >::_M_insert_float<long double>(std::ostreambuf_iterator<char, std::char_traits<char> >, std::ios_base&, char, char, long double) const (in /usr/lib/i386-linux-gnu/libstdc++.so.6.0.19)
==3003==    by 0x4346DC0: std::num_put<char, std::ostreambuf_iterator<char, std::char_traits<char> > >::do_put(std::ostreambuf_iterator<char, std::char_traits<char> >, std::ios_base&, char, long double) const (in /usr/lib/i386-linux-gnu/libstdc++.so.6.0.19)
==3003==    by 0x43524A0: std::ostream& std::ostream::_M_insert<long double>(long double) (in /usr/lib/i386-linux-gnu/libstdc++.so.6.0.19)
==3003==    by 0x805ADAF: exchange_updated_community(Louvain) (in /home/safrin/Desktop/Test/louvain-bdsc/Test-2/louvain)
==3003==    by 0x804AA51: main (in /home/safrin/Desktop/Test/louvain-bdsc/Test-2/louvain)
==3003== 
==3003== Conditional jump or move depends on uninitialised value(s)
==3003==    at 0x441C7BC: __printf_fp (printf_fp.c:1094)
==3003==    by 0x441727E: vfprintf (vfprintf.c:1660)
==3003==    by 0x443AFA2: vsnprintf (vsnprintf.c:119)
==3003==    by 0x433EED4: ??? (in /usr/lib/i386-linux-gnu/libstdc++.so.6.0.19)
==3003==    by 0x4346A99: std::ostreambuf_iterator<char, std::char_traits<char> > std::num_put<char, std::ostreambuf_iterator<char, std::char_traits<char> > >::_M_insert_float<long double>(std::ostreambuf_iterator<char, std::char_traits<char> >, std::ios_base&, char, char, long double) const (in /usr/lib/i386-linux-gnu/libstdc++.so.6.0.19)
==3003==    by 0x4346DC0: std::num_put<char, std::ostreambuf_iterator<char, std::char_traits<char> > >::do_put(std::ostreambuf_iterator<char, std::char_traits<char> >, std::ios_base&, char, long double) const (in /usr/lib/i386-linux-gnu/libstdc++.so.6.0.19)
==3003==    by 0x43524A0: std::ostream& std::ostream::_M_insert<long double>(long double) (in /usr/lib/i386-linux-gnu/libstdc++.so.6.0.19)
==3003==    by 0x805ADAF: exchange_updated_community(Louvain) (in /home/safrin/Desktop/Test/louvain-bdsc/Test-2/louvain)
==3003==    by 0x804AA51: main (in /home/safrin/Desktop/Test/louvain-bdsc/Test-2/louvain)
==3003== 
==3003== Conditional jump or move depends on uninitialised value(s)
==3003==    at 0x441C895: __printf_fp (printf_fp.c:1163)
==3003==    by 0x441727E: vfprintf (vfprintf.c:1660)
==3003==    by 0x443AFA2: vsnprintf (vsnprintf.c:119)
==3003==    by 0x433EED4: ??? (in /usr/lib/i386-linux-gnu/libstdc++.so.6.0.19)
==3003==    by 0x4346A99: std::ostreambuf_iterator<char, std::char_traits<char> > std::num_put<char, std::ostreambuf_iterator<char, std::char_traits<char> > >::_M_insert_float<long double>(std::ostreambuf_iterator<char, std::char_traits<char> >, std::ios_base&, char, char, long double) const (in /usr/lib/i386-linux-gnu/libstdc++.so.6.0.19)
==3003==    by 0x4346DC0: std::num_put<char, std::ostreambuf_iterator<char, std::char_traits<char> > >::do_put(std::ostreambuf_iterator<char, std::char_traits<char> >, std::ios_base&, char, long double) const (in /usr/lib/i386-linux-gnu/libstdc++.so.6.0.19)
==3003==    by 0x43524A0: std::ostream& std::ostream::_M_insert<long double>(long double) (in /usr/lib/i386-linux-gnu/libstdc++.so.6.0.19)
==3003==    by 0x805ADAF: exchange_updated_community(Louvain) (in /home/safrin/Desktop/Test/louvain-bdsc/Test-2/louvain)
==3003==    by 0x804AA51: main (in /home/safrin/Desktop/Test/louvain-bdsc/Test-2/louvain)
==3003== 
==3003== Conditional jump or move depends on uninitialised value(s)
==3003==    at 0x441C981: __printf_fp (printf_fp.c:1170)
==3003==    by 0x441727E: vfprintf (vfprintf.c:1660)
==3003==    by 0x443AFA2: vsnprintf (vsnprintf.c:119)
==3003==    by 0x433EED4: ??? (in /usr/lib/i386-linux-gnu/libstdc++.so.6.0.19)
==3003==    by 0x4346A99: std::ostreambuf_iterator<char, std::char_traits<char> > std::num_put<char, std::ostreambuf_iterator<char, std::char_traits<char> > >::_M_insert_float<long double>(std::ostreambuf_iterator<char, std::char_traits<char> >, std::ios_base&, char, char, long double) const (in /usr/lib/i386-linux-gnu/libstdc++.so.6.0.19)
==3003==    by 0x4346DC0: std::num_put<char, std::ostreambuf_iterator<char, std::char_traits<char> > >::do_put(std::ostreambuf_iterator<char, std::char_traits<char> >, std::ios_base&, char, long double) const (in /usr/lib/i386-linux-gnu/libstdc++.so.6.0.19)
==3003==    by 0x43524A0: std::ostream& std::ostream::_M_insert<long double>(long double) (in /usr/lib/i386-linux-gnu/libstdc++.so.6.0.19)
==3003==    by 0x805ADAF: exchange_updated_community(Louvain) (in /home/safrin/Desktop/Test/louvain-bdsc/Test-2/louvain)
==3003==    by 0x804AA51: main (in /home/safrin/Desktop/Test/louvain-bdsc/Test-2/louvain)
==3003== 
==3003== Conditional jump or move depends on uninitialised value(s)
==3003==    at 0x441CAA8: __printf_fp (printf_fp.c:1224)
==3003==    by 0x441727E: vfprintf (vfprintf.c:1660)
==3003==    by 0x443AFA2: vsnprintf (vsnprintf.c:119)
==3003==    by 0x433EED4: ??? (in /usr/lib/i386-linux-gnu/libstdc++.so.6.0.19)
==3003==    by 0x4346A99: std::ostreambuf_iterator<char, std::char_traits<char> > std::num_put<char, std::ostreambuf_iterator<char, std::char_traits<char> > >::_M_insert_float<long double>(std::ostreambuf_iterator<char, std::char_traits<char> >, std::ios_base&, char, char, long double) const (in /usr/lib/i386-linux-gnu/libstdc++.so.6.0.19)
==3003==    by 0x4346DC0: std::num_put<char, std::ostreambuf_iterator<char, std::char_traits<char> > >::do_put(std::ostreambuf_iterator<char, std::char_traits<char> >, std::ios_base&, char, long double) const (in /usr/lib/i386-linux-gnu/libstdc++.so.6.0.19)
==3003==    by 0x43524A0: std::ostream& std::ostream::_M_insert<long double>(long double) (in /usr/lib/i386-linux-gnu/libstdc++.so.6.0.19)
==3003==    by 0x805ADAF: exchange_updated_community(Louvain) (in /home/safrin/Desktop/Test/louvain-bdsc/Test-2/louvain)
==3003==    by 0x804AA51: main (in /home/safrin/Desktop/Test/louvain-bdsc/Test-2/louvain)
==3003== 
==3003== Conditional jump or move depends on uninitialised value(s)
==3003==    at 0x441CA8E: __printf_fp (printf_fp.c:1226)
==3003==    by 0x441727E: vfprintf (vfprintf.c:1660)
==3003==    by 0x443AFA2: vsnprintf (vsnprintf.c:119)
==3003==    by 0x433EED4: ??? (in /usr/lib/i386-linux-gnu/libstdc++.so.6.0.19)
==3003==    by 0x4346A99: std::ostreambuf_iterator<char, std::char_traits<char> > std::num_put<char, std::ostreambuf_iterator<char, std::char_traits<char> > >::_M_insert_float<long double>(std::ostreambuf_iterator<char, std::char_traits<char> >, std::ios_base&, char, char, long double) const (in /usr/lib/i386-linux-gnu/libstdc++.so.6.0.19)
==3003==    by 0x4346DC0: std::num_put<char, std::ostreambuf_iterator<char, std::char_traits<char> > >::do_put(std::ostreambuf_iterator<char, std::char_traits<char> >, std::ios_base&, char, long double) const (in /usr/lib/i386-linux-gnu/libstdc++.so.6.0.19)
==3003==    by 0x43524A0: std::ostream& std::ostream::_M_insert<long double>(long double) (in /usr/lib/i386-linux-gnu/libstdc++.so.6.0.19)
==3003==    by 0x805ADAF: exchange_updated_community(Louvain) (in /home/safrin/Desktop/Test/louvain-bdsc/Test-2/louvain)
==3003==    by 0x804AA51: main (in /home/safrin/Desktop/Test/louvain-bdsc/Test-2/louvain)
==3003== 
==3003== Conditional jump or move depends on uninitialised value(s)
==3003==    at 0x402D313: memchr (vg_replace_strmem.c:887)
==3003==    by 0x4346B1B: std::ostreambuf_iterator<char, std::char_traits<char> > std::num_put<char, std::ostreambuf_iterator<char, std::char_traits<char> > >::_M_insert_float<long double>(std::ostreambuf_iterator<char, std::char_traits<char> >, std::ios_base&, char, char, long double) const (in /usr/lib/i386-linux-gnu/libstdc++.so.6.0.19)
==3003==    by 0x4346DC0: std::num_put<char, std::ostreambuf_iterator<char, std::char_traits<char> > >::do_put(std::ostreambuf_iterator<char, std::char_traits<char> >, std::ios_base&, char, long double) const (in /usr/lib/i386-linux-gnu/libstdc++.so.6.0.19)
==3003==    by 0x43524A0: std::ostream& std::ostream::_M_insert<long double>(long double) (in /usr/lib/i386-linux-gnu/libstdc++.so.6.0.19)
==3003==    by 0x805ADAF: exchange_updated_community(Louvain) (in /home/safrin/Desktop/Test/louvain-bdsc/Test-2/louvain)
==3003==    by 0x804AA51: main (in /home/safrin/Desktop/Test/louvain-bdsc/Test-2/louvain)
==3003== 
==3003== Syscall param write(buf) points to uninitialised byte(s)
==3003==    at 0x44B0483: __write_nocancel (syscall-template.S:81)
==3003==    by 0x4441D30: _IO_file_write@@GLIBC_2.1 (fileops.c:1261)
==3003==    by 0x4440F6E: new_do_write (fileops.c:538)
==3003==    by 0x44423E1: _IO_file_xsputn@@GLIBC_2.1 (fileops.c:1343)
==3003==    by 0x4437891: fwrite (iofwrite.c:43)
==3003==    by 0x434F525: __gnu_cxx::stdio_sync_filebuf<char, std::char_traits<char> >::xsputn(char const*, int) (in /usr/lib/i386-linux-gnu/libstdc++.so.6.0.19)
==3003==    by 0x4346C77: std::ostreambuf_iterator<char, std::char_traits<char> > std::num_put<char, std::ostreambuf_iterator<char, std::char_traits<char> > >::_M_insert_float<long double>(std::ostreambuf_iterator<char, std::char_traits<char> >, std::ios_base&, char, char, long double) const (in /usr/lib/i386-linux-gnu/libstdc++.so.6.0.19)
==3003==    by 0x4346DC0: std::num_put<char, std::ostreambuf_iterator<char, std::char_traits<char> > >::do_put(std::ostreambuf_iterator<char, std::char_traits<char> >, std::ios_base&, char, long double) const (in /usr/lib/i386-linux-gnu/libstdc++.so.6.0.19)
==3003==    by 0x43524A0: std::ostream& std::ostream::_M_insert<long double>(long double) (in /usr/lib/i386-linux-gnu/libstdc++.so.6.0.19)
==3003==    by 0x805ADAF: exchange_updated_community(Louvain) (in /home/safrin/Desktop/Test/louvain-bdsc/Test-2/louvain)
==3003==    by 0x804AA51: main (in /home/safrin/Desktop/Test/louvain-bdsc/Test-2/louvain)
==3003==  Address 0xbed16620 is on thread 1's stack
==3003==  in frame #6, created by std::ostreambuf_iterator<char, std::char_traits<char> > std::num_put<char, std::ostreambuf_iterator<char, std::char_traits<char> > >::_M_insert_float<long double>(std::ostreambuf_iterator<char, std::char_traits<char> >, std::ios_base&, char, char, long double) const (???:)
==3003== 
==3003== Invalid read of size 4
==3003==    at 0x805AD05: exchange_updated_community(Louvain) (in /home/safrin/Desktop/Test/louvain-bdsc/Test-2/louvain)
==3003==    by 0x804AA51: main (in /home/safrin/Desktop/Test/louvain-bdsc/Test-2/louvain)
==3003==  Address 0x4903f90 is 0 bytes after a block of size 48 alloc'd
==3003==    at 0x4029F39: operator new[](unsigned int) (vg_replace_malloc.c:417)
==3003==    by 0x805A4BC: exchange_updated_community(Louvain) (in /home/safrin/Desktop/Test/louvain-bdsc/Test-2/louvain)
==3003==    by 0x804AA51: main (in /home/safrin/Desktop/Test/louvain-bdsc/Test-2/louvain)
==3003== 
==3003== Invalid read of size 2
==3003==    at 0x805AD05: exchange_updated_community(Louvain) (in /home/safrin/Desktop/Test/louvain-bdsc/Test-2/louvain)
==3003==    by 0x804AA51: main (in /home/safrin/Desktop/Test/louvain-bdsc/Test-2/louvain)
==3003==  Address 0x4903f98 is 8 bytes after a block of size 48 alloc'd
==3003==    at 0x4029F39: operator new[](unsigned int) (vg_replace_malloc.c:417)
==3003==    by 0x805A4BC: exchange_updated_community(Louvain) (in /home/safrin/Desktop/Test/louvain-bdsc/Test-2/louvain)
==3003==    by 0x804AA51: main (in /home/safrin/Desktop/Test/louvain-bdsc/Test-2/louvain)
==3003== 
==3003== Invalid read of size 4
==3003==    at 0x805AD0D: exchange_updated_community(Louvain) (in /home/safrin/Desktop/Test/louvain-bdsc/Test-2/louvain)
==3003==    by 0x804AA51: main (in /home/safrin/Desktop/Test/louvain-bdsc/Test-2/louvain)
==3003==  Address 0x4903f30 is 0 bytes after a block of size 48 alloc'd
==3003==    at 0x4029F39: operator new[](unsigned int) (vg_replace_malloc.c:417)
==3003==    by 0x805A494: exchange_updated_community(Louvain) (in /home/safrin/Desktop/Test/louvain-bdsc/Test-2/louvain)
==3003==    by 0x804AA51: main (in /home/safrin/Desktop/Test/louvain-bdsc/Test-2/louvain)
==3003== 
==3003== Invalid read of size 2
==3003==    at 0x805AD0D: exchange_updated_community(Louvain) (in /home/safrin/Desktop/Test/louvain-bdsc/Test-2/louvain)
==3003==    by 0x804AA51: main (in /home/safrin/Desktop/Test/louvain-bdsc/Test-2/louvain)
==3003==  Address 0x4903f38 is 8 bytes after a block of size 48 alloc'd
==3003==    at 0x4029F39: operator new[](unsigned int) (vg_replace_malloc.c:417)
==3003==    by 0x805A494: exchange_updated_community(Louvain) (in /home/safrin/Desktop/Test/louvain-bdsc/Test-2/louvain)
==3003==    by 0x804AA51: main (in /home/safrin/Desktop/Test/louvain-bdsc/Test-2/louvain)
==3003== 
==3003== Invalid read of size 4
==3003==    at 0x805AD1D: exchange_updated_community(Louvain) (in /home/safrin/Desktop/Test/louvain-bdsc/Test-2/louvain)
==3003==    by 0x804AA51: main (in /home/safrin/Desktop/Test/louvain-bdsc/Test-2/louvain)
==3003==  Address 0x4903e30 is 0 bytes after a block of size 16 alloc'd
==3003==    at 0x4029F39: operator new[](unsigned int) (vg_replace_malloc.c:417)
==3003==    by 0x805A419: exchange_updated_community(Louvain) (in /home/safrin/Desktop/Test/louvain-bdsc/Test-2/louvain)
==3003==    by 0x804AA51: main (in /home/safrin/Desktop/Test/louvain-bdsc/Test-2/louvain)
==3003== 
==3003== 
==3003== HEAP SUMMARY:
==3003==     in use at exit: 6,231 bytes in 77 blocks
==3003==   total heap usage: 849 allocs, 772 frees, 3,190,008 bytes allocated
==3003== 
==3003== 8 bytes in 1 blocks are definitely lost in loss record 1 of 40
==3003==    at 0x4029F39: operator new[](unsigned int) (vg_replace_malloc.c:417)
==3003==    by 0x805A7D9: exchange_updated_community(Louvain) (in /home/safrin/Desktop/Test/louvain-bdsc/Test-2/louvain)
==3003==    by 0x804AA51: main (in /home/safrin/Desktop/Test/louvain-bdsc/Test-2/louvain)
==3003== 
==3003== 8 bytes in 1 blocks are definitely lost in loss record 2 of 40
==3003==    at 0x4029F39: operator new[](unsigned int) (vg_replace_malloc.c:417)
==3003==    by 0x805A804: exchange_updated_community(Louvain) (in /home/safrin/Desktop/Test/louvain-bdsc/Test-2/louvain)
==3003==    by 0x804AA51: main (in /home/safrin/Desktop/Test/louvain-bdsc/Test-2/louvain)
==3003== 
==3003== 8 bytes in 1 blocks are definitely lost in loss record 3 of 40
==3003==    at 0x4029F39: operator new[](unsigned int) (vg_replace_malloc.c:417)
==3003==    by 0x804B4A6: main (in /home/safrin/Desktop/Test/louvain-bdsc/Test-2/louvain)
==3003== 
==3003== 16 bytes in 1 blocks are definitely lost in loss record 4 of 40
==3003==    at 0x4029F39: operator new[](unsigned int) (vg_replace_malloc.c:417)
==3003==    by 0x805A419: exchange_updated_community(Louvain) (in /home/safrin/Desktop/Test/louvain-bdsc/Test-2/louvain)
==3003==    by 0x804AA51: main (in /home/safrin/Desktop/Test/louvain-bdsc/Test-2/louvain)
==3003== 
==3003== 16 bytes in 1 blocks are definitely lost in loss record 5 of 40
==3003==    at 0x4029F39: operator new[](unsigned int) (vg_replace_malloc.c:417)
==3003==    by 0x805A444: exchange_updated_community(Louvain) (in /home/safrin/Desktop/Test/louvain-bdsc/Test-2/louvain)
==3003==    by 0x804AA51: main (in /home/safrin/Desktop/Test/louvain-bdsc/Test-2/louvain)
==3003== 
==3003== 16 bytes in 1 blocks are definitely lost in loss record 6 of 40
==3003==    at 0x4029F39: operator new[](unsigned int) (vg_replace_malloc.c:417)
==3003==    by 0x805B7CF: exchange_duality_resolved_community(Louvain) (in /home/safrin/Desktop/Test/louvain-bdsc/Test-2/louvain)
==3003==    by 0x804AB24: main (in /home/safrin/Desktop/Test/louvain-bdsc/Test-2/louvain)
==3003== 
==3003== 16 bytes in 1 blocks are definitely lost in loss record 7 of 40
==3003==    at 0x4029F39: operator new[](unsigned int) (vg_replace_malloc.c:417)
==3003==    by 0x805B7E8: exchange_duality_resolved_community(Louvain) (in /home/safrin/Desktop/Test/louvain-bdsc/Test-2/louvain)
==3003==    by 0x804AB24: main (in /home/safrin/Desktop/Test/louvain-bdsc/Test-2/louvain)
==3003== 
==3003== 24 bytes in 1 blocks are definitely lost in loss record 8 of 40
==3003==    at 0x4029F39: operator new[](unsigned int) (vg_replace_malloc.c:417)
==3003==    by 0x805A82C: exchange_updated_community(Louvain) (in /home/safrin/Desktop/Test/louvain-bdsc/Test-2/louvain)
==3003==    by 0x804AA51: main (in /home/safrin/Desktop/Test/louvain-bdsc/Test-2/louvain)
==3003== 
==3003== 24 bytes in 1 blocks are definitely lost in loss record 9 of 40
==3003==    at 0x4029F39: operator new[](unsigned int) (vg_replace_malloc.c:417)
==3003==    by 0x805A854: exchange_updated_community(Louvain) (in /home/safrin/Desktop/Test/louvain-bdsc/Test-2/louvain)
==3003==    by 0x804AA51: main (in /home/safrin/Desktop/Test/louvain-bdsc/Test-2/louvain)
==3003== 
==3003== 24 bytes in 1 blocks are definitely lost in loss record 10 of 40
==3003==    at 0x4029F39: operator new[](unsigned int) (vg_replace_malloc.c:417)
==3003==    by 0x805A87C: exchange_updated_community(Louvain) (in /home/safrin/Desktop/Test/louvain-bdsc/Test-2/louvain)
==3003==    by 0x804AA51: main (in /home/safrin/Desktop/Test/louvain-bdsc/Test-2/louvain)
==3003== 
==3003== 33 bytes in 1 blocks are definitely lost in loss record 11 of 40
==3003==    at 0x4029F39: operator new[](unsigned int) (vg_replace_malloc.c:417)
==3003==    by 0x804A7E4: main (in /home/safrin/Desktop/Test/louvain-bdsc/Test-2/louvain)
==3003== 
==3003== 38 bytes in 1 blocks are still reachable in loss record 12 of 40
==3003==    at 0x4029F39: operator new[](unsigned int) (vg_replace_malloc.c:417)
==3003==    by 0x804A812: main (in /home/safrin/Desktop/Test/louvain-bdsc/Test-2/louvain)
==3003== 
==3003== 44 bytes in 1 blocks are definitely lost in loss record 13 of 40
==3003==    at 0x40292D8: malloc (vg_replace_malloc.c:299)
==3003==    by 0x41BE897: MPID_Datatype_set_contents (in /usr/local/lib/libmpi.so.12.1.0)
==3003==    by 0x40D0600: MPIR_Type_create_struct_impl (in /usr/local/lib/libmpi.so.12.1.0)
==3003==    by 0x40D0A85: PMPI_Type_create_struct (in /usr/local/lib/libmpi.so.12.1.0)
==3003==    by 0x805B837: exchange_duality_resolved_community(Louvain) (in /home/safrin/Desktop/Test/louvain-bdsc/Test-2/louvain)
==3003==    by 0x804AB24: main (in /home/safrin/Desktop/Test/louvain-bdsc/Test-2/louvain)
==3003== 
==3003== 44 bytes in 1 blocks are definitely lost in loss record 14 of 40
==3003==    at 0x40292D8: malloc (vg_replace_malloc.c:299)
==3003==    by 0x41B0559: MPID_Dataloop_alloc_and_copy (in /usr/local/lib/libmpi.so.12.1.0)
==3003==    by 0x41B0772: MPID_Dataloop_alloc (in /usr/local/lib/libmpi.so.12.1.0)
==3003==    by 0x41B2457: MPID_Dataloop_create_blockindexed (in /usr/local/lib/libmpi.so.12.1.0)
==3003==    by 0x41B31FA: MPID_Dataloop_create_indexed (in /usr/local/lib/libmpi.so.12.1.0)
==3003==    by 0x41B41E8: MPID_Dataloop_create_struct (in /usr/local/lib/libmpi.so.12.1.0)
==3003==    by 0x41B1C8E: MPID_Dataloop_create (in /usr/local/lib/libmpi.so.12.1.0)
==3003==    by 0x41C0614: MPID_Type_commit (in /usr/local/lib/libmpi.so.12.1.0)
==3003==    by 0x40CB2A0: MPIR_Type_commit_impl (in /usr/local/lib/libmpi.so.12.1.0)
==3003==    by 0x40CB505: PMPI_Type_commit (in /usr/local/lib/libmpi.so.12.1.0)
==3003==    by 0x805B83F: exchange_duality_resolved_community(Louvain) (in /home/safrin/Desktop/Test/louvain-bdsc/Test-2/louvain)
==3003==    by 0x804AB24: main (in /home/safrin/Desktop/Test/louvain-bdsc/Test-2/louvain)
==3003== 
==3003== 44 bytes in 1 blocks are definitely lost in loss record 15 of 40
==3003==    at 0x40292D8: malloc (vg_replace_malloc.c:299)
==3003==    by 0x41B0559: MPID_Dataloop_alloc_and_copy (in /usr/local/lib/libmpi.so.12.1.0)
==3003==    by 0x41B0772: MPID_Dataloop_alloc (in /usr/local/lib/libmpi.so.12.1.0)
==3003==    by 0x41B2457: MPID_Dataloop_create_blockindexed (in /usr/local/lib/libmpi.so.12.1.0)
==3003==    by 0x41B31FA: MPID_Dataloop_create_indexed (in /usr/local/lib/libmpi.so.12.1.0)
==3003==    by 0x41B41E8: MPID_Dataloop_create_struct (in /usr/local/lib/libmpi.so.12.1.0)
==3003==    by 0x41B1C8E: MPID_Dataloop_create (in /usr/local/lib/libmpi.so.12.1.0)
==3003==    by 0x41C063B: MPID_Type_commit (in /usr/local/lib/libmpi.so.12.1.0)
==3003==    by 0x40CB2A0: MPIR_Type_commit_impl (in /usr/local/lib/libmpi.so.12.1.0)
==3003==    by 0x40CB505: PMPI_Type_commit (in /usr/local/lib/libmpi.so.12.1.0)
==3003==    by 0x805B83F: exchange_duality_resolved_community(Louvain) (in /home/safrin/Desktop/Test/louvain-bdsc/Test-2/louvain)
==3003==    by 0x804AB24: main (in /home/safrin/Desktop/Test/louvain-bdsc/Test-2/louvain)
==3003== 
==3003== 48 bytes in 1 blocks are definitely lost in loss record 16 of 40
==3003==    at 0x4029F39: operator new[](unsigned int) (vg_replace_malloc.c:417)
==3003==    by 0x805A46C: exchange_updated_community(Louvain) (in /home/safrin/Desktop/Test/louvain-bdsc/Test-2/louvain)
==3003==    by 0x804AA51: main (in /home/safrin/Desktop/Test/louvain-bdsc/Test-2/louvain)
==3003== 
==3003== 48 bytes in 1 blocks are definitely lost in loss record 17 of 40
==3003==    at 0x4029F39: operator new[](unsigned int) (vg_replace_malloc.c:417)
==3003==    by 0x805A494: exchange_updated_community(Louvain) (in /home/safrin/Desktop/Test/louvain-bdsc/Test-2/louvain)
==3003==    by 0x804AA51: main (in /home/safrin/Desktop/Test/louvain-bdsc/Test-2/louvain)
==3003== 
==3003== 48 bytes in 1 blocks are definitely lost in loss record 18 of 40
==3003==    at 0x4029F39: operator new[](unsigned int) (vg_replace_malloc.c:417)
==3003==    by 0x805A4BC: exchange_updated_community(Louvain) (in /home/safrin/Desktop/Test/louvain-bdsc/Test-2/louvain)
==3003==    by 0x804AA51: main (in /home/safrin/Desktop/Test/louvain-bdsc/Test-2/louvain)
==3003== 
==3003== 60 bytes in 4 blocks are definitely lost in loss record 19 of 40
==3003==    at 0x4029F39: operator new[](unsigned int) (vg_replace_malloc.c:417)
==3003==    by 0x805CA32: gather_neighbor_info(Louvain) (in /home/safrin/Desktop/Test/louvain-bdsc/Test-2/louvain)
==3003==    by 0x804A98D: main (in /home/safrin/Desktop/Test/louvain-bdsc/Test-2/louvain)
==3003== 
==3003== 68 bytes in 1 blocks are definitely lost in loss record 20 of 40
==3003==    at 0x40292D8: malloc (vg_replace_malloc.c:299)
==3003==    by 0x41BE897: MPID_Datatype_set_contents (in /usr/local/lib/libmpi.so.12.1.0)
==3003==    by 0x40D0600: MPIR_Type_create_struct_impl (in /usr/local/lib/libmpi.so.12.1.0)
==3003==    by 0x40D0A85: PMPI_Type_create_struct (in /usr/local/lib/libmpi.so.12.1.0)
==3003==    by 0x805CAE3: gather_neighbor_info(Louvain) (in /home/safrin/Desktop/Test/louvain-bdsc/Test-2/louvain)
==3003==    by 0x804A98D: main (in /home/safrin/Desktop/Test/louvain-bdsc/Test-2/louvain)
==3003== 
==3003== 68 bytes in 1 blocks are definitely lost in loss record 21 of 40
==3003==    at 0x40292D8: malloc (vg_replace_malloc.c:299)
==3003==    by 0x41B0559: MPID_Dataloop_alloc_and_copy (in /usr/local/lib/libmpi.so.12.1.0)
==3003==    by 0x41B0772: MPID_Dataloop_alloc (in /usr/local/lib/libmpi.so.12.1.0)
==3003==    by 0x41B351A: MPID_Dataloop_create_indexed (in /usr/local/lib/libmpi.so.12.1.0)
==3003==    by 0x41B41E8: MPID_Dataloop_create_struct (in /usr/local/lib/libmpi.so.12.1.0)
==3003==    by 0x41B1C8E: MPID_Dataloop_create (in /usr/local/lib/libmpi.so.12.1.0)
==3003==    by 0x41C0614: MPID_Type_commit (in /usr/local/lib/libmpi.so.12.1.0)
==3003==    by 0x40CB2A0: MPIR_Type_commit_impl (in /usr/local/lib/libmpi.so.12.1.0)
==3003==    by 0x40CB505: PMPI_Type_commit (in /usr/local/lib/libmpi.so.12.1.0)
==3003==    by 0x805CAF1: gather_neighbor_info(Louvain) (in /home/safrin/Desktop/Test/louvain-bdsc/Test-2/louvain)
==3003==    by 0x804A98D: main (in /home/safrin/Desktop/Test/louvain-bdsc/Test-2/louvain)
==3003== 
==3003== 68 bytes in 1 blocks are definitely lost in loss record 22 of 40
==3003==    at 0x40292D8: malloc (vg_replace_malloc.c:299)
==3003==    by 0x41BE897: MPID_Datatype_set_contents (in /usr/local/lib/libmpi.so.12.1.0)
==3003==    by 0x40D0600: MPIR_Type_create_struct_impl (in /usr/local/lib/libmpi.so.12.1.0)
==3003==    by 0x40D0A85: PMPI_Type_create_struct (in /usr/local/lib/libmpi.so.12.1.0)
==3003==    by 0x804B588: main (in /home/safrin/Desktop/Test/louvain-bdsc/Test-2/louvain)
==3003== 
==3003== 68 bytes in 1 blocks are definitely lost in loss record 23 of 40
==3003==    at 0x40292D8: malloc (vg_replace_malloc.c:299)
==3003==    by 0x41B0559: MPID_Dataloop_alloc_and_copy (in /usr/local/lib/libmpi.so.12.1.0)
==3003==    by 0x41B0772: MPID_Dataloop_alloc (in /usr/local/lib/libmpi.so.12.1.0)
==3003==    by 0x41B351A: MPID_Dataloop_create_indexed (in /usr/local/lib/libmpi.so.12.1.0)
==3003==    by 0x41B41E8: MPID_Dataloop_create_struct (in /usr/local/lib/libmpi.so.12.1.0)
==3003==    by 0x41B1C8E: MPID_Dataloop_create (in /usr/local/lib/libmpi.so.12.1.0)
==3003==    by 0x41C0614: MPID_Type_commit (in /usr/local/lib/libmpi.so.12.1.0)
==3003==    by 0x40CB2A0: MPIR_Type_commit_impl (in /usr/local/lib/libmpi.so.12.1.0)
==3003==    by 0x40CB505: PMPI_Type_commit (in /usr/local/lib/libmpi.so.12.1.0)
==3003==    by 0x804B590: main (in /home/safrin/Desktop/Test/louvain-bdsc/Test-2/louvain)
==3003== 
==3003== 76 bytes in 1 blocks are definitely lost in loss record 24 of 40
==3003==    at 0x40292D8: malloc (vg_replace_malloc.c:299)
==3003==    by 0x41B0559: MPID_Dataloop_alloc_and_copy (in /usr/local/lib/libmpi.so.12.1.0)
==3003==    by 0x41B0772: MPID_Dataloop_alloc (in /usr/local/lib/libmpi.so.12.1.0)
==3003==    by 0x41B351A: MPID_Dataloop_create_indexed (in /usr/local/lib/libmpi.so.12.1.0)
==3003==    by 0x41B41E8: MPID_Dataloop_create_struct (in /usr/local/lib/libmpi.so.12.1.0)
==3003==    by 0x41B1C8E: MPID_Dataloop_create (in /usr/local/lib/libmpi.so.12.1.0)
==3003==    by 0x41C0614: MPID_Type_commit (in /usr/local/lib/libmpi.so.12.1.0)
==3003==    by 0x40CB2A0: MPIR_Type_commit_impl (in /usr/local/lib/libmpi.so.12.1.0)
==3003==    by 0x40CB505: PMPI_Type_commit (in /usr/local/lib/libmpi.so.12.1.0)
==3003==    by 0x805A5BB: exchange_updated_community(Louvain) (in /home/safrin/Desktop/Test/louvain-bdsc/Test-2/louvain)
==3003==    by 0x804AA51: main (in /home/safrin/Desktop/Test/louvain-bdsc/Test-2/louvain)
==3003== 
==3003== 76 bytes in 1 blocks are definitely lost in loss record 25 of 40
==3003==    at 0x40292D8: malloc (vg_replace_malloc.c:299)
==3003==    by 0x41B0559: MPID_Dataloop_alloc_and_copy (in /usr/local/lib/libmpi.so.12.1.0)
==3003==    by 0x41B0772: MPID_Dataloop_alloc (in /usr/local/lib/libmpi.so.12.1.0)
==3003==    by 0x41B351A: MPID_Dataloop_create_indexed (in /usr/local/lib/libmpi.so.12.1.0)
==3003==    by 0x41B41E8: MPID_Dataloop_create_struct (in /usr/local/lib/libmpi.so.12.1.0)
==3003==    by 0x41B1C8E: MPID_Dataloop_create (in /usr/local/lib/libmpi.so.12.1.0)
==3003==    by 0x41C0614: MPID_Type_commit (in /usr/local/lib/libmpi.so.12.1.0)
==3003==    by 0x40CB2A0: MPIR_Type_commit_impl (in /usr/local/lib/libmpi.so.12.1.0)
==3003==    by 0x40CB505: PMPI_Type_commit (in /usr/local/lib/libmpi.so.12.1.0)
==3003==    by 0x805A97B: exchange_updated_community(Louvain) (in /home/safrin/Desktop/Test/louvain-bdsc/Test-2/louvain)
==3003==    by 0x804AA51: main (in /home/safrin/Desktop/Test/louvain-bdsc/Test-2/louvain)
==3003== 
==3003== 80 bytes in 1 blocks are definitely lost in loss record 26 of 40
==3003==    at 0x40292D8: malloc (vg_replace_malloc.c:299)
==3003==    by 0x41BE897: MPID_Datatype_set_contents (in /usr/local/lib/libmpi.so.12.1.0)
==3003==    by 0x40D0600: MPIR_Type_create_struct_impl (in /usr/local/lib/libmpi.so.12.1.0)
==3003==    by 0x40D0A85: PMPI_Type_create_struct (in /usr/local/lib/libmpi.so.12.1.0)
==3003==    by 0x805A5AC: exchange_updated_community(Louvain) (in /home/safrin/Desktop/Test/louvain-bdsc/Test-2/louvain)
==3003==    by 0x804AA51: main (in /home/safrin/Desktop/Test/louvain-bdsc/Test-2/louvain)
==3003== 
==3003== 80 bytes in 1 blocks are definitely lost in loss record 27 of 40
==3003==    at 0x40292D8: malloc (vg_replace_malloc.c:299)
==3003==    by 0x41BE897: MPID_Datatype_set_contents (in /usr/local/lib/libmpi.so.12.1.0)
==3003==    by 0x40D0600: MPIR_Type_create_struct_impl (in /usr/local/lib/libmpi.so.12.1.0)
==3003==    by 0x40D0A85: PMPI_Type_create_struct (in /usr/local/lib/libmpi.so.12.1.0)
==3003==    by 0x805A96C: exchange_updated_community(Louvain) (in /home/safrin/Desktop/Test/louvain-bdsc/Test-2/louvain)
==3003==    by 0x804AA51: main (in /home/safrin/Desktop/Test/louvain-bdsc/Test-2/louvain)
==3003== 
==3003== 100 bytes in 6 blocks are definitely lost in loss record 28 of 40
==3003==    at 0x4029F39: operator new[](unsigned int) (vg_replace_malloc.c:417)
==3003==    by 0x805D25E: gather_neighbor_info(Louvain) (in /home/safrin/Desktop/Test/louvain-bdsc/Test-2/louvain)
==3003==    by 0x804A98D: main (in /home/safrin/Desktop/Test/louvain-bdsc/Test-2/louvain)
==3003== 
==3003== 180 bytes in 4 blocks are definitely lost in loss record 29 of 40
==3003==    at 0x4029F39: operator new[](unsigned int) (vg_replace_malloc.c:417)
==3003==    by 0x805CA58: gather_neighbor_info(Louvain) (in /home/safrin/Desktop/Test/louvain-bdsc/Test-2/louvain)
==3003==    by 0x804A98D: main (in /home/safrin/Desktop/Test/louvain-bdsc/Test-2/louvain)
==3003== 
==3003== 204 bytes in 3 blocks are still reachable in loss record 30 of 40
==3003==    at 0x40292D8: malloc (vg_replace_malloc.c:299)
==3003==    by 0x41BE897: MPID_Datatype_set_contents (in /usr/local/lib/libmpi.so.12.1.0)
==3003==    by 0x40D0600: MPIR_Type_create_struct_impl (in /usr/local/lib/libmpi.so.12.1.0)
==3003==    by 0x40D0A85: PMPI_Type_create_struct (in /usr/local/lib/libmpi.so.12.1.0)
==3003==    by 0x805CAE3: gather_neighbor_info(Louvain) (in /home/safrin/Desktop/Test/louvain-bdsc/Test-2/louvain)
==3003==    by 0x804A98D: main (in /home/safrin/Desktop/Test/louvain-bdsc/Test-2/louvain)
==3003== 
==3003== 204 bytes in 3 blocks are still reachable in loss record 31 of 40
==3003==    at 0x40292D8: malloc (vg_replace_malloc.c:299)
==3003==    by 0x41B0559: MPID_Dataloop_alloc_and_copy (in /usr/local/lib/libmpi.so.12.1.0)
==3003==    by 0x41B0772: MPID_Dataloop_alloc (in /usr/local/lib/libmpi.so.12.1.0)
==3003==    by 0x41B351A: MPID_Dataloop_create_indexed (in /usr/local/lib/libmpi.so.12.1.0)
==3003==    by 0x41B41E8: MPID_Dataloop_create_struct (in /usr/local/lib/libmpi.so.12.1.0)
==3003==    by 0x41B1C8E: MPID_Dataloop_create (in /usr/local/lib/libmpi.so.12.1.0)
==3003==    by 0x41C0614: MPID_Type_commit (in /usr/local/lib/libmpi.so.12.1.0)
==3003==    by 0x40CB2A0: MPIR_Type_commit_impl (in /usr/local/lib/libmpi.so.12.1.0)
==3003==    by 0x40CB505: PMPI_Type_commit (in /usr/local/lib/libmpi.so.12.1.0)
==3003==    by 0x805CAF1: gather_neighbor_info(Louvain) (in /home/safrin/Desktop/Test/louvain-bdsc/Test-2/louvain)
==3003==    by 0x804A98D: main (in /home/safrin/Desktop/Test/louvain-bdsc/Test-2/louvain)
==3003== 
==3003== 244 bytes in 1 blocks are definitely lost in loss record 32 of 40
==3003==    at 0x40292D8: malloc (vg_replace_malloc.c:299)
==3003==    by 0x41B07C5: MPID_Dataloop_struct_alloc (in /usr/local/lib/libmpi.so.12.1.0)
==3003==    by 0x41B427B: MPID_Dataloop_create_struct (in /usr/local/lib/libmpi.so.12.1.0)
==3003==    by 0x41B1C8E: MPID_Dataloop_create (in /usr/local/lib/libmpi.so.12.1.0)
==3003==    by 0x41C063B: MPID_Type_commit (in /usr/local/lib/libmpi.so.12.1.0)
==3003==    by 0x40CB2A0: MPIR_Type_commit_impl (in /usr/local/lib/libmpi.so.12.1.0)
==3003==    by 0x40CB505: PMPI_Type_commit (in /usr/local/lib/libmpi.so.12.1.0)
==3003==    by 0x805CAF1: gather_neighbor_info(Louvain) (in /home/safrin/Desktop/Test/louvain-bdsc/Test-2/louvain)
==3003==    by 0x804A98D: main (in /home/safrin/Desktop/Test/louvain-bdsc/Test-2/louvain)
==3003== 
==3003== 244 bytes in 1 blocks are definitely lost in loss record 33 of 40
==3003==    at 0x40292D8: malloc (vg_replace_malloc.c:299)
==3003==    by 0x41B07C5: MPID_Dataloop_struct_alloc (in /usr/local/lib/libmpi.so.12.1.0)
==3003==    by 0x41B427B: MPID_Dataloop_create_struct (in /usr/local/lib/libmpi.so.12.1.0)
==3003==    by 0x41B1C8E: MPID_Dataloop_create (in /usr/local/lib/libmpi.so.12.1.0)
==3003==    by 0x41C063B: MPID_Type_commit (in /usr/local/lib/libmpi.so.12.1.0)
==3003==    by 0x40CB2A0: MPIR_Type_commit_impl (in /usr/local/lib/libmpi.so.12.1.0)
==3003==    by 0x40CB505: PMPI_Type_commit (in /usr/local/lib/libmpi.so.12.1.0)
==3003==    by 0x804B590: main (in /home/safrin/Desktop/Test/louvain-bdsc/Test-2/louvain)
==3003== 
==3003== 296 bytes in 1 blocks are definitely lost in loss record 34 of 40
==3003==    at 0x40292D8: malloc (vg_replace_malloc.c:299)
==3003==    by 0x41B07C5: MPID_Dataloop_struct_alloc (in /usr/local/lib/libmpi.so.12.1.0)
==3003==    by 0x41B427B: MPID_Dataloop_create_struct (in /usr/local/lib/libmpi.so.12.1.0)
==3003==    by 0x41B1C8E: MPID_Dataloop_create (in /usr/local/lib/libmpi.so.12.1.0)
==3003==    by 0x41C063B: MPID_Type_commit (in /usr/local/lib/libmpi.so.12.1.0)
==3003==    by 0x40CB2A0: MPIR_Type_commit_impl (in /usr/local/lib/libmpi.so.12.1.0)
==3003==    by 0x40CB505: PMPI_Type_commit (in /usr/local/lib/libmpi.so.12.1.0)
==3003==    by 0x805A5BB: exchange_updated_community(Louvain) (in /home/safrin/Desktop/Test/louvain-bdsc/Test-2/louvain)
==3003==    by 0x804AA51: main (in /home/safrin/Desktop/Test/louvain-bdsc/Test-2/louvain)
==3003== 
==3003== 296 bytes in 1 blocks are definitely lost in loss record 35 of 40
==3003==    at 0x40292D8: malloc (vg_replace_malloc.c:299)
==3003==    by 0x41B07C5: MPID_Dataloop_struct_alloc (in /usr/local/lib/libmpi.so.12.1.0)
==3003==    by 0x41B427B: MPID_Dataloop_create_struct (in /usr/local/lib/libmpi.so.12.1.0)
==3003==    by 0x41B1C8E: MPID_Dataloop_create (in /usr/local/lib/libmpi.so.12.1.0)
==3003==    by 0x41C063B: MPID_Type_commit (in /usr/local/lib/libmpi.so.12.1.0)
==3003==    by 0x40CB2A0: MPIR_Type_commit_impl (in /usr/local/lib/libmpi.so.12.1.0)
==3003==    by 0x40CB505: PMPI_Type_commit (in /usr/local/lib/libmpi.so.12.1.0)
==3003==    by 0x805A97B: exchange_updated_community(Louvain) (in /home/safrin/Desktop/Test/louvain-bdsc/Test-2/louvain)
==3003==    by 0x804AA51: main (in /home/safrin/Desktop/Test/louvain-bdsc/Test-2/louvain)
==3003== 
==3003== 300 bytes in 6 blocks are definitely lost in loss record 36 of 40
==3003==    at 0x4029F39: operator new[](unsigned int) (vg_replace_malloc.c:417)
==3003==    by 0x805D281: gather_neighbor_info(Louvain) (in /home/safrin/Desktop/Test/louvain-bdsc/Test-2/louvain)
==3003==    by 0x804A98D: main (in /home/safrin/Desktop/Test/louvain-bdsc/Test-2/louvain)
==3003== 
==3003== 408 bytes in 6 blocks are definitely lost in loss record 37 of 40
==3003==    at 0x40292D8: malloc (vg_replace_malloc.c:299)
==3003==    by 0x41BE897: MPID_Datatype_set_contents (in /usr/local/lib/libmpi.so.12.1.0)
==3003==    by 0x40D0600: MPIR_Type_create_struct_impl (in /usr/local/lib/libmpi.so.12.1.0)
==3003==    by 0x40D0A85: PMPI_Type_create_struct (in /usr/local/lib/libmpi.so.12.1.0)
==3003==    by 0x805D306: gather_neighbor_info(Louvain) (in /home/safrin/Desktop/Test/louvain-bdsc/Test-2/louvain)
==3003==    by 0x804A98D: main (in /home/safrin/Desktop/Test/louvain-bdsc/Test-2/louvain)
==3003== 
==3003== 408 bytes in 6 blocks are definitely lost in loss record 38 of 40
==3003==    at 0x40292D8: malloc (vg_replace_malloc.c:299)
==3003==    by 0x41B0559: MPID_Dataloop_alloc_and_copy (in /usr/local/lib/libmpi.so.12.1.0)
==3003==    by 0x41B0772: MPID_Dataloop_alloc (in /usr/local/lib/libmpi.so.12.1.0)
==3003==    by 0x41B351A: MPID_Dataloop_create_indexed (in /usr/local/lib/libmpi.so.12.1.0)
==3003==    by 0x41B41E8: MPID_Dataloop_create_struct (in /usr/local/lib/libmpi.so.12.1.0)
==3003==    by 0x41B1C8E: MPID_Dataloop_create (in /usr/local/lib/libmpi.so.12.1.0)
==3003==    by 0x41C0614: MPID_Type_commit (in /usr/local/lib/libmpi.so.12.1.0)
==3003==    by 0x40CB2A0: MPIR_Type_commit_impl (in /usr/local/lib/libmpi.so.12.1.0)
==3003==    by 0x40CB505: PMPI_Type_commit (in /usr/local/lib/libmpi.so.12.1.0)
==3003==    by 0x805D314: gather_neighbor_info(Louvain) (in /home/safrin/Desktop/Test/louvain-bdsc/Test-2/louvain)
==3003==    by 0x804A98D: main (in /home/safrin/Desktop/Test/louvain-bdsc/Test-2/louvain)
==3003== 
==3003== 732 bytes in 3 blocks are still reachable in loss record 39 of 40
==3003==    at 0x40292D8: malloc (vg_replace_malloc.c:299)
==3003==    by 0x41B07C5: MPID_Dataloop_struct_alloc (in /usr/local/lib/libmpi.so.12.1.0)
==3003==    by 0x41B427B: MPID_Dataloop_create_struct (in /usr/local/lib/libmpi.so.12.1.0)
==3003==    by 0x41B1C8E: MPID_Dataloop_create (in /usr/local/lib/libmpi.so.12.1.0)
==3003==    by 0x41C063B: MPID_Type_commit (in /usr/local/lib/libmpi.so.12.1.0)
==3003==    by 0x40CB2A0: MPIR_Type_commit_impl (in /usr/local/lib/libmpi.so.12.1.0)
==3003==    by 0x40CB505: PMPI_Type_commit (in /usr/local/lib/libmpi.so.12.1.0)
==3003==    by 0x805CAF1: gather_neighbor_info(Louvain) (in /home/safrin/Desktop/Test/louvain-bdsc/Test-2/louvain)
==3003==    by 0x804A98D: main (in /home/safrin/Desktop/Test/louvain-bdsc/Test-2/louvain)
==3003== 
==3003== 1,464 bytes in 6 blocks are definitely lost in loss record 40 of 40
==3003==    at 0x40292D8: malloc (vg_replace_malloc.c:299)
==3003==    by 0x41B07C5: MPID_Dataloop_struct_alloc (in /usr/local/lib/libmpi.so.12.1.0)
==3003==    by 0x41B427B: MPID_Dataloop_create_struct (in /usr/local/lib/libmpi.so.12.1.0)
==3003==    by 0x41B1C8E: MPID_Dataloop_create (in /usr/local/lib/libmpi.so.12.1.0)
==3003==    by 0x41C063B: MPID_Type_commit (in /usr/local/lib/libmpi.so.12.1.0)
==3003==    by 0x40CB2A0: MPIR_Type_commit_impl (in /usr/local/lib/libmpi.so.12.1.0)
==3003==    by 0x40CB505: PMPI_Type_commit (in /usr/local/lib/libmpi.so.12.1.0)
==3003==    by 0x805D314: gather_neighbor_info(Louvain) (in /home/safrin/Desktop/Test/louvain-bdsc/Test-2/louvain)
==3003==    by 0x804A98D: main (in /home/safrin/Desktop/Test/louvain-bdsc/Test-2/louvain)
==3003== 
==3003== LEAK SUMMARY:
==3003==    definitely lost: 5,053 bytes in 67 blocks
==3003==    indirectly lost: 0 bytes in 0 blocks
==3003==      possibly lost: 0 bytes in 0 blocks
==3003==    still reachable: 1,178 bytes in 10 blocks
==3003==         suppressed: 0 bytes in 0 blocks
==3003== 
==3003== For counts of detected and suppressed errors, rerun with: -v
==3003== Use --track-origins=yes to see where uninitialised values come from
==3003== ERROR SUMMARY: 223 errors from 65 contexts (suppressed: 0 from 0)
