==31294== Memcheck, a memory error detector
==31294== Copyright (C) 2002-2017, and GNU GPL'd, by Julian Seward et al.
==31294== Using Valgrind-3.13.0 and LibVEX; rerun with -h for copyright info
==31294== Command: ./louvain ./sample/Output/gt-l0 -l -1 -i ./sample/input/gt-l1.txt -g ./sample/Output/full/gt-l1.bin -x ./sample/Output/full/gt-lw1.bin -f ./sample/Output/full/gt-l0.bin -u ./sample/Output/gt-l-n2c.txt -q id_qual
==31294== Parent PID: 31291
==31294== 
--31294-- 
--31294-- Valgrind options:
--31294--    --leak-check=full
--31294--    --show-leak-kinds=all
--31294--    --track-origins=yes
--31294--    --show-reachable=yes
--31294--    -v
--31294--    --dsymutil=yes
--31294--    --log-file=./Log/l-0-nc.vg.%p
--31294-- Contents of /proc/version:
--31294--   Linux version 4.4.0-116-generic (buildd@lgw01-amd64-042) (gcc version 4.8.4 (Ubuntu 4.8.4-2ubuntu1~14.04.4) ) #140~14.04.1-Ubuntu SMP Fri Feb 16 09:25:49 UTC 2018
--31294-- 
--31294-- Arch and hwcaps: X86, LittleEndian, x86-mmxext-sse1-sse2-sse3-lzcnt
--31294-- Page sizes: currently 4096, max supported 4096
--31294-- Valgrind library directory: /home/safrin/programs/valgrind-install/lib/valgrind
--31294-- Reading syms from /lib/i386-linux-gnu/ld-2.19.so
--31294--   Considering /lib/i386-linux-gnu/ld-2.19.so ..
--31294--   .. CRC mismatch (computed f920290a wanted 863ea278)
--31294--   Considering /usr/lib/debug/lib/i386-linux-gnu/ld-2.19.so ..
--31294--   .. CRC is valid
--31294-- Reading syms from /home/safrin/Desktop/Test/louvain-bdsc/Test-2/louvain
--31294-- Reading syms from /home/safrin/programs/valgrind-install/lib/valgrind/memcheck-x86-linux
--31294--    object doesn't have a dynamic symbol table
--31294-- Scheduler: using generic scheduler lock implementation.
--31294-- Reading suppressions file: /home/safrin/programs/valgrind-install/lib/valgrind/default.supp
==31294== embedded gdbserver: reading from /tmp/vgdb-pipe-from-vgdb-to-31294-by-safrin-on-???
==31294== embedded gdbserver: writing to   /tmp/vgdb-pipe-to-vgdb-from-31294-by-safrin-on-???
==31294== embedded gdbserver: shared mem   /tmp/vgdb-pipe-shared-mem-vgdb-31294-by-safrin-on-???
==31294== 
==31294== TO CONTROL THIS PROCESS USING vgdb (which you probably
==31294== don't want to do, unless you know exactly what you're doing,
==31294== or are doing some strange experiment):
==31294==   /home/safrin/programs/valgrind-install/lib/valgrind/../../bin/vgdb --pid=31294 ...command...
==31294== 
==31294== TO DEBUG THIS PROCESS USING GDB: start GDB like this
==31294==   /path/to/gdb ./louvain
==31294== and then give GDB the following command
==31294==   target remote | /home/safrin/programs/valgrind-install/lib/valgrind/../../bin/vgdb --pid=31294
==31294== --pid is optional if only one valgrind process is running
==31294== 
--31294-- REDIR: 0x40180a0 (ld-linux.so.2:strlen) redirected to 0x58060452 (vgPlain_x86_linux_REDIR_FOR_strlen)
--31294-- REDIR: 0x4017eb0 (ld-linux.so.2:index) redirected to 0x5806042d (vgPlain_x86_linux_REDIR_FOR_index)
--31294-- Reading syms from /home/safrin/programs/valgrind-install/lib/valgrind/vgpreload_core-x86-linux.so
--31294-- Reading syms from /home/safrin/programs/valgrind-install/lib/valgrind/vgpreload_memcheck-x86-linux.so
==31294== WARNING: new redirection conflicts with existing -- ignoring it
--31294--     old: 0x040180a0 (strlen              ) R-> (0000.0) 0x58060452 vgPlain_x86_linux_REDIR_FOR_strlen
--31294--     new: 0x040180a0 (strlen              ) R-> (2007.0) 0x0402bff0 strlen
--31294-- Reading syms from /usr/local/lib/libmpi.so.12.1.0
--31294-- Reading syms from /usr/lib/i386-linux-gnu/libstdc++.so.6.0.19
--31294--   Considering /usr/lib/i386-linux-gnu/libstdc++.so.6.0.19 ..
--31294--   .. CRC mismatch (computed 895036ef wanted 8bfeb94d)
--31294--    object doesn't have a symbol table
--31294-- Reading syms from /lib/i386-linux-gnu/libgcc_s.so.1
--31294--   Considering /lib/i386-linux-gnu/libgcc_s.so.1 ..
--31294--   .. CRC mismatch (computed 002a6602 wanted 8322ad7d)
--31294--    object doesn't have a symbol table
--31294-- Reading syms from /lib/i386-linux-gnu/libc-2.19.so
--31294--   Considering /lib/i386-linux-gnu/libc-2.19.so ..
--31294--   .. CRC mismatch (computed 01b4966f wanted 035f12ef)
--31294--   Considering /usr/lib/debug/lib/i386-linux-gnu/libc-2.19.so ..
--31294--   .. CRC is valid
--31294-- Reading syms from /lib/i386-linux-gnu/librt-2.19.so
--31294--   Considering /lib/i386-linux-gnu/librt-2.19.so ..
--31294--   .. CRC mismatch (computed 756c3096 wanted 57be6945)
--31294--   Considering /usr/lib/debug/lib/i386-linux-gnu/librt-2.19.so ..
--31294--   .. CRC is valid
--31294-- Reading syms from /lib/i386-linux-gnu/libpthread-2.19.so
--31294--   Considering /lib/i386-linux-gnu/libpthread-2.19.so ..
--31294--   .. CRC mismatch (computed ec231574 wanted af8e32bd)
--31294--   Considering /usr/lib/debug/lib/i386-linux-gnu/libpthread-2.19.so ..
--31294--   .. CRC is valid
--31294-- Reading syms from /lib/i386-linux-gnu/libm-2.19.so
--31294--   Considering /lib/i386-linux-gnu/libm-2.19.so ..
--31294--   .. CRC mismatch (computed 9f94914f wanted 4929b954)
--31294--   Considering /usr/lib/debug/lib/i386-linux-gnu/libm-2.19.so ..
--31294--   .. CRC is valid
--31294-- REDIR: 0x444e090 (libc.so.6:strnlen) redirected to 0x40235db (_vgnU_ifunc_wrapper)
--31294-- REDIR: 0x4450040 (libc.so.6:strncasecmp) redirected to 0x40235db (_vgnU_ifunc_wrapper)
--31294-- REDIR: 0x4457250 (libc.so.6:memrchr) redirected to 0x40235db (_vgnU_ifunc_wrapper)
--31294-- REDIR: 0x446a290 (libc.so.6:wcslen) redirected to 0x40235db (_vgnU_ifunc_wrapper)
--31294-- REDIR: 0x444ee10 (libc.so.6:strstr) redirected to 0x4030530 (strstr)
--31294-- REDIR: 0x444e240 (libc.so.6:__GI_strrchr) redirected to 0x402b9c0 (__GI_strrchr)
--31294-- REDIR: 0x444dfd0 (libc.so.6:__GI_strlen) redirected to 0x402bf70 (__GI_strlen)
--31294-- REDIR: 0x444f770 (libc.so.6:__GI_memcmp) redirected to 0x402eb50 (__GI_memcmp)
--31294-- REDIR: 0x444d830 (libc.so.6:strcmp) redirected to 0x40235db (_vgnU_ifunc_wrapper)
--31294-- REDIR: 0x450edf0 (libc.so.6:__strcmp_ssse3) redirected to 0x402d120 (strcmp)
--31294-- REDIR: 0x4449980 (libc.so.6:malloc) redirected to 0x402924f (malloc)
--31294-- REDIR: 0x4449fe0 (libc.so.6:realloc) redirected to 0x402b076 (realloc)
--31294-- REDIR: 0x444fb10 (libc.so.6:memset) redirected to 0x40235db (_vgnU_ifunc_wrapper)
--31294-- REDIR: 0x4501700 (libc.so.6:__memset_sse2) redirected to 0x402f570 (memset)
--31294-- REDIR: 0x4450200 (libc.so.6:__GI_memcpy) redirected to 0x402dc00 (__GI_memcpy)
--31294-- REDIR: 0x444df80 (libc.so.6:strlen) redirected to 0x40235db (_vgnU_ifunc_wrapper)
--31294-- REDIR: 0x44579b0 (libc.so.6:__strlen_sse2_bsf) redirected to 0x402bf50 (strlen)
--31294-- REDIR: 0x444f720 (libc.so.6:bcmp) redirected to 0x40235db (_vgnU_ifunc_wrapper)
--31294-- REDIR: 0x4519050 (libc.so.6:__memcmp_ssse3) redirected to 0x402ed30 (bcmp)
--31294-- REDIR: 0x44501a0 (libc.so.6:memcpy) redirected to 0x40235db (_vgnU_ifunc_wrapper)
--31294-- REDIR: 0x4502810 (libc.so.6:__memcpy_ssse3) redirected to 0x402d910 (memcpy)
--31294-- REDIR: 0x44578b0 (libc.so.6:__GI_strncmp) redirected to 0x402c7d0 (__GI_strncmp)
--31294-- REDIR: 0x444d900 (libc.so.6:strcpy) redirected to 0x40235db (_vgnU_ifunc_wrapper)
--31294-- REDIR: 0x4457b70 (libc.so.6:__strcpy_ssse3) redirected to 0x402c030 (strcpy)
--31294-- REDIR: 0x4449f30 (libc.so.6:free) redirected to 0x402a2c4 (free)
--31294-- REDIR: 0x4451f80 (libc.so.6:strchrnul) redirected to 0x402fe30 (strchrnul)
--31294-- REDIR: 0x444fc20 (libc.so.6:__GI_mempcpy) redirected to 0x4030070 (__GI_mempcpy)
--31294-- REDIR: 0x444e130 (libc.so.6:strncmp) redirected to 0x40235db (_vgnU_ifunc_wrapper)
--31294-- REDIR: 0x4510260 (libc.so.6:__strncmp_ssse3) redirected to 0x402c730 (strncmp)
--31294-- REDIR: 0x444f580 (libc.so.6:__GI_memchr) redirected to 0x402d340 (__GI_memchr)
--31294-- REDIR: 0x4457a80 (libc.so.6:__GI_strncpy) redirected to 0x402c340 (__GI_strncpy)
--31294-- REDIR: 0x444d670 (libc.so.6:__GI_strchr) redirected to 0x402baf0 (__GI_strchr)
--31294-- REDIR: 0x4514160 (libc.so.6:__strncasecmp_ssse3) redirected to 0x402cad0 (strncasecmp)
--31294-- REDIR: 0x444d890 (libc.so.6:__GI_strcmp) redirected to 0x402d170 (__GI_strcmp)
--31294-- REDIR: 0x444fe50 (libc.so.6:__GI_stpcpy) redirected to 0x402ef60 (__GI_stpcpy)
--31294-- REDIR: 0x444a2a0 (libc.so.6:calloc) redirected to 0x402aeae (calloc)
--31294-- Reading syms from /lib/i386-linux-gnu/libnss_files-2.19.so
--31294--   Considering /lib/i386-linux-gnu/libnss_files-2.19.so ..
--31294--   .. CRC mismatch (computed 055d7741 wanted d76337e8)
--31294--   Considering /usr/lib/debug/lib/i386-linux-gnu/libnss_files-2.19.so ..
--31294--   .. CRC is valid
--31294-- REDIR: 0x444d960 (libc.so.6:__GI_strcpy) redirected to 0x402c110 (__GI_strcpy)
--31294-- REDIR: 0x4451e60 (libc.so.6:rawmemchr) redirected to 0x40235db (_vgnU_ifunc_wrapper)
--31294-- REDIR: 0x4469580 (libc.so.6:__rawmemchr_sse2_bsf) redirected to 0x402fe60 (rawmemchr)
--31294-- REDIR: 0x444ffe0 (libc.so.6:strcasecmp) redirected to 0x40235db (_vgnU_ifunc_wrapper)
--31294-- REDIR: 0x4511c50 (libc.so.6:__strcasecmp_ssse3) redirected to 0x402c9b0 (strcasecmp)
--31294-- REDIR: 0x44cf190 (libc.so.6:__memcpy_chk) redirected to 0x40235db (_vgnU_ifunc_wrapper)
--31294-- REDIR: 0x4502800 (libc.so.6:__memcpy_chk_ssse3) redirected to 0x4030430 (__memcpy_chk)
--31294-- REDIR: 0x444d620 (libc.so.6:index) redirected to 0x40235db (_vgnU_ifunc_wrapper)
--31294-- REDIR: 0x4468aa0 (libc.so.6:__strchr_sse2_bsf) redirected to 0x402bbb0 (index)
--31294-- REDIR: 0x444e190 (libc.so.6:strncpy) redirected to 0x40235db (_vgnU_ifunc_wrapper)
--31294-- REDIR: 0x44593c0 (libc.so.6:__strncpy_ssse3) redirected to 0x402c1f0 (strncpy)
--31294-- REDIR: 0x4317890 (libstdc++.so.6:operator new(unsigned int)) redirected to 0x402983c (operator new(unsigned int))
--31294-- REDIR: 0x4315810 (libstdc++.so.6:operator delete(void*)) redirected to 0x402a734 (operator delete(void*))
--31294-- REDIR: 0x43179b0 (libstdc++.so.6:operator new[](unsigned int)) redirected to 0x4029eb0 (operator new[](unsigned int))
--31294-- REDIR: 0x4315860 (libstdc++.so.6:operator delete[](void*)) redirected to 0x402aba4 (operator delete[](void*))
--31294-- REDIR: 0x444fa50 (libc.so.6:memmove) redirected to 0x40235db (_vgnU_ifunc_wrapper)
--31294-- REDIR: 0x45067f0 (libc.so.6:__memmove_ssse3) redirected to 0x402f640 (memmove)
==31294== Invalid read of size 4
==31294==    at 0x8056261: nb_neighbors (graph_binary.h:129)
==31294==    by 0x8056261: nb_selfloops (graph_binary.h:141)
==31294==    by 0x8056261: Modularity::insert_g(int, int, long double, long double, long double) (modularity.h:81)
==31294==    by 0x805A6E0: exchange_updated_community(Louvain) (main_louvain.cpp:1074)
==31294==    by 0x804AA71: main (main_louvain.cpp:1643)
==31294==  Address 0x48b8d18 is 0 bytes after a block of size 1,008 alloc'd
==31294==    at 0x40298C5: operator new(unsigned int) (vg_replace_malloc.c:328)
==31294==    by 0x8050CC6: allocate (new_allocator.h:104)
==31294==    by 0x8050CC6: _M_allocate (stl_vector.h:168)
==31294==    by 0x8050CC6: std::vector<unsigned long long, std::allocator<unsigned long long> >::_M_fill_insert(__gnu_cxx::__normal_iterator<unsigned long long*, std::vector<unsigned long long, std::allocator<unsigned long long> > >, unsigned int, unsigned long long const&) (vector.tcc:483)
==31294==    by 0x804F1CF: insert (stl_vector.h:1024)
==31294==    by 0x804F1CF: resize (stl_vector.h:707)
==31294==    by 0x804F1CF: Graph::Graph(int, char*, char*, int) (graph_binary.cpp:142)
==31294==    by 0x804A89E: main (main_louvain.cpp:1595)
==31294== 
==31294== Invalid read of size 4
==31294==    at 0x805638C: nb_neighbors (graph_binary.h:129)
==31294==    by 0x805638C: weighted_degree (graph_binary.h:161)
==31294==    by 0x805638C: Modularity::insert_g(int, int, long double, long double, long double) (modularity.h:82)
==31294==    by 0x805A6E0: exchange_updated_community(Louvain) (main_louvain.cpp:1074)
==31294==    by 0x804AA71: main (main_louvain.cpp:1643)
==31294==  Address 0x48b8d18 is 0 bytes after a block of size 1,008 alloc'd
==31294==    at 0x40298C5: operator new(unsigned int) (vg_replace_malloc.c:328)
==31294==    by 0x8050CC6: allocate (new_allocator.h:104)
==31294==    by 0x8050CC6: _M_allocate (stl_vector.h:168)
==31294==    by 0x8050CC6: std::vector<unsigned long long, std::allocator<unsigned long long> >::_M_fill_insert(__gnu_cxx::__normal_iterator<unsigned long long*, std::vector<unsigned long long, std::allocator<unsigned long long> > >, unsigned int, unsigned long long const&) (vector.tcc:483)
==31294==    by 0x804F1CF: insert (stl_vector.h:1024)
==31294==    by 0x804F1CF: resize (stl_vector.h:707)
==31294==    by 0x804F1CF: Graph::Graph(int, char*, char*, int) (graph_binary.cpp:142)
==31294==    by 0x804A89E: main (main_louvain.cpp:1595)
==31294== 
==31294== Invalid read of size 4
==31294==    at 0x8056256: operator+ (stl_iterator.h:779)
==31294==    by 0x8056256: neighbors (graph_binary.h:182)
==31294==    by 0x8056256: nb_selfloops (graph_binary.h:139)
==31294==    by 0x8056256: Modularity::insert_g(int, int, long double, long double, long double) (modularity.h:81)
==31294==    by 0x805A6E0: exchange_updated_community(Louvain) (main_louvain.cpp:1074)
==31294==    by 0x804AA71: main (main_louvain.cpp:1643)
==31294==  Address 0x48b8d38 is 16 bytes before a block of size 23,476 alloc'd
==31294==    at 0x40298C5: operator new(unsigned int) (vg_replace_malloc.c:328)
==31294==    by 0x8050F5E: allocate (new_allocator.h:104)
==31294==    by 0x8050F5E: _M_allocate (stl_vector.h:168)
==31294==    by 0x8050F5E: std::vector<int, std::allocator<int> >::_M_fill_insert(__gnu_cxx::__normal_iterator<int*, std::vector<int, std::allocator<int> > >, unsigned int, int const&) (vector.tcc:483)
==31294==    by 0x804F1A7: insert (stl_vector.h:1024)
==31294==    by 0x804F1A7: resize (stl_vector.h:707)
==31294==    by 0x804F1A7: Graph::Graph(int, char*, char*, int) (graph_binary.cpp:148)
==31294==    by 0x804A89E: main (main_louvain.cpp:1595)
==31294== 
==31294== Invalid read of size 4
==31294==    at 0x8056268: nb_neighbors (graph_binary.h:129)
==31294==    by 0x8056268: nb_selfloops (graph_binary.h:141)
==31294==    by 0x8056268: Modularity::insert_g(int, int, long double, long double, long double) (modularity.h:81)
==31294==    by 0x805A6E0: exchange_updated_community(Louvain) (main_louvain.cpp:1074)
==31294==    by 0x804AA71: main (main_louvain.cpp:1643)
==31294==  Address 0x48b8d38 is 16 bytes before a block of size 23,476 alloc'd
==31294==    at 0x40298C5: operator new(unsigned int) (vg_replace_malloc.c:328)
==31294==    by 0x8050F5E: allocate (new_allocator.h:104)
==31294==    by 0x8050F5E: _M_allocate (stl_vector.h:168)
==31294==    by 0x8050F5E: std::vector<int, std::allocator<int> >::_M_fill_insert(__gnu_cxx::__normal_iterator<int*, std::vector<int, std::allocator<int> > >, unsigned int, int const&) (vector.tcc:483)
==31294==    by 0x804F1A7: insert (stl_vector.h:1024)
==31294==    by 0x804F1A7: resize (stl_vector.h:707)
==31294==    by 0x804F1A7: Graph::Graph(int, char*, char*, int) (graph_binary.cpp:148)
==31294==    by 0x804A89E: main (main_louvain.cpp:1595)
==31294== 
==31294== Invalid read of size 4
==31294==    at 0x805638F: nb_neighbors (graph_binary.h:129)
==31294==    by 0x805638F: weighted_degree (graph_binary.h:161)
==31294==    by 0x805638F: Modularity::insert_g(int, int, long double, long double, long double) (modularity.h:82)
==31294==    by 0x805A6E0: exchange_updated_community(Louvain) (main_louvain.cpp:1074)
==31294==    by 0x804AA71: main (main_louvain.cpp:1643)
==31294==  Address 0x48b8d38 is 16 bytes before a block of size 23,476 alloc'd
==31294==    at 0x40298C5: operator new(unsigned int) (vg_replace_malloc.c:328)
==31294==    by 0x8050F5E: allocate (new_allocator.h:104)
==31294==    by 0x8050F5E: _M_allocate (stl_vector.h:168)
==31294==    by 0x8050F5E: std::vector<int, std::allocator<int> >::_M_fill_insert(__gnu_cxx::__normal_iterator<int*, std::vector<int, std::allocator<int> > >, unsigned int, int const&) (vector.tcc:483)
==31294==    by 0x804F1A7: insert (stl_vector.h:1024)
==31294==    by 0x804F1A7: resize (stl_vector.h:707)
==31294==    by 0x804F1A7: Graph::Graph(int, char*, char*, int) (graph_binary.cpp:148)
==31294==    by 0x804A89E: main (main_louvain.cpp:1595)
==31294== 
--31294-- Discarding syms at 0x6d75ad0-0x6d7b9ab in /lib/i386-linux-gnu/libnss_files-2.19.so due to munmap()
==31294== 
==31294== HEAP SUMMARY:
==31294==     in use at exit: 524,141 bytes in 1,713 blocks
==31294==   total heap usage: 29,979 allocs, 28,266 frees, 117,334,601 bytes allocated
==31294== 
==31294== Searching for pointers to 1,713 not-freed blocks
==31294== Checked 311,728 bytes
==31294== 
==31294== 20 bytes in 2 blocks are definitely lost in loss record 1 of 22
==31294==    at 0x4029F39: operator new[](unsigned int) (vg_replace_malloc.c:417)
==31294==    by 0x805B2FF: exchange_duality_resolved_community(Louvain) (main_louvain.cpp:1292)
==31294==    by 0x804AB44: main (main_louvain.cpp:1729)
==31294== 
==31294== 20 bytes in 2 blocks are definitely lost in loss record 2 of 22
==31294==    at 0x4029F39: operator new[](unsigned int) (vg_replace_malloc.c:417)
==31294==    by 0x805B318: exchange_duality_resolved_community(Louvain) (main_louvain.cpp:1293)
==31294==    by 0x804AB44: main (main_louvain.cpp:1729)
==31294== 
==31294== 28 bytes in 1 blocks are definitely lost in loss record 3 of 22
==31294==    at 0x4029F39: operator new[](unsigned int) (vg_replace_malloc.c:417)
==31294==    by 0x804A804: main (main_louvain.cpp:1578)
==31294== 
==31294== 33 bytes in 1 blocks are still reachable in loss record 4 of 22
==31294==    at 0x4029F39: operator new[](unsigned int) (vg_replace_malloc.c:417)
==31294==    by 0x804A832: main (main_louvain.cpp:1583)
==31294== 
==31294== 108 bytes in 1 blocks are definitely lost in loss record 5 of 22
==31294==    at 0x4029F39: operator new[](unsigned int) (vg_replace_malloc.c:417)
==31294==    by 0x804B4D6: main (main_louvain.cpp:1793)
==31294== 
==31294== 236 bytes in 5 blocks are definitely lost in loss record 6 of 22
==31294==    at 0x4029F39: operator new[](unsigned int) (vg_replace_malloc.c:417)
==31294==    by 0x805B535: exchange_duality_resolved_community(Louvain) (main_louvain.cpp:1357)
==31294==    by 0x804AB44: main (main_louvain.cpp:1729)
==31294== 
==31294== 236 bytes in 5 blocks are definitely lost in loss record 7 of 22
==31294==    at 0x4029F39: operator new[](unsigned int) (vg_replace_malloc.c:417)
==31294==    by 0x805B555: exchange_duality_resolved_community(Louvain) (main_louvain.cpp:1358)
==31294==    by 0x804AB44: main (main_louvain.cpp:1729)
==31294== 
==31294== 460 bytes in 7 blocks are definitely lost in loss record 8 of 22
==31294==    at 0x4029F39: operator new[](unsigned int) (vg_replace_malloc.c:417)
==31294==    by 0x805A0F0: exchange_updated_community(Louvain) (main_louvain.cpp:962)
==31294==    by 0x804AA71: main (main_louvain.cpp:1643)
==31294== 
==31294== 460 bytes in 7 blocks are definitely lost in loss record 9 of 22
==31294==    at 0x4029F39: operator new[](unsigned int) (vg_replace_malloc.c:417)
==31294==    by 0x805A11B: exchange_updated_community(Louvain) (main_louvain.cpp:963)
==31294==    by 0x804AA71: main (main_louvain.cpp:1643)
==31294== 
==31294== 496 bytes in 7 blocks are definitely lost in loss record 10 of 22
==31294==    at 0x4029F39: operator new[](unsigned int) (vg_replace_malloc.c:417)
==31294==    by 0x805A48B: exchange_updated_community(Louvain) (main_louvain.cpp:1038)
==31294==    by 0x804AA71: main (main_louvain.cpp:1643)
==31294== 
==31294== 496 bytes in 7 blocks are definitely lost in loss record 11 of 22
==31294==    at 0x4029F39: operator new[](unsigned int) (vg_replace_malloc.c:417)
==31294==    by 0x805A4B6: exchange_updated_community(Louvain) (main_louvain.cpp:1039)
==31294==    by 0x804AA71: main (main_louvain.cpp:1643)
==31294== 
==31294== 1,380 bytes in 7 blocks are definitely lost in loss record 12 of 22
==31294==    at 0x4029F39: operator new[](unsigned int) (vg_replace_malloc.c:417)
==31294==    by 0x805A143: exchange_updated_community(Louvain) (main_louvain.cpp:964)
==31294==    by 0x804AA71: main (main_louvain.cpp:1643)
==31294== 
==31294== 1,380 bytes in 7 blocks are definitely lost in loss record 13 of 22
==31294==    at 0x4029F39: operator new[](unsigned int) (vg_replace_malloc.c:417)
==31294==    by 0x805A16B: exchange_updated_community(Louvain) (main_louvain.cpp:965)
==31294==    by 0x804AA71: main (main_louvain.cpp:1643)
==31294== 
==31294== 1,380 bytes in 7 blocks are definitely lost in loss record 14 of 22
==31294==    at 0x4029F39: operator new[](unsigned int) (vg_replace_malloc.c:417)
==31294==    by 0x805A193: exchange_updated_community(Louvain) (main_louvain.cpp:966)
==31294==    by 0x804AA71: main (main_louvain.cpp:1643)
==31294== 
==31294== 1,440 bytes in 1 blocks are indirectly lost in loss record 15 of 22
==31294==    at 0x4029F39: operator new[](unsigned int) (vg_replace_malloc.c:417)
==31294==    by 0x805C598: gather_neighbor_info(Louvain) (main_louvain.cpp:474)
==31294==    by 0x804A9AD: main (main_louvain.cpp:1622)
==31294== 
==31294== 1,488 bytes in 7 blocks are definitely lost in loss record 16 of 22
==31294==    at 0x4029F39: operator new[](unsigned int) (vg_replace_malloc.c:417)
==31294==    by 0x805A4DE: exchange_updated_community(Louvain) (main_louvain.cpp:1040)
==31294==    by 0x804AA71: main (main_louvain.cpp:1643)
==31294== 
==31294== 1,488 bytes in 7 blocks are definitely lost in loss record 17 of 22
==31294==    at 0x4029F39: operator new[](unsigned int) (vg_replace_malloc.c:417)
==31294==    by 0x805A506: exchange_updated_community(Louvain) (main_louvain.cpp:1041)
==31294==    by 0x804AA71: main (main_louvain.cpp:1643)
==31294== 
==31294== 1,488 bytes in 7 blocks are definitely lost in loss record 18 of 22
==31294==    at 0x4029F39: operator new[](unsigned int) (vg_replace_malloc.c:417)
==31294==    by 0x805A52E: exchange_updated_community(Louvain) (main_louvain.cpp:1042)
==31294==    by 0x804AA71: main (main_louvain.cpp:1643)
==31294== 
==31294== 23,476 bytes in 126 blocks are definitely lost in loss record 19 of 22
==31294==    at 0x4029F39: operator new[](unsigned int) (vg_replace_malloc.c:417)
==31294==    by 0x805C572: gather_neighbor_info(Louvain) (main_louvain.cpp:473)
==31294==    by 0x804A9AD: main (main_louvain.cpp:1622)
==31294== 
==31294== 68,988 bytes in 125 blocks are definitely lost in loss record 20 of 22
==31294==    at 0x4029F39: operator new[](unsigned int) (vg_replace_malloc.c:417)
==31294==    by 0x805C598: gather_neighbor_info(Louvain) (main_louvain.cpp:474)
==31294==    by 0x804A9AD: main (main_louvain.cpp:1622)
==31294== 
==31294== 104,760 bytes in 687 blocks are definitely lost in loss record 21 of 22
==31294==    at 0x4029F39: operator new[](unsigned int) (vg_replace_malloc.c:417)
==31294==    by 0x805CDAE: gather_neighbor_info(Louvain) (main_louvain.cpp:612)
==31294==    by 0x804A9AD: main (main_louvain.cpp:1622)
==31294== 
==31294== 315,720 (314,280 direct, 1,440 indirect) bytes in 687 blocks are definitely lost in loss record 22 of 22
==31294==    at 0x4029F39: operator new[](unsigned int) (vg_replace_malloc.c:417)
==31294==    by 0x805CDD1: gather_neighbor_info(Louvain) (main_louvain.cpp:613)
==31294==    by 0x804A9AD: main (main_louvain.cpp:1622)
==31294== 
==31294== LEAK SUMMARY:
==31294==    definitely lost: 522,668 bytes in 1,711 blocks
==31294==    indirectly lost: 1,440 bytes in 1 blocks
==31294==      possibly lost: 0 bytes in 0 blocks
==31294==    still reachable: 33 bytes in 1 blocks
==31294==         suppressed: 0 bytes in 0 blocks
==31294== 
==31294== ERROR SUMMARY: 30 errors from 25 contexts (suppressed: 0 from 0)
==31294== 
==31294== 2 errors in context 1 of 25:
==31294== Invalid read of size 4
==31294==    at 0x805638F: nb_neighbors (graph_binary.h:129)
==31294==    by 0x805638F: weighted_degree (graph_binary.h:161)
==31294==    by 0x805638F: Modularity::insert_g(int, int, long double, long double, long double) (modularity.h:82)
==31294==    by 0x805A6E0: exchange_updated_community(Louvain) (main_louvain.cpp:1074)
==31294==    by 0x804AA71: main (main_louvain.cpp:1643)
==31294==  Address 0x48b8d38 is 16 bytes before a block of size 23,476 alloc'd
==31294==    at 0x40298C5: operator new(unsigned int) (vg_replace_malloc.c:328)
==31294==    by 0x8050F5E: allocate (new_allocator.h:104)
==31294==    by 0x8050F5E: _M_allocate (stl_vector.h:168)
==31294==    by 0x8050F5E: std::vector<int, std::allocator<int> >::_M_fill_insert(__gnu_cxx::__normal_iterator<int*, std::vector<int, std::allocator<int> > >, unsigned int, int const&) (vector.tcc:483)
==31294==    by 0x804F1A7: insert (stl_vector.h:1024)
==31294==    by 0x804F1A7: resize (stl_vector.h:707)
==31294==    by 0x804F1A7: Graph::Graph(int, char*, char*, int) (graph_binary.cpp:148)
==31294==    by 0x804A89E: main (main_louvain.cpp:1595)
==31294== 
==31294== 
==31294== 2 errors in context 2 of 25:
==31294== Invalid read of size 4
==31294==    at 0x8056268: nb_neighbors (graph_binary.h:129)
==31294==    by 0x8056268: nb_selfloops (graph_binary.h:141)
==31294==    by 0x8056268: Modularity::insert_g(int, int, long double, long double, long double) (modularity.h:81)
==31294==    by 0x805A6E0: exchange_updated_community(Louvain) (main_louvain.cpp:1074)
==31294==    by 0x804AA71: main (main_louvain.cpp:1643)
==31294==  Address 0x48b8d38 is 16 bytes before a block of size 23,476 alloc'd
==31294==    at 0x40298C5: operator new(unsigned int) (vg_replace_malloc.c:328)
==31294==    by 0x8050F5E: allocate (new_allocator.h:104)
==31294==    by 0x8050F5E: _M_allocate (stl_vector.h:168)
==31294==    by 0x8050F5E: std::vector<int, std::allocator<int> >::_M_fill_insert(__gnu_cxx::__normal_iterator<int*, std::vector<int, std::allocator<int> > >, unsigned int, int const&) (vector.tcc:483)
==31294==    by 0x804F1A7: insert (stl_vector.h:1024)
==31294==    by 0x804F1A7: resize (stl_vector.h:707)
==31294==    by 0x804F1A7: Graph::Graph(int, char*, char*, int) (graph_binary.cpp:148)
==31294==    by 0x804A89E: main (main_louvain.cpp:1595)
==31294== 
==31294== 
==31294== 2 errors in context 3 of 25:
==31294== Invalid read of size 4
==31294==    at 0x8056256: operator+ (stl_iterator.h:779)
==31294==    by 0x8056256: neighbors (graph_binary.h:182)
==31294==    by 0x8056256: nb_selfloops (graph_binary.h:139)
==31294==    by 0x8056256: Modularity::insert_g(int, int, long double, long double, long double) (modularity.h:81)
==31294==    by 0x805A6E0: exchange_updated_community(Louvain) (main_louvain.cpp:1074)
==31294==    by 0x804AA71: main (main_louvain.cpp:1643)
==31294==  Address 0x48b8d38 is 16 bytes before a block of size 23,476 alloc'd
==31294==    at 0x40298C5: operator new(unsigned int) (vg_replace_malloc.c:328)
==31294==    by 0x8050F5E: allocate (new_allocator.h:104)
==31294==    by 0x8050F5E: _M_allocate (stl_vector.h:168)
==31294==    by 0x8050F5E: std::vector<int, std::allocator<int> >::_M_fill_insert(__gnu_cxx::__normal_iterator<int*, std::vector<int, std::allocator<int> > >, unsigned int, int const&) (vector.tcc:483)
==31294==    by 0x804F1A7: insert (stl_vector.h:1024)
==31294==    by 0x804F1A7: resize (stl_vector.h:707)
==31294==    by 0x804F1A7: Graph::Graph(int, char*, char*, int) (graph_binary.cpp:148)
==31294==    by 0x804A89E: main (main_louvain.cpp:1595)
==31294== 
==31294== 
==31294== 2 errors in context 4 of 25:
==31294== Invalid read of size 4
==31294==    at 0x805638C: nb_neighbors (graph_binary.h:129)
==31294==    by 0x805638C: weighted_degree (graph_binary.h:161)
==31294==    by 0x805638C: Modularity::insert_g(int, int, long double, long double, long double) (modularity.h:82)
==31294==    by 0x805A6E0: exchange_updated_community(Louvain) (main_louvain.cpp:1074)
==31294==    by 0x804AA71: main (main_louvain.cpp:1643)
==31294==  Address 0x48b8d18 is 0 bytes after a block of size 1,008 alloc'd
==31294==    at 0x40298C5: operator new(unsigned int) (vg_replace_malloc.c:328)
==31294==    by 0x8050CC6: allocate (new_allocator.h:104)
==31294==    by 0x8050CC6: _M_allocate (stl_vector.h:168)
==31294==    by 0x8050CC6: std::vector<unsigned long long, std::allocator<unsigned long long> >::_M_fill_insert(__gnu_cxx::__normal_iterator<unsigned long long*, std::vector<unsigned long long, std::allocator<unsigned long long> > >, unsigned int, unsigned long long const&) (vector.tcc:483)
==31294==    by 0x804F1CF: insert (stl_vector.h:1024)
==31294==    by 0x804F1CF: resize (stl_vector.h:707)
==31294==    by 0x804F1CF: Graph::Graph(int, char*, char*, int) (graph_binary.cpp:142)
==31294==    by 0x804A89E: main (main_louvain.cpp:1595)
==31294== 
==31294== 
==31294== 2 errors in context 5 of 25:
==31294== Invalid read of size 4
==31294==    at 0x8056261: nb_neighbors (graph_binary.h:129)
==31294==    by 0x8056261: nb_selfloops (graph_binary.h:141)
==31294==    by 0x8056261: Modularity::insert_g(int, int, long double, long double, long double) (modularity.h:81)
==31294==    by 0x805A6E0: exchange_updated_community(Louvain) (main_louvain.cpp:1074)
==31294==    by 0x804AA71: main (main_louvain.cpp:1643)
==31294==  Address 0x48b8d18 is 0 bytes after a block of size 1,008 alloc'd
==31294==    at 0x40298C5: operator new(unsigned int) (vg_replace_malloc.c:328)
==31294==    by 0x8050CC6: allocate (new_allocator.h:104)
==31294==    by 0x8050CC6: _M_allocate (stl_vector.h:168)
==31294==    by 0x8050CC6: std::vector<unsigned long long, std::allocator<unsigned long long> >::_M_fill_insert(__gnu_cxx::__normal_iterator<unsigned long long*, std::vector<unsigned long long, std::allocator<unsigned long long> > >, unsigned int, unsigned long long const&) (vector.tcc:483)
==31294==    by 0x804F1CF: insert (stl_vector.h:1024)
==31294==    by 0x804F1CF: resize (stl_vector.h:707)
==31294==    by 0x804F1CF: Graph::Graph(int, char*, char*, int) (graph_binary.cpp:142)
==31294==    by 0x804A89E: main (main_louvain.cpp:1595)
==31294== 
==31294== ERROR SUMMARY: 30 errors from 25 contexts (suppressed: 0 from 0)
