==31292== Memcheck, a memory error detector
==31292== Copyright (C) 2002-2017, and GNU GPL'd, by Julian Seward et al.
==31292== Using Valgrind-3.13.0 and LibVEX; rerun with -h for copyright info
==31292== Command: ./louvain ./sample/Output/gt-l0 -l -1 -i ./sample/input/gt-l1.txt -g ./sample/Output/full/gt-l1.bin -x ./sample/Output/full/gt-lw1.bin -f ./sample/Output/full/gt-l0.bin -u ./sample/Output/gt-l-n2c.txt -q id_qual
==31292== Parent PID: 31291
==31292== 
--31292-- 
--31292-- Valgrind options:
--31292--    --leak-check=full
--31292--    --show-leak-kinds=all
--31292--    --track-origins=yes
--31292--    --show-reachable=yes
--31292--    -v
--31292--    --dsymutil=yes
--31292--    --log-file=./Log/l-0-nc.vg.%p
--31292-- Contents of /proc/version:
--31292--   Linux version 4.4.0-116-generic (buildd@lgw01-amd64-042) (gcc version 4.8.4 (Ubuntu 4.8.4-2ubuntu1~14.04.4) ) #140~14.04.1-Ubuntu SMP Fri Feb 16 09:25:49 UTC 2018
--31292-- 
--31292-- Arch and hwcaps: X86, LittleEndian, x86-mmxext-sse1-sse2-sse3-lzcnt
--31292-- Page sizes: currently 4096, max supported 4096
--31292-- Valgrind library directory: /home/safrin/programs/valgrind-install/lib/valgrind
--31292-- Reading syms from /lib/i386-linux-gnu/ld-2.19.so
--31292--   Considering /lib/i386-linux-gnu/ld-2.19.so ..
--31292--   .. CRC mismatch (computed f920290a wanted 863ea278)
--31292--   Considering /usr/lib/debug/lib/i386-linux-gnu/ld-2.19.so ..
--31292--   .. CRC is valid
--31292-- Reading syms from /home/safrin/Desktop/Test/louvain-bdsc/Test-2/louvain
--31292-- Reading syms from /home/safrin/programs/valgrind-install/lib/valgrind/memcheck-x86-linux
--31292--    object doesn't have a dynamic symbol table
--31292-- Scheduler: using generic scheduler lock implementation.
--31292-- Reading suppressions file: /home/safrin/programs/valgrind-install/lib/valgrind/default.supp
==31292== embedded gdbserver: reading from /tmp/vgdb-pipe-from-vgdb-to-31292-by-safrin-on-???
==31292== embedded gdbserver: writing to   /tmp/vgdb-pipe-to-vgdb-from-31292-by-safrin-on-???
==31292== embedded gdbserver: shared mem   /tmp/vgdb-pipe-shared-mem-vgdb-31292-by-safrin-on-???
==31292== 
==31292== TO CONTROL THIS PROCESS USING vgdb (which you probably
==31292== don't want to do, unless you know exactly what you're doing,
==31292== or are doing some strange experiment):
==31292==   /home/safrin/programs/valgrind-install/lib/valgrind/../../bin/vgdb --pid=31292 ...command...
==31292== 
==31292== TO DEBUG THIS PROCESS USING GDB: start GDB like this
==31292==   /path/to/gdb ./louvain
==31292== and then give GDB the following command
==31292==   target remote | /home/safrin/programs/valgrind-install/lib/valgrind/../../bin/vgdb --pid=31292
==31292== --pid is optional if only one valgrind process is running
==31292== 
--31292-- REDIR: 0x40180a0 (ld-linux.so.2:strlen) redirected to 0x58060452 (vgPlain_x86_linux_REDIR_FOR_strlen)
--31292-- REDIR: 0x4017eb0 (ld-linux.so.2:index) redirected to 0x5806042d (vgPlain_x86_linux_REDIR_FOR_index)
--31292-- Reading syms from /home/safrin/programs/valgrind-install/lib/valgrind/vgpreload_core-x86-linux.so
--31292-- Reading syms from /home/safrin/programs/valgrind-install/lib/valgrind/vgpreload_memcheck-x86-linux.so
==31292== WARNING: new redirection conflicts with existing -- ignoring it
--31292--     old: 0x040180a0 (strlen              ) R-> (0000.0) 0x58060452 vgPlain_x86_linux_REDIR_FOR_strlen
--31292--     new: 0x040180a0 (strlen              ) R-> (2007.0) 0x0402bff0 strlen
--31292-- Reading syms from /usr/local/lib/libmpi.so.12.1.0
--31292-- Reading syms from /usr/lib/i386-linux-gnu/libstdc++.so.6.0.19
--31292--   Considering /usr/lib/i386-linux-gnu/libstdc++.so.6.0.19 ..
--31292--   .. CRC mismatch (computed 895036ef wanted 8bfeb94d)
--31292--    object doesn't have a symbol table
--31292-- Reading syms from /lib/i386-linux-gnu/libgcc_s.so.1
--31292--   Considering /lib/i386-linux-gnu/libgcc_s.so.1 ..
--31292--   .. CRC mismatch (computed 002a6602 wanted 8322ad7d)
--31292--    object doesn't have a symbol table
--31292-- Reading syms from /lib/i386-linux-gnu/libc-2.19.so
--31292--   Considering /lib/i386-linux-gnu/libc-2.19.so ..
--31292--   .. CRC mismatch (computed 01b4966f wanted 035f12ef)
--31292--   Considering /usr/lib/debug/lib/i386-linux-gnu/libc-2.19.so ..
--31292--   .. CRC is valid
--31292-- Reading syms from /lib/i386-linux-gnu/librt-2.19.so
--31292--   Considering /lib/i386-linux-gnu/librt-2.19.so ..
--31292--   .. CRC mismatch (computed 756c3096 wanted 57be6945)
--31292--   Considering /usr/lib/debug/lib/i386-linux-gnu/librt-2.19.so ..
--31292--   .. CRC is valid
--31292-- Reading syms from /lib/i386-linux-gnu/libpthread-2.19.so
--31292--   Considering /lib/i386-linux-gnu/libpthread-2.19.so ..
--31292--   .. CRC mismatch (computed ec231574 wanted af8e32bd)
--31292--   Considering /usr/lib/debug/lib/i386-linux-gnu/libpthread-2.19.so ..
--31292--   .. CRC is valid
--31292-- Reading syms from /lib/i386-linux-gnu/libm-2.19.so
--31292--   Considering /lib/i386-linux-gnu/libm-2.19.so ..
--31292--   .. CRC mismatch (computed 9f94914f wanted 4929b954)
--31292--   Considering /usr/lib/debug/lib/i386-linux-gnu/libm-2.19.so ..
--31292--   .. CRC is valid
--31292-- REDIR: 0x444e090 (libc.so.6:strnlen) redirected to 0x40235db (_vgnU_ifunc_wrapper)
--31292-- REDIR: 0x4450040 (libc.so.6:strncasecmp) redirected to 0x40235db (_vgnU_ifunc_wrapper)
--31292-- REDIR: 0x4457250 (libc.so.6:memrchr) redirected to 0x40235db (_vgnU_ifunc_wrapper)
--31292-- REDIR: 0x446a290 (libc.so.6:wcslen) redirected to 0x40235db (_vgnU_ifunc_wrapper)
--31292-- REDIR: 0x444ee10 (libc.so.6:strstr) redirected to 0x4030530 (strstr)
--31292-- REDIR: 0x444e240 (libc.so.6:__GI_strrchr) redirected to 0x402b9c0 (__GI_strrchr)
--31292-- REDIR: 0x444dfd0 (libc.so.6:__GI_strlen) redirected to 0x402bf70 (__GI_strlen)
--31292-- REDIR: 0x444f770 (libc.so.6:__GI_memcmp) redirected to 0x402eb50 (__GI_memcmp)
--31292-- REDIR: 0x444d830 (libc.so.6:strcmp) redirected to 0x40235db (_vgnU_ifunc_wrapper)
--31292-- REDIR: 0x450edf0 (libc.so.6:__strcmp_ssse3) redirected to 0x402d120 (strcmp)
--31292-- REDIR: 0x4449980 (libc.so.6:malloc) redirected to 0x402924f (malloc)
--31292-- REDIR: 0x4449fe0 (libc.so.6:realloc) redirected to 0x402b076 (realloc)
--31292-- REDIR: 0x444fb10 (libc.so.6:memset) redirected to 0x40235db (_vgnU_ifunc_wrapper)
--31292-- REDIR: 0x4501700 (libc.so.6:__memset_sse2) redirected to 0x402f570 (memset)
--31292-- REDIR: 0x4450200 (libc.so.6:__GI_memcpy) redirected to 0x402dc00 (__GI_memcpy)
--31292-- REDIR: 0x444df80 (libc.so.6:strlen) redirected to 0x40235db (_vgnU_ifunc_wrapper)
--31292-- REDIR: 0x44579b0 (libc.so.6:__strlen_sse2_bsf) redirected to 0x402bf50 (strlen)
--31292-- REDIR: 0x444f720 (libc.so.6:bcmp) redirected to 0x40235db (_vgnU_ifunc_wrapper)
--31292-- REDIR: 0x4519050 (libc.so.6:__memcmp_ssse3) redirected to 0x402ed30 (bcmp)
--31292-- REDIR: 0x44501a0 (libc.so.6:memcpy) redirected to 0x40235db (_vgnU_ifunc_wrapper)
--31292-- REDIR: 0x4502810 (libc.so.6:__memcpy_ssse3) redirected to 0x402d910 (memcpy)
--31292-- REDIR: 0x44578b0 (libc.so.6:__GI_strncmp) redirected to 0x402c7d0 (__GI_strncmp)
--31292-- REDIR: 0x444d900 (libc.so.6:strcpy) redirected to 0x40235db (_vgnU_ifunc_wrapper)
--31292-- REDIR: 0x4457b70 (libc.so.6:__strcpy_ssse3) redirected to 0x402c030 (strcpy)
--31292-- REDIR: 0x4449f30 (libc.so.6:free) redirected to 0x402a2c4 (free)
--31292-- REDIR: 0x4451f80 (libc.so.6:strchrnul) redirected to 0x402fe30 (strchrnul)
--31292-- REDIR: 0x444fc20 (libc.so.6:__GI_mempcpy) redirected to 0x4030070 (__GI_mempcpy)
--31292-- REDIR: 0x444e130 (libc.so.6:strncmp) redirected to 0x40235db (_vgnU_ifunc_wrapper)
--31292-- REDIR: 0x4510260 (libc.so.6:__strncmp_ssse3) redirected to 0x402c730 (strncmp)
--31292-- REDIR: 0x444f580 (libc.so.6:__GI_memchr) redirected to 0x402d340 (__GI_memchr)
--31292-- REDIR: 0x4457a80 (libc.so.6:__GI_strncpy) redirected to 0x402c340 (__GI_strncpy)
--31292-- REDIR: 0x444d670 (libc.so.6:__GI_strchr) redirected to 0x402baf0 (__GI_strchr)
--31292-- REDIR: 0x4514160 (libc.so.6:__strncasecmp_ssse3) redirected to 0x402cad0 (strncasecmp)
--31292-- REDIR: 0x444d890 (libc.so.6:__GI_strcmp) redirected to 0x402d170 (__GI_strcmp)
--31292-- REDIR: 0x444fe50 (libc.so.6:__GI_stpcpy) redirected to 0x402ef60 (__GI_stpcpy)
--31292-- REDIR: 0x444a2a0 (libc.so.6:calloc) redirected to 0x402aeae (calloc)
--31292-- Reading syms from /lib/i386-linux-gnu/libnss_files-2.19.so
--31292--   Considering /lib/i386-linux-gnu/libnss_files-2.19.so ..
--31292--   .. CRC mismatch (computed 055d7741 wanted d76337e8)
--31292--   Considering /usr/lib/debug/lib/i386-linux-gnu/libnss_files-2.19.so ..
--31292--   .. CRC is valid
--31292-- REDIR: 0x444d960 (libc.so.6:__GI_strcpy) redirected to 0x402c110 (__GI_strcpy)
--31292-- REDIR: 0x4451e60 (libc.so.6:rawmemchr) redirected to 0x40235db (_vgnU_ifunc_wrapper)
--31292-- REDIR: 0x4469580 (libc.so.6:__rawmemchr_sse2_bsf) redirected to 0x402fe60 (rawmemchr)
--31292-- REDIR: 0x444ffe0 (libc.so.6:strcasecmp) redirected to 0x40235db (_vgnU_ifunc_wrapper)
--31292-- REDIR: 0x4511c50 (libc.so.6:__strcasecmp_ssse3) redirected to 0x402c9b0 (strcasecmp)
--31292-- REDIR: 0x44cf190 (libc.so.6:__memcpy_chk) redirected to 0x40235db (_vgnU_ifunc_wrapper)
--31292-- REDIR: 0x4502800 (libc.so.6:__memcpy_chk_ssse3) redirected to 0x4030430 (__memcpy_chk)
--31292-- REDIR: 0x444d620 (libc.so.6:index) redirected to 0x40235db (_vgnU_ifunc_wrapper)
--31292-- REDIR: 0x4468aa0 (libc.so.6:__strchr_sse2_bsf) redirected to 0x402bbb0 (index)
--31292-- REDIR: 0x444e190 (libc.so.6:strncpy) redirected to 0x40235db (_vgnU_ifunc_wrapper)
--31292-- REDIR: 0x44593c0 (libc.so.6:__strncpy_ssse3) redirected to 0x402c1f0 (strncpy)
--31292-- REDIR: 0x4317890 (libstdc++.so.6:operator new(unsigned int)) redirected to 0x402983c (operator new(unsigned int))
--31292-- REDIR: 0x4315810 (libstdc++.so.6:operator delete(void*)) redirected to 0x402a734 (operator delete(void*))
--31292-- REDIR: 0x43179b0 (libstdc++.so.6:operator new[](unsigned int)) redirected to 0x4029eb0 (operator new[](unsigned int))
--31292-- REDIR: 0x4315860 (libstdc++.so.6:operator delete[](void*)) redirected to 0x402aba4 (operator delete[](void*))
--31292-- REDIR: 0x444fa50 (libc.so.6:memmove) redirected to 0x40235db (_vgnU_ifunc_wrapper)
--31292-- REDIR: 0x45067f0 (libc.so.6:__memmove_ssse3) redirected to 0x402f640 (memmove)
--31292-- REDIR: 0x444f530 (libc.so.6:memchr) redirected to 0x40235db (_vgnU_ifunc_wrapper)
--31292-- REDIR: 0x4468da0 (libc.so.6:__memchr_sse2_bsf) redirected to 0x402d300 (memchr)
==31292== Syscall param writev(vector[...]) points to uninitialised byte(s)
==31292==    at 0x44B86C6: writev (writev.c:49)
==31292==    by 0x4335A31: std::__basic_file<char>::xsputn_2(char const*, int, char const*, int) (in /usr/lib/i386-linux-gnu/libstdc++.so.6.0.19)
==31292==    by 0x43716AF: std::basic_filebuf<char, std::char_traits<char> >::xsputn(char const*, int) (in /usr/lib/i386-linux-gnu/libstdc++.so.6.0.19)
==31292==    by 0x4350C4D: std::ostream::write(char const*, int) (in /usr/lib/i386-linux-gnu/libstdc++.so.6.0.19)
==31292==    by 0x804D643: Graph::display_binary(char*, char*) (graph_binary.cpp:464)
==31292==    by 0x804B164: main (main_louvain.cpp:1966)
==31292==  Address 0x8d51f7a is 10 bytes inside a block of size 98,304 alloc'd
==31292==    at 0x40298C5: operator new(unsigned int) (vg_replace_malloc.c:328)
==31292==    by 0x8054918: allocate (new_allocator.h:104)
==31292==    by 0x8054918: _M_allocate (stl_vector.h:168)
==31292==    by 0x8054918: std::vector<long double, std::allocator<long double> >::_M_insert_aux(__gnu_cxx::__normal_iterator<long double*, std::vector<long double, std::allocator<long double> > >, long double const&) (vector.tcc:345)
==31292==    by 0x805DB62: push_back (stl_vector.h:913)
==31292==    by 0x805DB62: partition2graph_binary_pm(Louvain, Graph, char*) (main_louvain.cpp:1528)
==31292==    by 0x804B120: main (main_louvain.cpp:1962)
==31292==  Uninitialised value was created by a stack allocation
==31292==    at 0x805D476: partition2graph_binary_pm(Louvain, Graph, char*) (main_louvain.cpp:1458)
==31292== 
--31292-- Discarding syms at 0x6d75ad0-0x6d7b9ab in /lib/i386-linux-gnu/libnss_files-2.19.so due to munmap()
==31292== 
==31292== HEAP SUMMARY:
==31292==     in use at exit: 525,601 bytes in 1,731 blocks
==31292==   total heap usage: 39,557 allocs, 37,826 frees, 154,243,656 bytes allocated
==31292== 
==31292== Searching for pointers to 1,731 not-freed blocks
==31292== Checked 312,044 bytes
==31292== 
==31292== 28 bytes in 1 blocks are definitely lost in loss record 1 of 21
==31292==    at 0x4029F39: operator new[](unsigned int) (vg_replace_malloc.c:417)
==31292==    by 0x804A804: main (main_louvain.cpp:1578)
==31292== 
==31292== 33 bytes in 1 blocks are still reachable in loss record 2 of 21
==31292==    at 0x4029F39: operator new[](unsigned int) (vg_replace_malloc.c:417)
==31292==    by 0x804A832: main (main_louvain.cpp:1583)
==31292== 
==31292== 192 bytes in 1 blocks are indirectly lost in loss record 3 of 21
==31292==    at 0x4029F39: operator new[](unsigned int) (vg_replace_malloc.c:417)
==31292==    by 0x805CDD1: gather_neighbor_info(Louvain) (main_louvain.cpp:613)
==31292==    by 0x804A9AD: main (main_louvain.cpp:1622)
==31292== 
==31292== 208 bytes in 6 blocks are definitely lost in loss record 4 of 21
==31292==    at 0x4029F39: operator new[](unsigned int) (vg_replace_malloc.c:417)
==31292==    by 0x805B535: exchange_duality_resolved_community(Louvain) (main_louvain.cpp:1357)
==31292==    by 0x804AB44: main (main_louvain.cpp:1729)
==31292== 
==31292== 208 bytes in 6 blocks are definitely lost in loss record 5 of 21
==31292==    at 0x4029F39: operator new[](unsigned int) (vg_replace_malloc.c:417)
==31292==    by 0x805B555: exchange_duality_resolved_community(Louvain) (main_louvain.cpp:1358)
==31292==    by 0x804AB44: main (main_louvain.cpp:1729)
==31292== 
==31292== 296 bytes in 1 blocks are possibly lost in loss record 6 of 21
==31292==    at 0x4029F39: operator new[](unsigned int) (vg_replace_malloc.c:417)
==31292==    by 0x805C572: gather_neighbor_info(Louvain) (main_louvain.cpp:473)
==31292==    by 0x804A9AD: main (main_louvain.cpp:1622)
==31292== 
==31292== 300 bytes in 6 blocks are definitely lost in loss record 7 of 21
==31292==    at 0x4029F39: operator new[](unsigned int) (vg_replace_malloc.c:417)
==31292==    by 0x805A48B: exchange_updated_community(Louvain) (main_louvain.cpp:1038)
==31292==    by 0x804AA71: main (main_louvain.cpp:1643)
==31292== 
==31292== 300 bytes in 6 blocks are definitely lost in loss record 8 of 21
==31292==    at 0x4029F39: operator new[](unsigned int) (vg_replace_malloc.c:417)
==31292==    by 0x805A4B6: exchange_updated_community(Louvain) (main_louvain.cpp:1039)
==31292==    by 0x804AA71: main (main_louvain.cpp:1643)
==31292== 
==31292== 504 bytes in 6 blocks are definitely lost in loss record 9 of 21
==31292==    at 0x4029F39: operator new[](unsigned int) (vg_replace_malloc.c:417)
==31292==    by 0x805A0F0: exchange_updated_community(Louvain) (main_louvain.cpp:962)
==31292==    by 0x804AA71: main (main_louvain.cpp:1643)
==31292== 
==31292== 504 bytes in 6 blocks are definitely lost in loss record 10 of 21
==31292==    at 0x4029F39: operator new[](unsigned int) (vg_replace_malloc.c:417)
==31292==    by 0x805A11B: exchange_updated_community(Louvain) (main_louvain.cpp:963)
==31292==    by 0x804AA71: main (main_louvain.cpp:1643)
==31292== 
==31292== 900 bytes in 6 blocks are definitely lost in loss record 11 of 21
==31292==    at 0x4029F39: operator new[](unsigned int) (vg_replace_malloc.c:417)
==31292==    by 0x805A4DE: exchange_updated_community(Louvain) (main_louvain.cpp:1040)
==31292==    by 0x804AA71: main (main_louvain.cpp:1643)
==31292== 
==31292== 900 bytes in 6 blocks are definitely lost in loss record 12 of 21
==31292==    at 0x4029F39: operator new[](unsigned int) (vg_replace_malloc.c:417)
==31292==    by 0x805A506: exchange_updated_community(Louvain) (main_louvain.cpp:1041)
==31292==    by 0x804AA71: main (main_louvain.cpp:1643)
==31292== 
==31292== 900 bytes in 6 blocks are definitely lost in loss record 13 of 21
==31292==    at 0x4029F39: operator new[](unsigned int) (vg_replace_malloc.c:417)
==31292==    by 0x805A52E: exchange_updated_community(Louvain) (main_louvain.cpp:1042)
==31292==    by 0x804AA71: main (main_louvain.cpp:1643)
==31292== 
==31292== 1,464 bytes in 7 blocks are definitely lost in loss record 14 of 21
==31292==    at 0x4029F39: operator new[](unsigned int) (vg_replace_malloc.c:417)
==31292==    by 0x804AC70: main (main_louvain.cpp:1859)
==31292== 
==31292== 1,512 bytes in 6 blocks are definitely lost in loss record 15 of 21
==31292==    at 0x4029F39: operator new[](unsigned int) (vg_replace_malloc.c:417)
==31292==    by 0x805A143: exchange_updated_community(Louvain) (main_louvain.cpp:964)
==31292==    by 0x804AA71: main (main_louvain.cpp:1643)
==31292== 
==31292== 1,512 bytes in 6 blocks are definitely lost in loss record 16 of 21
==31292==    at 0x4029F39: operator new[](unsigned int) (vg_replace_malloc.c:417)
==31292==    by 0x805A16B: exchange_updated_community(Louvain) (main_louvain.cpp:965)
==31292==    by 0x804AA71: main (main_louvain.cpp:1643)
==31292== 
==31292== 1,512 bytes in 6 blocks are definitely lost in loss record 17 of 21
==31292==    at 0x4029F39: operator new[](unsigned int) (vg_replace_malloc.c:417)
==31292==    by 0x805A193: exchange_updated_community(Louvain) (main_louvain.cpp:966)
==31292==    by 0x804AA71: main (main_louvain.cpp:1643)
==31292== 
==31292== 32,640 bytes in 125 blocks are definitely lost in loss record 18 of 21
==31292==    at 0x4029F39: operator new[](unsigned int) (vg_replace_malloc.c:417)
==31292==    by 0x805C572: gather_neighbor_info(Louvain) (main_louvain.cpp:473)
==31292==    by 0x804A9AD: main (main_louvain.cpp:1622)
==31292== 
==31292== 95,768 bytes in 699 blocks are definitely lost in loss record 19 of 21
==31292==    at 0x4029F39: operator new[](unsigned int) (vg_replace_malloc.c:417)
==31292==    by 0x805CDAE: gather_neighbor_info(Louvain) (main_louvain.cpp:612)
==31292==    by 0x804A9AD: main (main_louvain.cpp:1622)
==31292== 
==31292== 98,808 bytes in 126 blocks are definitely lost in loss record 20 of 21
==31292==    at 0x4029F39: operator new[](unsigned int) (vg_replace_malloc.c:417)
==31292==    by 0x805C598: gather_neighbor_info(Louvain) (main_louvain.cpp:474)
==31292==    by 0x804A9AD: main (main_louvain.cpp:1622)
==31292== 
==31292== 287,304 (287,112 direct, 192 indirect) bytes in 698 blocks are definitely lost in loss record 21 of 21
==31292==    at 0x4029F39: operator new[](unsigned int) (vg_replace_malloc.c:417)
==31292==    by 0x805CDD1: gather_neighbor_info(Louvain) (main_louvain.cpp:613)
==31292==    by 0x804A9AD: main (main_louvain.cpp:1622)
==31292== 
==31292== LEAK SUMMARY:
==31292==    definitely lost: 525,080 bytes in 1,728 blocks
==31292==    indirectly lost: 192 bytes in 1 blocks
==31292==      possibly lost: 296 bytes in 1 blocks
==31292==    still reachable: 33 bytes in 1 blocks
==31292==         suppressed: 0 bytes in 0 blocks
==31292== 
==31292== ERROR SUMMARY: 20 errors from 20 contexts (suppressed: 0 from 0)
==31292== 
==31292== 1 errors in context 1 of 20:
==31292== Syscall param writev(vector[...]) points to uninitialised byte(s)
==31292==    at 0x44B86C6: writev (writev.c:49)
==31292==    by 0x4335A31: std::__basic_file<char>::xsputn_2(char const*, int, char const*, int) (in /usr/lib/i386-linux-gnu/libstdc++.so.6.0.19)
==31292==    by 0x43716AF: std::basic_filebuf<char, std::char_traits<char> >::xsputn(char const*, int) (in /usr/lib/i386-linux-gnu/libstdc++.so.6.0.19)
==31292==    by 0x4350C4D: std::ostream::write(char const*, int) (in /usr/lib/i386-linux-gnu/libstdc++.so.6.0.19)
==31292==    by 0x804D643: Graph::display_binary(char*, char*) (graph_binary.cpp:464)
==31292==    by 0x804B164: main (main_louvain.cpp:1966)
==31292==  Address 0x8d51f7a is 10 bytes inside a block of size 98,304 alloc'd
==31292==    at 0x40298C5: operator new(unsigned int) (vg_replace_malloc.c:328)
==31292==    by 0x8054918: allocate (new_allocator.h:104)
==31292==    by 0x8054918: _M_allocate (stl_vector.h:168)
==31292==    by 0x8054918: std::vector<long double, std::allocator<long double> >::_M_insert_aux(__gnu_cxx::__normal_iterator<long double*, std::vector<long double, std::allocator<long double> > >, long double const&) (vector.tcc:345)
==31292==    by 0x805DB62: push_back (stl_vector.h:913)
==31292==    by 0x805DB62: partition2graph_binary_pm(Louvain, Graph, char*) (main_louvain.cpp:1528)
==31292==    by 0x804B120: main (main_louvain.cpp:1962)
==31292==  Uninitialised value was created by a stack allocation
==31292==    at 0x805D476: partition2graph_binary_pm(Louvain, Graph, char*) (main_louvain.cpp:1458)
==31292== 
==31292== ERROR SUMMARY: 20 errors from 20 contexts (suppressed: 0 from 0)
