==7280== Memcheck, a memory error detector
==7280== Copyright (C) 2002-2017, and GNU GPL'd, by Julian Seward et al.
==7280== Using Valgrind-3.13.0 and LibVEX; rerun with -h for copyright info
==7280== Command: ./louvain ./sample/Output/example-l1 -w ./sample/Output/example-lw1 -l -1 -i ./sample/input/example-l2.txt -g ./sample/Output/full/example-l2.bin -x ./sample/Output/full/example-lw2.bin -f ./sample/Output/full/example-l1.bin -o ./sample/Output/full/example-lw1.bin -u ./sample/Output/example-l-n2c.txt -q id_qual
==7280== Parent PID: 7279
==7280== 
==7280== Syscall param write(buf) points to uninitialised byte(s)
==7280==    at 0x44B0483: __write_nocancel (syscall-template.S:81)
==7280==    by 0x43356E5: ??? (in /usr/lib/i386-linux-gnu/libstdc++.so.6.0.19)
==7280==    by 0x4372C0C: std::basic_filebuf<char, std::char_traits<char> >::_M_convert_to_external(char*, int) (in /usr/lib/i386-linux-gnu/libstdc++.so.6.0.19)
==7280==    by 0x437382A: std::basic_filebuf<char, std::char_traits<char> >::overflow(int) (in /usr/lib/i386-linux-gnu/libstdc++.so.6.0.19)
==7280==    by 0x4372E57: std::basic_filebuf<char, std::char_traits<char> >::_M_terminate_output() (in /usr/lib/i386-linux-gnu/libstdc++.so.6.0.19)
==7280==    by 0x4372F24: std::basic_filebuf<char, std::char_traits<char> >::close() (in /usr/lib/i386-linux-gnu/libstdc++.so.6.0.19)
==7280==    by 0x804D61B: Graph::display_binary(char*, char*) (in /home/safrin/Desktop/Test/louvain-bdsc/Test-2/louvain)
==7280==    by 0x804B134: main (in /home/safrin/Desktop/Test/louvain-bdsc/Test-2/louvain)
==7280==  Address 0x490cdb2 is 10 bytes inside a block of size 8,192 alloc'd
==7280==    at 0x4029F39: operator new[](unsigned int) (vg_replace_malloc.c:417)
==7280==    by 0x4372A32: std::basic_filebuf<char, std::char_traits<char> >::_M_allocate_internal_buffer() (in /usr/lib/i386-linux-gnu/libstdc++.so.6.0.19)
==7280==    by 0x43730C0: std::basic_filebuf<char, std::char_traits<char> >::open(char const*, std::_Ios_Openmode) (in /usr/lib/i386-linux-gnu/libstdc++.so.6.0.19)
==7280==    by 0x804D5C7: Graph::display_binary(char*, char*) (in /home/safrin/Desktop/Test/louvain-bdsc/Test-2/louvain)
==7280==    by 0x804B134: main (in /home/safrin/Desktop/Test/louvain-bdsc/Test-2/louvain)
==7280== 
==7280== 
==7280== HEAP SUMMARY:
==7280==     in use at exit: 2,573 bytes in 30 blocks
==7280==   total heap usage: 714 allocs, 684 frees, 3,228,009 bytes allocated
==7280== 
==7280== 12 bytes in 3 blocks are definitely lost in loss record 1 of 17
==7280==    at 0x4029F39: operator new[](unsigned int) (vg_replace_malloc.c:417)
==7280==    by 0x804AC50: main (in /home/safrin/Desktop/Test/louvain-bdsc/Test-2/louvain)
==7280== 
==7280== 20 bytes in 1 blocks are definitely lost in loss record 2 of 17
==7280==    at 0x4029F39: operator new[](unsigned int) (vg_replace_malloc.c:417)
==7280==    by 0x805D0CE: gather_neighbor_info(Louvain) (in /home/safrin/Desktop/Test/louvain-bdsc/Test-2/louvain)
==7280==    by 0x804A98D: main (in /home/safrin/Desktop/Test/louvain-bdsc/Test-2/louvain)
==7280== 
==7280== 24 bytes in 2 blocks are definitely lost in loss record 3 of 17
==7280==    at 0x4029F39: operator new[](unsigned int) (vg_replace_malloc.c:417)
==7280==    by 0x805C8A2: gather_neighbor_info(Louvain) (in /home/safrin/Desktop/Test/louvain-bdsc/Test-2/louvain)
==7280==    by 0x804A98D: main (in /home/safrin/Desktop/Test/louvain-bdsc/Test-2/louvain)
==7280== 
==7280== 33 bytes in 1 blocks are definitely lost in loss record 4 of 17
==7280==    at 0x4029F39: operator new[](unsigned int) (vg_replace_malloc.c:417)
==7280==    by 0x804A7E4: main (in /home/safrin/Desktop/Test/louvain-bdsc/Test-2/louvain)
==7280== 
==7280== 60 bytes in 1 blocks are definitely lost in loss record 7 of 17
==7280==    at 0x4029F39: operator new[](unsigned int) (vg_replace_malloc.c:417)
==7280==    by 0x805D0F1: gather_neighbor_info(Louvain) (in /home/safrin/Desktop/Test/louvain-bdsc/Test-2/louvain)
==7280==    by 0x804A98D: main (in /home/safrin/Desktop/Test/louvain-bdsc/Test-2/louvain)
==7280== 
==7280== 72 bytes in 2 blocks are definitely lost in loss record 10 of 17
==7280==    at 0x4029F39: operator new[](unsigned int) (vg_replace_malloc.c:417)
==7280==    by 0x805C8C8: gather_neighbor_info(Louvain) (in /home/safrin/Desktop/Test/louvain-bdsc/Test-2/louvain)
==7280==    by 0x804A98D: main (in /home/safrin/Desktop/Test/louvain-bdsc/Test-2/louvain)
==7280== 
==7280== 204 bytes in 3 blocks are definitely lost in loss record 13 of 17
==7280==    at 0x40292D8: malloc (vg_replace_malloc.c:299)
==7280==    by 0x41BE897: MPID_Datatype_set_contents (in /usr/local/lib/libmpi.so.12.1.0)
==7280==    by 0x40D0600: MPIR_Type_create_struct_impl (in /usr/local/lib/libmpi.so.12.1.0)
==7280==    by 0x40D0A85: PMPI_Type_create_struct (in /usr/local/lib/libmpi.so.12.1.0)
==7280==    by 0x804AD08: main (in /home/safrin/Desktop/Test/louvain-bdsc/Test-2/louvain)
==7280== 
==7280== 204 bytes in 3 blocks are definitely lost in loss record 14 of 17
==7280==    at 0x40292D8: malloc (vg_replace_malloc.c:299)
==7280==    by 0x41B0559: MPID_Dataloop_alloc_and_copy (in /usr/local/lib/libmpi.so.12.1.0)
==7280==    by 0x41B0772: MPID_Dataloop_alloc (in /usr/local/lib/libmpi.so.12.1.0)
==7280==    by 0x41B351A: MPID_Dataloop_create_indexed (in /usr/local/lib/libmpi.so.12.1.0)
==7280==    by 0x41B41E8: MPID_Dataloop_create_struct (in /usr/local/lib/libmpi.so.12.1.0)
==7280==    by 0x41B1C8E: MPID_Dataloop_create (in /usr/local/lib/libmpi.so.12.1.0)
==7280==    by 0x41C0614: MPID_Type_commit (in /usr/local/lib/libmpi.so.12.1.0)
==7280==    by 0x40CB2A0: MPIR_Type_commit_impl (in /usr/local/lib/libmpi.so.12.1.0)
==7280==    by 0x40CB505: PMPI_Type_commit (in /usr/local/lib/libmpi.so.12.1.0)
==7280==    by 0x804AD16: main (in /home/safrin/Desktop/Test/louvain-bdsc/Test-2/louvain)
==7280== 
==7280== 732 bytes in 3 blocks are definitely lost in loss record 17 of 17
==7280==    at 0x40292D8: malloc (vg_replace_malloc.c:299)
==7280==    by 0x41B07C5: MPID_Dataloop_struct_alloc (in /usr/local/lib/libmpi.so.12.1.0)
==7280==    by 0x41B427B: MPID_Dataloop_create_struct (in /usr/local/lib/libmpi.so.12.1.0)
==7280==    by 0x41B1C8E: MPID_Dataloop_create (in /usr/local/lib/libmpi.so.12.1.0)
==7280==    by 0x41C063B: MPID_Type_commit (in /usr/local/lib/libmpi.so.12.1.0)
==7280==    by 0x40CB2A0: MPIR_Type_commit_impl (in /usr/local/lib/libmpi.so.12.1.0)
==7280==    by 0x40CB505: PMPI_Type_commit (in /usr/local/lib/libmpi.so.12.1.0)
==7280==    by 0x804AD16: main (in /home/safrin/Desktop/Test/louvain-bdsc/Test-2/louvain)
==7280== 
==7280== LEAK SUMMARY:
==7280==    definitely lost: 1,361 bytes in 19 blocks
==7280==    indirectly lost: 0 bytes in 0 blocks
==7280==      possibly lost: 0 bytes in 0 blocks
==7280==    still reachable: 1,212 bytes in 11 blocks
==7280==         suppressed: 0 bytes in 0 blocks
==7280== Reachable blocks (those to which a pointer was found) are not shown.
==7280== To see them, rerun with: --leak-check=full --show-leak-kinds=all
==7280== 
==7280== For counts of detected and suppressed errors, rerun with: -v
==7280== Use --track-origins=yes to see where uninitialised values come from
==7280== ERROR SUMMARY: 10 errors from 10 contexts (suppressed: 0 from 0)
