==7092== Memcheck, a memory error detector
==7092== Copyright (C) 2002-2017, and GNU GPL'd, by Julian Seward et al.
==7092== Using Valgrind-3.13.0 and LibVEX; rerun with -h for copyright info
==7092== Command: ./louvain ./sample/Output/example-l0 -l -1 -i ./sample/input/example-l1.txt -g ./sample/Output/full/example-l1.bin -x ./sample/Output/full/example-lw1.bin -f ./sample/Output/full/example-l0.bin -u ./sample/Output/example-l-n2c.txt -q id_qual
==7092== Parent PID: 7089
==7092== 
==7092== Conditional jump or move depends on uninitialised value(s)
==7092==    at 0x4344F13: std::ostreambuf_iterator<char, std::char_traits<char> > std::num_put<char, std::ostreambuf_iterator<char, std::char_traits<char> > >::_M_insert_int<long>(std::ostreambuf_iterator<char, std::char_traits<char> >, std::ios_base&, char, long) const (in /usr/lib/i386-linux-gnu/libstdc++.so.6.0.19)
==7092==    by 0x4345558: std::num_put<char, std::ostreambuf_iterator<char, std::char_traits<char> > >::do_put(std::ostreambuf_iterator<char, std::char_traits<char> >, std::ios_base&, char, long) const (in /usr/lib/i386-linux-gnu/libstdc++.so.6.0.19)
==7092==    by 0x43515DD: std::ostream& std::ostream::_M_insert<long>(long) (in /usr/lib/i386-linux-gnu/libstdc++.so.6.0.19)
==7092==    by 0x43517D2: std::ostream::operator<<(int) (in /usr/lib/i386-linux-gnu/libstdc++.so.6.0.19)
==7092==    by 0x805ABB9: exchange_updated_community(Louvain) (in /home/safrin/Desktop/Test/louvain-bdsc/Test-2/louvain)
==7092==    by 0x804AA51: main (in /home/safrin/Desktop/Test/louvain-bdsc/Test-2/louvain)
==7092== 
==7092== Use of uninitialised value of size 4
==7092==    at 0x4344E03: ??? (in /usr/lib/i386-linux-gnu/libstdc++.so.6.0.19)
==7092==    by 0x4344F47: std::ostreambuf_iterator<char, std::char_traits<char> > std::num_put<char, std::ostreambuf_iterator<char, std::char_traits<char> > >::_M_insert_int<long>(std::ostreambuf_iterator<char, std::char_traits<char> >, std::ios_base&, char, long) const (in /usr/lib/i386-linux-gnu/libstdc++.so.6.0.19)
==7092==    by 0x4345558: std::num_put<char, std::ostreambuf_iterator<char, std::char_traits<char> > >::do_put(std::ostreambuf_iterator<char, std::char_traits<char> >, std::ios_base&, char, long) const (in /usr/lib/i386-linux-gnu/libstdc++.so.6.0.19)
==7092==    by 0x43515DD: std::ostream& std::ostream::_M_insert<long>(long) (in /usr/lib/i386-linux-gnu/libstdc++.so.6.0.19)
==7092==    by 0x43517D2: std::ostream::operator<<(int) (in /usr/lib/i386-linux-gnu/libstdc++.so.6.0.19)
==7092==    by 0x805ABB9: exchange_updated_community(Louvain) (in /home/safrin/Desktop/Test/louvain-bdsc/Test-2/louvain)
==7092==    by 0x804AA51: main (in /home/safrin/Desktop/Test/louvain-bdsc/Test-2/louvain)
==7092== 
==7092== Conditional jump or move depends on uninitialised value(s)
==7092==    at 0x4344E0C: ??? (in /usr/lib/i386-linux-gnu/libstdc++.so.6.0.19)
==7092==    by 0x4344F47: std::ostreambuf_iterator<char, std::char_traits<char> > std::num_put<char, std::ostreambuf_iterator<char, std::char_traits<char> > >::_M_insert_int<long>(std::ostreambuf_iterator<char, std::char_traits<char> >, std::ios_base&, char, long) const (in /usr/lib/i386-linux-gnu/libstdc++.so.6.0.19)
==7092==    by 0x4345558: std::num_put<char, std::ostreambuf_iterator<char, std::char_traits<char> > >::do_put(std::ostreambuf_iterator<char, std::char_traits<char> >, std::ios_base&, char, long) const (in /usr/lib/i386-linux-gnu/libstdc++.so.6.0.19)
==7092==    by 0x43515DD: std::ostream& std::ostream::_M_insert<long>(long) (in /usr/lib/i386-linux-gnu/libstdc++.so.6.0.19)
==7092==    by 0x43517D2: std::ostream::operator<<(int) (in /usr/lib/i386-linux-gnu/libstdc++.so.6.0.19)
==7092==    by 0x805ABB9: exchange_updated_community(Louvain) (in /home/safrin/Desktop/Test/louvain-bdsc/Test-2/louvain)
==7092==    by 0x804AA51: main (in /home/safrin/Desktop/Test/louvain-bdsc/Test-2/louvain)
==7092== 
==7092== Conditional jump or move depends on uninitialised value(s)
==7092==    at 0x4344F6F: std::ostreambuf_iterator<char, std::char_traits<char> > std::num_put<char, std::ostreambuf_iterator<char, std::char_traits<char> > >::_M_insert_int<long>(std::ostreambuf_iterator<char, std::char_traits<char> >, std::ios_base&, char, long) const (in /usr/lib/i386-linux-gnu/libstdc++.so.6.0.19)
==7092==    by 0x4345558: std::num_put<char, std::ostreambuf_iterator<char, std::char_traits<char> > >::do_put(std::ostreambuf_iterator<char, std::char_traits<char> >, std::ios_base&, char, long) const (in /usr/lib/i386-linux-gnu/libstdc++.so.6.0.19)
==7092==    by 0x43515DD: std::ostream& std::ostream::_M_insert<long>(long) (in /usr/lib/i386-linux-gnu/libstdc++.so.6.0.19)
==7092==    by 0x43517D2: std::ostream::operator<<(int) (in /usr/lib/i386-linux-gnu/libstdc++.so.6.0.19)
==7092==    by 0x805ABB9: exchange_updated_community(Louvain) (in /home/safrin/Desktop/Test/louvain-bdsc/Test-2/louvain)
==7092==    by 0x804AA51: main (in /home/safrin/Desktop/Test/louvain-bdsc/Test-2/louvain)
==7092== 
==7092== Invalid read of size 4
==7092==    at 0x805AB7B: exchange_updated_community(Louvain) (in /home/safrin/Desktop/Test/louvain-bdsc/Test-2/louvain)
==7092==    by 0x804AA51: main (in /home/safrin/Desktop/Test/louvain-bdsc/Test-2/louvain)
==7092==  Address 0x4904568 is 0 bytes after a block of size 16 alloc'd
==7092==    at 0x4029F39: operator new[](unsigned int) (vg_replace_malloc.c:417)
==7092==    by 0x805A470: exchange_updated_community(Louvain) (in /home/safrin/Desktop/Test/louvain-bdsc/Test-2/louvain)
==7092==    by 0x804AA51: main (in /home/safrin/Desktop/Test/louvain-bdsc/Test-2/louvain)
==7092== 
==7092== 
==7092== HEAP SUMMARY:
==7092==     in use at exit: 6,167 bytes in 78 blocks
==7092==   total heap usage: 842 allocs, 764 frees, 3,187,940 bytes allocated
==7092== 
==7092== 12 bytes in 1 blocks are definitely lost in loss record 1 of 36
==7092==    at 0x4029F39: operator new[](unsigned int) (vg_replace_malloc.c:417)
==7092==    by 0x805B80A: exchange_duality_resolved_community(Louvain) (in /home/safrin/Desktop/Test/louvain-bdsc/Test-2/louvain)
==7092==    by 0x804AB24: main (in /home/safrin/Desktop/Test/louvain-bdsc/Test-2/louvain)
==7092== 
==7092== 12 bytes in 1 blocks are definitely lost in loss record 2 of 36
==7092==    at 0x4029F39: operator new[](unsigned int) (vg_replace_malloc.c:417)
==7092==    by 0x805B82A: exchange_duality_resolved_community(Louvain) (in /home/safrin/Desktop/Test/louvain-bdsc/Test-2/louvain)
==7092==    by 0x804AB24: main (in /home/safrin/Desktop/Test/louvain-bdsc/Test-2/louvain)
==7092== 
==7092== 12 bytes in 1 blocks are definitely lost in loss record 3 of 36
==7092==    at 0x4029F39: operator new[](unsigned int) (vg_replace_malloc.c:417)
==7092==    by 0x804B4A6: main (in /home/safrin/Desktop/Test/louvain-bdsc/Test-2/louvain)
==7092== 
==7092== 16 bytes in 1 blocks are definitely lost in loss record 4 of 36
==7092==    at 0x4029F39: operator new[](unsigned int) (vg_replace_malloc.c:417)
==7092==    by 0x805A470: exchange_updated_community(Louvain) (in /home/safrin/Desktop/Test/louvain-bdsc/Test-2/louvain)
==7092==    by 0x804AA51: main (in /home/safrin/Desktop/Test/louvain-bdsc/Test-2/louvain)
==7092== 
==7092== 16 bytes in 1 blocks are definitely lost in loss record 5 of 36
==7092==    at 0x4029F39: operator new[](unsigned int) (vg_replace_malloc.c:417)
==7092==    by 0x805A49B: exchange_updated_community(Louvain) (in /home/safrin/Desktop/Test/louvain-bdsc/Test-2/louvain)
==7092==    by 0x804AA51: main (in /home/safrin/Desktop/Test/louvain-bdsc/Test-2/louvain)
==7092== 
==7092== 16 bytes in 1 blocks are definitely lost in loss record 6 of 36
==7092==    at 0x4029F39: operator new[](unsigned int) (vg_replace_malloc.c:417)
==7092==    by 0x805A768: exchange_updated_community(Louvain) (in /home/safrin/Desktop/Test/louvain-bdsc/Test-2/louvain)
==7092==    by 0x804AA51: main (in /home/safrin/Desktop/Test/louvain-bdsc/Test-2/louvain)
==7092== 
==7092== 16 bytes in 1 blocks are definitely lost in loss record 7 of 36
==7092==    at 0x4029F39: operator new[](unsigned int) (vg_replace_malloc.c:417)
==7092==    by 0x805A793: exchange_updated_community(Louvain) (in /home/safrin/Desktop/Test/louvain-bdsc/Test-2/louvain)
==7092==    by 0x804AA51: main (in /home/safrin/Desktop/Test/louvain-bdsc/Test-2/louvain)
==7092== 
==7092== 33 bytes in 1 blocks are definitely lost in loss record 8 of 36
==7092==    at 0x4029F39: operator new[](unsigned int) (vg_replace_malloc.c:417)
==7092==    by 0x804A7E4: main (in /home/safrin/Desktop/Test/louvain-bdsc/Test-2/louvain)
==7092== 
==7092== 44 bytes in 1 blocks are definitely lost in loss record 10 of 36
==7092==    at 0x40292D8: malloc (vg_replace_malloc.c:299)
==7092==    by 0x41BE897: MPID_Datatype_set_contents (in /usr/local/lib/libmpi.so.12.1.0)
==7092==    by 0x40D0600: MPIR_Type_create_struct_impl (in /usr/local/lib/libmpi.so.12.1.0)
==7092==    by 0x40D0A85: PMPI_Type_create_struct (in /usr/local/lib/libmpi.so.12.1.0)
==7092==    by 0x805B879: exchange_duality_resolved_community(Louvain) (in /home/safrin/Desktop/Test/louvain-bdsc/Test-2/louvain)
==7092==    by 0x804AB24: main (in /home/safrin/Desktop/Test/louvain-bdsc/Test-2/louvain)
==7092== 
==7092== 44 bytes in 1 blocks are definitely lost in loss record 11 of 36
==7092==    at 0x40292D8: malloc (vg_replace_malloc.c:299)
==7092==    by 0x41B0559: MPID_Dataloop_alloc_and_copy (in /usr/local/lib/libmpi.so.12.1.0)
==7092==    by 0x41B0772: MPID_Dataloop_alloc (in /usr/local/lib/libmpi.so.12.1.0)
==7092==    by 0x41B2457: MPID_Dataloop_create_blockindexed (in /usr/local/lib/libmpi.so.12.1.0)
==7092==    by 0x41B31FA: MPID_Dataloop_create_indexed (in /usr/local/lib/libmpi.so.12.1.0)
==7092==    by 0x41B41E8: MPID_Dataloop_create_struct (in /usr/local/lib/libmpi.so.12.1.0)
==7092==    by 0x41B1C8E: MPID_Dataloop_create (in /usr/local/lib/libmpi.so.12.1.0)
==7092==    by 0x41C0614: MPID_Type_commit (in /usr/local/lib/libmpi.so.12.1.0)
==7092==    by 0x40CB2A0: MPIR_Type_commit_impl (in /usr/local/lib/libmpi.so.12.1.0)
==7092==    by 0x40CB505: PMPI_Type_commit (in /usr/local/lib/libmpi.so.12.1.0)
==7092==    by 0x805B881: exchange_duality_resolved_community(Louvain) (in /home/safrin/Desktop/Test/louvain-bdsc/Test-2/louvain)
==7092==    by 0x804AB24: main (in /home/safrin/Desktop/Test/louvain-bdsc/Test-2/louvain)
==7092== 
==7092== 44 bytes in 1 blocks are definitely lost in loss record 12 of 36
==7092==    at 0x40292D8: malloc (vg_replace_malloc.c:299)
==7092==    by 0x41B0559: MPID_Dataloop_alloc_and_copy (in /usr/local/lib/libmpi.so.12.1.0)
==7092==    by 0x41B0772: MPID_Dataloop_alloc (in /usr/local/lib/libmpi.so.12.1.0)
==7092==    by 0x41B2457: MPID_Dataloop_create_blockindexed (in /usr/local/lib/libmpi.so.12.1.0)
==7092==    by 0x41B31FA: MPID_Dataloop_create_indexed (in /usr/local/lib/libmpi.so.12.1.0)
==7092==    by 0x41B41E8: MPID_Dataloop_create_struct (in /usr/local/lib/libmpi.so.12.1.0)
==7092==    by 0x41B1C8E: MPID_Dataloop_create (in /usr/local/lib/libmpi.so.12.1.0)
==7092==    by 0x41C063B: MPID_Type_commit (in /usr/local/lib/libmpi.so.12.1.0)
==7092==    by 0x40CB2A0: MPIR_Type_commit_impl (in /usr/local/lib/libmpi.so.12.1.0)
==7092==    by 0x40CB505: PMPI_Type_commit (in /usr/local/lib/libmpi.so.12.1.0)
==7092==    by 0x805B881: exchange_duality_resolved_community(Louvain) (in /home/safrin/Desktop/Test/louvain-bdsc/Test-2/louvain)
==7092==    by 0x804AB24: main (in /home/safrin/Desktop/Test/louvain-bdsc/Test-2/louvain)
==7092== 
==7092== 48 bytes in 1 blocks are definitely lost in loss record 13 of 36
==7092==    at 0x4029F39: operator new[](unsigned int) (vg_replace_malloc.c:417)
==7092==    by 0x805A4C3: exchange_updated_community(Louvain) (in /home/safrin/Desktop/Test/louvain-bdsc/Test-2/louvain)
==7092==    by 0x804AA51: main (in /home/safrin/Desktop/Test/louvain-bdsc/Test-2/louvain)
==7092== 
==7092== 48 bytes in 1 blocks are definitely lost in loss record 14 of 36
==7092==    at 0x4029F39: operator new[](unsigned int) (vg_replace_malloc.c:417)
==7092==    by 0x805A7BB: exchange_updated_community(Louvain) (in /home/safrin/Desktop/Test/louvain-bdsc/Test-2/louvain)
==7092==    by 0x804AA51: main (in /home/safrin/Desktop/Test/louvain-bdsc/Test-2/louvain)
==7092== 
==7092== 52 bytes in 1 blocks are definitely lost in loss record 15 of 36
==7092==    at 0x40292D8: malloc (vg_replace_malloc.c:299)
==7092==    by 0x41B0559: MPID_Dataloop_alloc_and_copy (in /usr/local/lib/libmpi.so.12.1.0)
==7092==    by 0x41B0772: MPID_Dataloop_alloc (in /usr/local/lib/libmpi.so.12.1.0)
==7092==    by 0x41B2457: MPID_Dataloop_create_blockindexed (in /usr/local/lib/libmpi.so.12.1.0)
==7092==    by 0x41B31FA: MPID_Dataloop_create_indexed (in /usr/local/lib/libmpi.so.12.1.0)
==7092==    by 0x41B41E8: MPID_Dataloop_create_struct (in /usr/local/lib/libmpi.so.12.1.0)
==7092==    by 0x41B1C8E: MPID_Dataloop_create (in /usr/local/lib/libmpi.so.12.1.0)
==7092==    by 0x41C0614: MPID_Type_commit (in /usr/local/lib/libmpi.so.12.1.0)
==7092==    by 0x40CB2A0: MPIR_Type_commit_impl (in /usr/local/lib/libmpi.so.12.1.0)
==7092==    by 0x40CB505: PMPI_Type_commit (in /usr/local/lib/libmpi.so.12.1.0)
==7092==    by 0x804B590: main (in /home/safrin/Desktop/Test/louvain-bdsc/Test-2/louvain)
==7092== 
==7092== 56 bytes in 1 blocks are definitely lost in loss record 16 of 36
==7092==    at 0x40292D8: malloc (vg_replace_malloc.c:299)
==7092==    by 0x41BE897: MPID_Datatype_set_contents (in /usr/local/lib/libmpi.so.12.1.0)
==7092==    by 0x40D0600: MPIR_Type_create_struct_impl (in /usr/local/lib/libmpi.so.12.1.0)
==7092==    by 0x40D0A85: PMPI_Type_create_struct (in /usr/local/lib/libmpi.so.12.1.0)
==7092==    by 0x805A56C: exchange_updated_community(Louvain) (in /home/safrin/Desktop/Test/louvain-bdsc/Test-2/louvain)
==7092==    by 0x804AA51: main (in /home/safrin/Desktop/Test/louvain-bdsc/Test-2/louvain)
==7092== 
==7092== 56 bytes in 1 blocks are definitely lost in loss record 17 of 36
==7092==    at 0x40292D8: malloc (vg_replace_malloc.c:299)
==7092==    by 0x41BE897: MPID_Datatype_set_contents (in /usr/local/lib/libmpi.so.12.1.0)
==7092==    by 0x40D0600: MPIR_Type_create_struct_impl (in /usr/local/lib/libmpi.so.12.1.0)
==7092==    by 0x40D0A85: PMPI_Type_create_struct (in /usr/local/lib/libmpi.so.12.1.0)
==7092==    by 0x805A867: exchange_updated_community(Louvain) (in /home/safrin/Desktop/Test/louvain-bdsc/Test-2/louvain)
==7092==    by 0x804AA51: main (in /home/safrin/Desktop/Test/louvain-bdsc/Test-2/louvain)
==7092== 
==7092== 60 bytes in 1 blocks are definitely lost in loss record 18 of 36
==7092==    at 0x40292D8: malloc (vg_replace_malloc.c:299)
==7092==    by 0x41B0559: MPID_Dataloop_alloc_and_copy (in /usr/local/lib/libmpi.so.12.1.0)
==7092==    by 0x41B0772: MPID_Dataloop_alloc (in /usr/local/lib/libmpi.so.12.1.0)
==7092==    by 0x41B351A: MPID_Dataloop_create_indexed (in /usr/local/lib/libmpi.so.12.1.0)
==7092==    by 0x41B41E8: MPID_Dataloop_create_struct (in /usr/local/lib/libmpi.so.12.1.0)
==7092==    by 0x41B1C8E: MPID_Dataloop_create (in /usr/local/lib/libmpi.so.12.1.0)
==7092==    by 0x41C0614: MPID_Type_commit (in /usr/local/lib/libmpi.so.12.1.0)
==7092==    by 0x40CB2A0: MPIR_Type_commit_impl (in /usr/local/lib/libmpi.so.12.1.0)
==7092==    by 0x40CB505: PMPI_Type_commit (in /usr/local/lib/libmpi.so.12.1.0)
==7092==    by 0x805A578: exchange_updated_community(Louvain) (in /home/safrin/Desktop/Test/louvain-bdsc/Test-2/louvain)
==7092==    by 0x804AA51: main (in /home/safrin/Desktop/Test/louvain-bdsc/Test-2/louvain)
==7092== 
==7092== 60 bytes in 1 blocks are definitely lost in loss record 19 of 36
==7092==    at 0x40292D8: malloc (vg_replace_malloc.c:299)
==7092==    by 0x41B0559: MPID_Dataloop_alloc_and_copy (in /usr/local/lib/libmpi.so.12.1.0)
==7092==    by 0x41B0772: MPID_Dataloop_alloc (in /usr/local/lib/libmpi.so.12.1.0)
==7092==    by 0x41B351A: MPID_Dataloop_create_indexed (in /usr/local/lib/libmpi.so.12.1.0)
==7092==    by 0x41B41E8: MPID_Dataloop_create_struct (in /usr/local/lib/libmpi.so.12.1.0)
==7092==    by 0x41B1C8E: MPID_Dataloop_create (in /usr/local/lib/libmpi.so.12.1.0)
==7092==    by 0x41C0614: MPID_Type_commit (in /usr/local/lib/libmpi.so.12.1.0)
==7092==    by 0x40CB2A0: MPIR_Type_commit_impl (in /usr/local/lib/libmpi.so.12.1.0)
==7092==    by 0x40CB505: PMPI_Type_commit (in /usr/local/lib/libmpi.so.12.1.0)
==7092==    by 0x805A876: exchange_updated_community(Louvain) (in /home/safrin/Desktop/Test/louvain-bdsc/Test-2/louvain)
==7092==    by 0x804AA51: main (in /home/safrin/Desktop/Test/louvain-bdsc/Test-2/louvain)
==7092== 
==7092== 68 bytes in 1 blocks are definitely lost in loss record 20 of 36
==7092==    at 0x40292D8: malloc (vg_replace_malloc.c:299)
==7092==    by 0x41BE897: MPID_Datatype_set_contents (in /usr/local/lib/libmpi.so.12.1.0)
==7092==    by 0x40D0600: MPIR_Type_create_struct_impl (in /usr/local/lib/libmpi.so.12.1.0)
==7092==    by 0x40D0A85: PMPI_Type_create_struct (in /usr/local/lib/libmpi.so.12.1.0)
==7092==    by 0x805C8F3: gather_neighbor_info(Louvain) (in /home/safrin/Desktop/Test/louvain-bdsc/Test-2/louvain)
==7092==    by 0x804A98D: main (in /home/safrin/Desktop/Test/louvain-bdsc/Test-2/louvain)
==7092== 
==7092== 68 bytes in 1 blocks are definitely lost in loss record 21 of 36
==7092==    at 0x40292D8: malloc (vg_replace_malloc.c:299)
==7092==    by 0x41B0559: MPID_Dataloop_alloc_and_copy (in /usr/local/lib/libmpi.so.12.1.0)
==7092==    by 0x41B0772: MPID_Dataloop_alloc (in /usr/local/lib/libmpi.so.12.1.0)
==7092==    by 0x41B351A: MPID_Dataloop_create_indexed (in /usr/local/lib/libmpi.so.12.1.0)
==7092==    by 0x41B41E8: MPID_Dataloop_create_struct (in /usr/local/lib/libmpi.so.12.1.0)
==7092==    by 0x41B1C8E: MPID_Dataloop_create (in /usr/local/lib/libmpi.so.12.1.0)
==7092==    by 0x41C0614: MPID_Type_commit (in /usr/local/lib/libmpi.so.12.1.0)
==7092==    by 0x40CB2A0: MPIR_Type_commit_impl (in /usr/local/lib/libmpi.so.12.1.0)
==7092==    by 0x40CB505: PMPI_Type_commit (in /usr/local/lib/libmpi.so.12.1.0)
==7092==    by 0x805C901: gather_neighbor_info(Louvain) (in /home/safrin/Desktop/Test/louvain-bdsc/Test-2/louvain)
==7092==    by 0x804A98D: main (in /home/safrin/Desktop/Test/louvain-bdsc/Test-2/louvain)
==7092== 
==7092== 68 bytes in 1 blocks are definitely lost in loss record 22 of 36
==7092==    at 0x40292D8: malloc (vg_replace_malloc.c:299)
==7092==    by 0x41BE897: MPID_Datatype_set_contents (in /usr/local/lib/libmpi.so.12.1.0)
==7092==    by 0x40D0600: MPIR_Type_create_struct_impl (in /usr/local/lib/libmpi.so.12.1.0)
==7092==    by 0x40D0A85: PMPI_Type_create_struct (in /usr/local/lib/libmpi.so.12.1.0)
==7092==    by 0x804B588: main (in /home/safrin/Desktop/Test/louvain-bdsc/Test-2/louvain)
==7092== 
==7092== 76 bytes in 4 blocks are definitely lost in loss record 23 of 36
==7092==    at 0x4029F39: operator new[](unsigned int) (vg_replace_malloc.c:417)
==7092==    by 0x805C842: gather_neighbor_info(Louvain) (in /home/safrin/Desktop/Test/louvain-bdsc/Test-2/louvain)
==7092==    by 0x804A98D: main (in /home/safrin/Desktop/Test/louvain-bdsc/Test-2/louvain)
==7092== 
==7092== 76 bytes in 7 blocks are definitely lost in loss record 24 of 36
==7092==    at 0x4029F39: operator new[](unsigned int) (vg_replace_malloc.c:417)
==7092==    by 0x805D06E: gather_neighbor_info(Louvain) (in /home/safrin/Desktop/Test/louvain-bdsc/Test-2/louvain)
==7092==    by 0x804A98D: main (in /home/safrin/Desktop/Test/louvain-bdsc/Test-2/louvain)
==7092== 
==7092== 192 bytes in 1 blocks are definitely lost in loss record 25 of 36
==7092==    at 0x40292D8: malloc (vg_replace_malloc.c:299)
==7092==    by 0x41B07C5: MPID_Dataloop_struct_alloc (in /usr/local/lib/libmpi.so.12.1.0)
==7092==    by 0x41B427B: MPID_Dataloop_create_struct (in /usr/local/lib/libmpi.so.12.1.0)
==7092==    by 0x41B1C8E: MPID_Dataloop_create (in /usr/local/lib/libmpi.so.12.1.0)
==7092==    by 0x41C063B: MPID_Type_commit (in /usr/local/lib/libmpi.so.12.1.0)
==7092==    by 0x40CB2A0: MPIR_Type_commit_impl (in /usr/local/lib/libmpi.so.12.1.0)
==7092==    by 0x40CB505: PMPI_Type_commit (in /usr/local/lib/libmpi.so.12.1.0)
==7092==    by 0x805A578: exchange_updated_community(Louvain) (in /home/safrin/Desktop/Test/louvain-bdsc/Test-2/louvain)
==7092==    by 0x804AA51: main (in /home/safrin/Desktop/Test/louvain-bdsc/Test-2/louvain)
==7092== 
==7092== 192 bytes in 1 blocks are definitely lost in loss record 26 of 36
==7092==    at 0x40292D8: malloc (vg_replace_malloc.c:299)
==7092==    by 0x41B07C5: MPID_Dataloop_struct_alloc (in /usr/local/lib/libmpi.so.12.1.0)
==7092==    by 0x41B427B: MPID_Dataloop_create_struct (in /usr/local/lib/libmpi.so.12.1.0)
==7092==    by 0x41B1C8E: MPID_Dataloop_create (in /usr/local/lib/libmpi.so.12.1.0)
==7092==    by 0x41C063B: MPID_Type_commit (in /usr/local/lib/libmpi.so.12.1.0)
==7092==    by 0x40CB2A0: MPIR_Type_commit_impl (in /usr/local/lib/libmpi.so.12.1.0)
==7092==    by 0x40CB505: PMPI_Type_commit (in /usr/local/lib/libmpi.so.12.1.0)
==7092==    by 0x805A876: exchange_updated_community(Louvain) (in /home/safrin/Desktop/Test/louvain-bdsc/Test-2/louvain)
==7092==    by 0x804AA51: main (in /home/safrin/Desktop/Test/louvain-bdsc/Test-2/louvain)
==7092== 
==7092== 228 bytes in 4 blocks are definitely lost in loss record 29 of 36
==7092==    at 0x4029F39: operator new[](unsigned int) (vg_replace_malloc.c:417)
==7092==    by 0x805C868: gather_neighbor_info(Louvain) (in /home/safrin/Desktop/Test/louvain-bdsc/Test-2/louvain)
==7092==    by 0x804A98D: main (in /home/safrin/Desktop/Test/louvain-bdsc/Test-2/louvain)
==7092== 
==7092== 228 bytes in 7 blocks are definitely lost in loss record 30 of 36
==7092==    at 0x4029F39: operator new[](unsigned int) (vg_replace_malloc.c:417)
==7092==    by 0x805D091: gather_neighbor_info(Louvain) (in /home/safrin/Desktop/Test/louvain-bdsc/Test-2/louvain)
==7092==    by 0x804A98D: main (in /home/safrin/Desktop/Test/louvain-bdsc/Test-2/louvain)
==7092== 
==7092== 244 bytes in 1 blocks are definitely lost in loss record 31 of 36
==7092==    at 0x40292D8: malloc (vg_replace_malloc.c:299)
==7092==    by 0x41B07C5: MPID_Dataloop_struct_alloc (in /usr/local/lib/libmpi.so.12.1.0)
==7092==    by 0x41B427B: MPID_Dataloop_create_struct (in /usr/local/lib/libmpi.so.12.1.0)
==7092==    by 0x41B1C8E: MPID_Dataloop_create (in /usr/local/lib/libmpi.so.12.1.0)
==7092==    by 0x41C063B: MPID_Type_commit (in /usr/local/lib/libmpi.so.12.1.0)
==7092==    by 0x40CB2A0: MPIR_Type_commit_impl (in /usr/local/lib/libmpi.so.12.1.0)
==7092==    by 0x40CB505: PMPI_Type_commit (in /usr/local/lib/libmpi.so.12.1.0)
==7092==    by 0x805C901: gather_neighbor_info(Louvain) (in /home/safrin/Desktop/Test/louvain-bdsc/Test-2/louvain)
==7092==    by 0x804A98D: main (in /home/safrin/Desktop/Test/louvain-bdsc/Test-2/louvain)
==7092== 
==7092== 244 bytes in 1 blocks are definitely lost in loss record 32 of 36
==7092==    at 0x40292D8: malloc (vg_replace_malloc.c:299)
==7092==    by 0x41B07C5: MPID_Dataloop_struct_alloc (in /usr/local/lib/libmpi.so.12.1.0)
==7092==    by 0x41B427B: MPID_Dataloop_create_struct (in /usr/local/lib/libmpi.so.12.1.0)
==7092==    by 0x41B1C8E: MPID_Dataloop_create (in /usr/local/lib/libmpi.so.12.1.0)
==7092==    by 0x41C063B: MPID_Type_commit (in /usr/local/lib/libmpi.so.12.1.0)
==7092==    by 0x40CB2A0: MPIR_Type_commit_impl (in /usr/local/lib/libmpi.so.12.1.0)
==7092==    by 0x40CB505: PMPI_Type_commit (in /usr/local/lib/libmpi.so.12.1.0)
==7092==    by 0x804B590: main (in /home/safrin/Desktop/Test/louvain-bdsc/Test-2/louvain)
==7092== 
==7092== 476 bytes in 7 blocks are definitely lost in loss record 33 of 36
==7092==    at 0x40292D8: malloc (vg_replace_malloc.c:299)
==7092==    by 0x41BE897: MPID_Datatype_set_contents (in /usr/local/lib/libmpi.so.12.1.0)
==7092==    by 0x40D0600: MPIR_Type_create_struct_impl (in /usr/local/lib/libmpi.so.12.1.0)
==7092==    by 0x40D0A85: PMPI_Type_create_struct (in /usr/local/lib/libmpi.so.12.1.0)
==7092==    by 0x805D116: gather_neighbor_info(Louvain) (in /home/safrin/Desktop/Test/louvain-bdsc/Test-2/louvain)
==7092==    by 0x804A98D: main (in /home/safrin/Desktop/Test/louvain-bdsc/Test-2/louvain)
==7092== 
==7092== 476 bytes in 7 blocks are definitely lost in loss record 34 of 36
==7092==    at 0x40292D8: malloc (vg_replace_malloc.c:299)
==7092==    by 0x41B0559: MPID_Dataloop_alloc_and_copy (in /usr/local/lib/libmpi.so.12.1.0)
==7092==    by 0x41B0772: MPID_Dataloop_alloc (in /usr/local/lib/libmpi.so.12.1.0)
==7092==    by 0x41B351A: MPID_Dataloop_create_indexed (in /usr/local/lib/libmpi.so.12.1.0)
==7092==    by 0x41B41E8: MPID_Dataloop_create_struct (in /usr/local/lib/libmpi.so.12.1.0)
==7092==    by 0x41B1C8E: MPID_Dataloop_create (in /usr/local/lib/libmpi.so.12.1.0)
==7092==    by 0x41C0614: MPID_Type_commit (in /usr/local/lib/libmpi.so.12.1.0)
==7092==    by 0x40CB2A0: MPIR_Type_commit_impl (in /usr/local/lib/libmpi.so.12.1.0)
==7092==    by 0x40CB505: PMPI_Type_commit (in /usr/local/lib/libmpi.so.12.1.0)
==7092==    by 0x805D124: gather_neighbor_info(Louvain) (in /home/safrin/Desktop/Test/louvain-bdsc/Test-2/louvain)
==7092==    by 0x804A98D: main (in /home/safrin/Desktop/Test/louvain-bdsc/Test-2/louvain)
==7092== 
==7092== 1,708 bytes in 7 blocks are definitely lost in loss record 36 of 36
==7092==    at 0x40292D8: malloc (vg_replace_malloc.c:299)
==7092==    by 0x41B07C5: MPID_Dataloop_struct_alloc (in /usr/local/lib/libmpi.so.12.1.0)
==7092==    by 0x41B427B: MPID_Dataloop_create_struct (in /usr/local/lib/libmpi.so.12.1.0)
==7092==    by 0x41B1C8E: MPID_Dataloop_create (in /usr/local/lib/libmpi.so.12.1.0)
==7092==    by 0x41C063B: MPID_Type_commit (in /usr/local/lib/libmpi.so.12.1.0)
==7092==    by 0x40CB2A0: MPIR_Type_commit_impl (in /usr/local/lib/libmpi.so.12.1.0)
==7092==    by 0x40CB505: PMPI_Type_commit (in /usr/local/lib/libmpi.so.12.1.0)
==7092==    by 0x805D124: gather_neighbor_info(Louvain) (in /home/safrin/Desktop/Test/louvain-bdsc/Test-2/louvain)
==7092==    by 0x804A98D: main (in /home/safrin/Desktop/Test/louvain-bdsc/Test-2/louvain)
==7092== 
==7092== LEAK SUMMARY:
==7092==    definitely lost: 4,989 bytes in 68 blocks
==7092==    indirectly lost: 0 bytes in 0 blocks
==7092==      possibly lost: 0 bytes in 0 blocks
==7092==    still reachable: 1,178 bytes in 10 blocks
==7092==         suppressed: 0 bytes in 0 blocks
==7092== Reachable blocks (those to which a pointer was found) are not shown.
==7092== To see them, rerun with: --leak-check=full --show-leak-kinds=all
==7092== 
==7092== For counts of detected and suppressed errors, rerun with: -v
==7092== Use --track-origins=yes to see where uninitialised values come from
==7092== ERROR SUMMARY: 45 errors from 37 contexts (suppressed: 0 from 0)
