==7190== Memcheck, a memory error detector
==7190== Copyright (C) 2002-2017, and GNU GPL'd, by Julian Seward et al.
==7190== Using Valgrind-3.13.0 and LibVEX; rerun with -h for copyright info
==7190== Command: ./louvain ./sample/Output/example-l1 -w ./sample/Output/example-lw1 -l -1 -i ./sample/input/example-l2.txt -g ./sample/Output/full/example-l2.bin -x ./sample/Output/full/example-lw2.bin -f ./sample/Output/full/example-l1.bin -o ./sample/Output/full/example-lw1.bin -u ./sample/Output/example-l-n2c.txt -q id_qual
==7190== Parent PID: 7187
==7190== 
==7190== 
==7190== HEAP SUMMARY:
==7190==     in use at exit: 2,661 bytes in 32 blocks
==7190==   total heap usage: 659 allocs, 627 frees, 3,176,141 bytes allocated
==7190== 
==7190== 4 bytes in 1 blocks are definitely lost in loss record 1 of 20
==7190==    at 0x4029F39: operator new[](unsigned int) (vg_replace_malloc.c:417)
==7190==    by 0x804B4A6: main (in /home/safrin/Desktop/Test/louvain-bdsc/Test-2/louvain)
==7190== 
==7190== 20 bytes in 1 blocks are definitely lost in loss record 2 of 20
==7190==    at 0x4029F39: operator new[](unsigned int) (vg_replace_malloc.c:417)
==7190==    by 0x805C842: gather_neighbor_info(Louvain) (in /home/safrin/Desktop/Test/louvain-bdsc/Test-2/louvain)
==7190==    by 0x804A98D: main (in /home/safrin/Desktop/Test/louvain-bdsc/Test-2/louvain)
==7190== 
==7190== 33 bytes in 1 blocks are definitely lost in loss record 3 of 20
==7190==    at 0x4029F39: operator new[](unsigned int) (vg_replace_malloc.c:417)
==7190==    by 0x804A7E4: main (in /home/safrin/Desktop/Test/louvain-bdsc/Test-2/louvain)
==7190== 
==7190== 48 bytes in 4 blocks are definitely lost in loss record 6 of 20
==7190==    at 0x4029F39: operator new[](unsigned int) (vg_replace_malloc.c:417)
==7190==    by 0x805D06E: gather_neighbor_info(Louvain) (in /home/safrin/Desktop/Test/louvain-bdsc/Test-2/louvain)
==7190==    by 0x804A98D: main (in /home/safrin/Desktop/Test/louvain-bdsc/Test-2/louvain)
==7190== 
==7190== 60 bytes in 1 blocks are definitely lost in loss record 7 of 20
==7190==    at 0x4029F39: operator new[](unsigned int) (vg_replace_malloc.c:417)
==7190==    by 0x805C868: gather_neighbor_info(Louvain) (in /home/safrin/Desktop/Test/louvain-bdsc/Test-2/louvain)
==7190==    by 0x804A98D: main (in /home/safrin/Desktop/Test/louvain-bdsc/Test-2/louvain)
==7190== 
==7190== 68 bytes in 1 blocks are definitely lost in loss record 10 of 20
==7190==    at 0x40292D8: malloc (vg_replace_malloc.c:299)
==7190==    by 0x41BE897: MPID_Datatype_set_contents (in /usr/local/lib/libmpi.so.12.1.0)
==7190==    by 0x40D0600: MPIR_Type_create_struct_impl (in /usr/local/lib/libmpi.so.12.1.0)
==7190==    by 0x40D0A85: PMPI_Type_create_struct (in /usr/local/lib/libmpi.so.12.1.0)
==7190==    by 0x804B588: main (in /home/safrin/Desktop/Test/louvain-bdsc/Test-2/louvain)
==7190== 
==7190== 68 bytes in 1 blocks are definitely lost in loss record 11 of 20
==7190==    at 0x40292D8: malloc (vg_replace_malloc.c:299)
==7190==    by 0x41B0559: MPID_Dataloop_alloc_and_copy (in /usr/local/lib/libmpi.so.12.1.0)
==7190==    by 0x41B0772: MPID_Dataloop_alloc (in /usr/local/lib/libmpi.so.12.1.0)
==7190==    by 0x41B351A: MPID_Dataloop_create_indexed (in /usr/local/lib/libmpi.so.12.1.0)
==7190==    by 0x41B41E8: MPID_Dataloop_create_struct (in /usr/local/lib/libmpi.so.12.1.0)
==7190==    by 0x41B1C8E: MPID_Dataloop_create (in /usr/local/lib/libmpi.so.12.1.0)
==7190==    by 0x41C0614: MPID_Type_commit (in /usr/local/lib/libmpi.so.12.1.0)
==7190==    by 0x40CB2A0: MPIR_Type_commit_impl (in /usr/local/lib/libmpi.so.12.1.0)
==7190==    by 0x40CB505: PMPI_Type_commit (in /usr/local/lib/libmpi.so.12.1.0)
==7190==    by 0x804B590: main (in /home/safrin/Desktop/Test/louvain-bdsc/Test-2/louvain)
==7190== 
==7190== 136 bytes in 2 blocks are definitely lost in loss record 14 of 20
==7190==    at 0x40292D8: malloc (vg_replace_malloc.c:299)
==7190==    by 0x41BE897: MPID_Datatype_set_contents (in /usr/local/lib/libmpi.so.12.1.0)
==7190==    by 0x40D0600: MPIR_Type_create_struct_impl (in /usr/local/lib/libmpi.so.12.1.0)
==7190==    by 0x40D0A85: PMPI_Type_create_struct (in /usr/local/lib/libmpi.so.12.1.0)
==7190==    by 0x805D116: gather_neighbor_info(Louvain) (in /home/safrin/Desktop/Test/louvain-bdsc/Test-2/louvain)
==7190==    by 0x804A98D: main (in /home/safrin/Desktop/Test/louvain-bdsc/Test-2/louvain)
==7190== 
==7190== 136 bytes in 2 blocks are definitely lost in loss record 15 of 20
==7190==    at 0x40292D8: malloc (vg_replace_malloc.c:299)
==7190==    by 0x41B0559: MPID_Dataloop_alloc_and_copy (in /usr/local/lib/libmpi.so.12.1.0)
==7190==    by 0x41B0772: MPID_Dataloop_alloc (in /usr/local/lib/libmpi.so.12.1.0)
==7190==    by 0x41B351A: MPID_Dataloop_create_indexed (in /usr/local/lib/libmpi.so.12.1.0)
==7190==    by 0x41B41E8: MPID_Dataloop_create_struct (in /usr/local/lib/libmpi.so.12.1.0)
==7190==    by 0x41B1C8E: MPID_Dataloop_create (in /usr/local/lib/libmpi.so.12.1.0)
==7190==    by 0x41C0614: MPID_Type_commit (in /usr/local/lib/libmpi.so.12.1.0)
==7190==    by 0x40CB2A0: MPIR_Type_commit_impl (in /usr/local/lib/libmpi.so.12.1.0)
==7190==    by 0x40CB505: PMPI_Type_commit (in /usr/local/lib/libmpi.so.12.1.0)
==7190==    by 0x805D124: gather_neighbor_info(Louvain) (in /home/safrin/Desktop/Test/louvain-bdsc/Test-2/louvain)
==7190==    by 0x804A98D: main (in /home/safrin/Desktop/Test/louvain-bdsc/Test-2/louvain)
==7190== 
==7190== 144 bytes in 4 blocks are definitely lost in loss record 16 of 20
==7190==    at 0x4029F39: operator new[](unsigned int) (vg_replace_malloc.c:417)
==7190==    by 0x805D091: gather_neighbor_info(Louvain) (in /home/safrin/Desktop/Test/louvain-bdsc/Test-2/louvain)
==7190==    by 0x804A98D: main (in /home/safrin/Desktop/Test/louvain-bdsc/Test-2/louvain)
==7190== 
==7190== 244 bytes in 1 blocks are definitely lost in loss record 18 of 20
==7190==    at 0x40292D8: malloc (vg_replace_malloc.c:299)
==7190==    by 0x41B07C5: MPID_Dataloop_struct_alloc (in /usr/local/lib/libmpi.so.12.1.0)
==7190==    by 0x41B427B: MPID_Dataloop_create_struct (in /usr/local/lib/libmpi.so.12.1.0)
==7190==    by 0x41B1C8E: MPID_Dataloop_create (in /usr/local/lib/libmpi.so.12.1.0)
==7190==    by 0x41C063B: MPID_Type_commit (in /usr/local/lib/libmpi.so.12.1.0)
==7190==    by 0x40CB2A0: MPIR_Type_commit_impl (in /usr/local/lib/libmpi.so.12.1.0)
==7190==    by 0x40CB505: PMPI_Type_commit (in /usr/local/lib/libmpi.so.12.1.0)
==7190==    by 0x804B590: main (in /home/safrin/Desktop/Test/louvain-bdsc/Test-2/louvain)
==7190== 
==7190== 488 bytes in 2 blocks are definitely lost in loss record 20 of 20
==7190==    at 0x40292D8: malloc (vg_replace_malloc.c:299)
==7190==    by 0x41B07C5: MPID_Dataloop_struct_alloc (in /usr/local/lib/libmpi.so.12.1.0)
==7190==    by 0x41B427B: MPID_Dataloop_create_struct (in /usr/local/lib/libmpi.so.12.1.0)
==7190==    by 0x41B1C8E: MPID_Dataloop_create (in /usr/local/lib/libmpi.so.12.1.0)
==7190==    by 0x41C063B: MPID_Type_commit (in /usr/local/lib/libmpi.so.12.1.0)
==7190==    by 0x40CB2A0: MPIR_Type_commit_impl (in /usr/local/lib/libmpi.so.12.1.0)
==7190==    by 0x40CB505: PMPI_Type_commit (in /usr/local/lib/libmpi.so.12.1.0)
==7190==    by 0x805D124: gather_neighbor_info(Louvain) (in /home/safrin/Desktop/Test/louvain-bdsc/Test-2/louvain)
==7190==    by 0x804A98D: main (in /home/safrin/Desktop/Test/louvain-bdsc/Test-2/louvain)
==7190== 
==7190== LEAK SUMMARY:
==7190==    definitely lost: 1,449 bytes in 21 blocks
==7190==    indirectly lost: 0 bytes in 0 blocks
==7190==      possibly lost: 0 bytes in 0 blocks
==7190==    still reachable: 1,212 bytes in 11 blocks
==7190==         suppressed: 0 bytes in 0 blocks
==7190== Reachable blocks (those to which a pointer was found) are not shown.
==7190== To see them, rerun with: --leak-check=full --show-leak-kinds=all
==7190== 
==7190== For counts of detected and suppressed errors, rerun with: -v
==7190== ERROR SUMMARY: 12 errors from 12 contexts (suppressed: 0 from 0)
