==7123== Memcheck, a memory error detector
==7123== Copyright (C) 2002-2017, and GNU GPL'd, by Julian Seward et al.
==7123== Using Valgrind-3.13.0 and LibVEX; rerun with -h for copyright info
==7123== Command: ./louvain ./sample/Output/example-l3 -w ./sample/Output/example-lw3 -l -1 -i ./sample/input/example-l4.txt -g ./sample/Output/full/example-l4.bin -x ./sample/Output/full/example-lw4.bin -f ./sample/Output/full/example-l3.bin -o ./sample/Output/full/example-lw3.bin -u ./sample/Output/example-l-n2c.txt -q id_qual
==7123== Parent PID: 7121
==7123== 
==7123== 
==7123== HEAP SUMMARY:
==7123==     in use at exit: 2,205 bytes in 27 blocks
==7123==   total heap usage: 634 allocs, 607 frees, 3,172,901 bytes allocated
==7123== 
==7123== 8 bytes in 1 blocks are definitely lost in loss record 1 of 20
==7123==    at 0x4029F39: operator new[](unsigned int) (vg_replace_malloc.c:417)
==7123==    by 0x804B4A6: main (in /home/safrin/Desktop/Test/louvain-bdsc/Test-2/louvain)
==7123== 
==7123== 24 bytes in 2 blocks are definitely lost in loss record 2 of 20
==7123==    at 0x4029F39: operator new[](unsigned int) (vg_replace_malloc.c:417)
==7123==    by 0x805C842: gather_neighbor_info(Louvain) (in /home/safrin/Desktop/Test/louvain-bdsc/Test-2/louvain)
==7123==    by 0x804A98D: main (in /home/safrin/Desktop/Test/louvain-bdsc/Test-2/louvain)
==7123== 
==7123== 24 bytes in 2 blocks are definitely lost in loss record 3 of 20
==7123==    at 0x4029F39: operator new[](unsigned int) (vg_replace_malloc.c:417)
==7123==    by 0x805D06E: gather_neighbor_info(Louvain) (in /home/safrin/Desktop/Test/louvain-bdsc/Test-2/louvain)
==7123==    by 0x804A98D: main (in /home/safrin/Desktop/Test/louvain-bdsc/Test-2/louvain)
==7123== 
==7123== 33 bytes in 1 blocks are definitely lost in loss record 4 of 20
==7123==    at 0x4029F39: operator new[](unsigned int) (vg_replace_malloc.c:417)
==7123==    by 0x804A7E4: main (in /home/safrin/Desktop/Test/louvain-bdsc/Test-2/louvain)
==7123== 
==7123== 68 bytes in 1 blocks are definitely lost in loss record 9 of 20
==7123==    at 0x40292D8: malloc (vg_replace_malloc.c:299)
==7123==    by 0x41BE897: MPID_Datatype_set_contents (in /usr/local/lib/libmpi.so.12.1.0)
==7123==    by 0x40D0600: MPIR_Type_create_struct_impl (in /usr/local/lib/libmpi.so.12.1.0)
==7123==    by 0x40D0A85: PMPI_Type_create_struct (in /usr/local/lib/libmpi.so.12.1.0)
==7123==    by 0x805D116: gather_neighbor_info(Louvain) (in /home/safrin/Desktop/Test/louvain-bdsc/Test-2/louvain)
==7123==    by 0x804A98D: main (in /home/safrin/Desktop/Test/louvain-bdsc/Test-2/louvain)
==7123== 
==7123== 68 bytes in 1 blocks are definitely lost in loss record 10 of 20
==7123==    at 0x40292D8: malloc (vg_replace_malloc.c:299)
==7123==    by 0x41B0559: MPID_Dataloop_alloc_and_copy (in /usr/local/lib/libmpi.so.12.1.0)
==7123==    by 0x41B0772: MPID_Dataloop_alloc (in /usr/local/lib/libmpi.so.12.1.0)
==7123==    by 0x41B351A: MPID_Dataloop_create_indexed (in /usr/local/lib/libmpi.so.12.1.0)
==7123==    by 0x41B41E8: MPID_Dataloop_create_struct (in /usr/local/lib/libmpi.so.12.1.0)
==7123==    by 0x41B1C8E: MPID_Dataloop_create (in /usr/local/lib/libmpi.so.12.1.0)
==7123==    by 0x41C0614: MPID_Type_commit (in /usr/local/lib/libmpi.so.12.1.0)
==7123==    by 0x40CB2A0: MPIR_Type_commit_impl (in /usr/local/lib/libmpi.so.12.1.0)
==7123==    by 0x40CB505: PMPI_Type_commit (in /usr/local/lib/libmpi.so.12.1.0)
==7123==    by 0x805D124: gather_neighbor_info(Louvain) (in /home/safrin/Desktop/Test/louvain-bdsc/Test-2/louvain)
==7123==    by 0x804A98D: main (in /home/safrin/Desktop/Test/louvain-bdsc/Test-2/louvain)
==7123== 
==7123== 68 bytes in 1 blocks are definitely lost in loss record 11 of 20
==7123==    at 0x40292D8: malloc (vg_replace_malloc.c:299)
==7123==    by 0x41BE897: MPID_Datatype_set_contents (in /usr/local/lib/libmpi.so.12.1.0)
==7123==    by 0x40D0600: MPIR_Type_create_struct_impl (in /usr/local/lib/libmpi.so.12.1.0)
==7123==    by 0x40D0A85: PMPI_Type_create_struct (in /usr/local/lib/libmpi.so.12.1.0)
==7123==    by 0x804B588: main (in /home/safrin/Desktop/Test/louvain-bdsc/Test-2/louvain)
==7123== 
==7123== 68 bytes in 1 blocks are definitely lost in loss record 12 of 20
==7123==    at 0x40292D8: malloc (vg_replace_malloc.c:299)
==7123==    by 0x41B0559: MPID_Dataloop_alloc_and_copy (in /usr/local/lib/libmpi.so.12.1.0)
==7123==    by 0x41B0772: MPID_Dataloop_alloc (in /usr/local/lib/libmpi.so.12.1.0)
==7123==    by 0x41B351A: MPID_Dataloop_create_indexed (in /usr/local/lib/libmpi.so.12.1.0)
==7123==    by 0x41B41E8: MPID_Dataloop_create_struct (in /usr/local/lib/libmpi.so.12.1.0)
==7123==    by 0x41B1C8E: MPID_Dataloop_create (in /usr/local/lib/libmpi.so.12.1.0)
==7123==    by 0x41C0614: MPID_Type_commit (in /usr/local/lib/libmpi.so.12.1.0)
==7123==    by 0x40CB2A0: MPIR_Type_commit_impl (in /usr/local/lib/libmpi.so.12.1.0)
==7123==    by 0x40CB505: PMPI_Type_commit (in /usr/local/lib/libmpi.so.12.1.0)
==7123==    by 0x804B590: main (in /home/safrin/Desktop/Test/louvain-bdsc/Test-2/louvain)
==7123== 
==7123== 72 bytes in 2 blocks are definitely lost in loss record 13 of 20
==7123==    at 0x4029F39: operator new[](unsigned int) (vg_replace_malloc.c:417)
==7123==    by 0x805C868: gather_neighbor_info(Louvain) (in /home/safrin/Desktop/Test/louvain-bdsc/Test-2/louvain)
==7123==    by 0x804A98D: main (in /home/safrin/Desktop/Test/louvain-bdsc/Test-2/louvain)
==7123== 
==7123== 72 bytes in 2 blocks are definitely lost in loss record 14 of 20
==7123==    at 0x4029F39: operator new[](unsigned int) (vg_replace_malloc.c:417)
==7123==    by 0x805D091: gather_neighbor_info(Louvain) (in /home/safrin/Desktop/Test/louvain-bdsc/Test-2/louvain)
==7123==    by 0x804A98D: main (in /home/safrin/Desktop/Test/louvain-bdsc/Test-2/louvain)
==7123== 
==7123== 244 bytes in 1 blocks are definitely lost in loss record 18 of 20
==7123==    at 0x40292D8: malloc (vg_replace_malloc.c:299)
==7123==    by 0x41B07C5: MPID_Dataloop_struct_alloc (in /usr/local/lib/libmpi.so.12.1.0)
==7123==    by 0x41B427B: MPID_Dataloop_create_struct (in /usr/local/lib/libmpi.so.12.1.0)
==7123==    by 0x41B1C8E: MPID_Dataloop_create (in /usr/local/lib/libmpi.so.12.1.0)
==7123==    by 0x41C063B: MPID_Type_commit (in /usr/local/lib/libmpi.so.12.1.0)
==7123==    by 0x40CB2A0: MPIR_Type_commit_impl (in /usr/local/lib/libmpi.so.12.1.0)
==7123==    by 0x40CB505: PMPI_Type_commit (in /usr/local/lib/libmpi.so.12.1.0)
==7123==    by 0x805D124: gather_neighbor_info(Louvain) (in /home/safrin/Desktop/Test/louvain-bdsc/Test-2/louvain)
==7123==    by 0x804A98D: main (in /home/safrin/Desktop/Test/louvain-bdsc/Test-2/louvain)
==7123== 
==7123== 244 bytes in 1 blocks are definitely lost in loss record 19 of 20
==7123==    at 0x40292D8: malloc (vg_replace_malloc.c:299)
==7123==    by 0x41B07C5: MPID_Dataloop_struct_alloc (in /usr/local/lib/libmpi.so.12.1.0)
==7123==    by 0x41B427B: MPID_Dataloop_create_struct (in /usr/local/lib/libmpi.so.12.1.0)
==7123==    by 0x41B1C8E: MPID_Dataloop_create (in /usr/local/lib/libmpi.so.12.1.0)
==7123==    by 0x41C063B: MPID_Type_commit (in /usr/local/lib/libmpi.so.12.1.0)
==7123==    by 0x40CB2A0: MPIR_Type_commit_impl (in /usr/local/lib/libmpi.so.12.1.0)
==7123==    by 0x40CB505: PMPI_Type_commit (in /usr/local/lib/libmpi.so.12.1.0)
==7123==    by 0x804B590: main (in /home/safrin/Desktop/Test/louvain-bdsc/Test-2/louvain)
==7123== 
==7123== LEAK SUMMARY:
==7123==    definitely lost: 993 bytes in 16 blocks
==7123==    indirectly lost: 0 bytes in 0 blocks
==7123==      possibly lost: 0 bytes in 0 blocks
==7123==    still reachable: 1,212 bytes in 11 blocks
==7123==         suppressed: 0 bytes in 0 blocks
==7123== Reachable blocks (those to which a pointer was found) are not shown.
==7123== To see them, rerun with: --leak-check=full --show-leak-kinds=all
==7123== 
==7123== For counts of detected and suppressed errors, rerun with: -v
==7123== ERROR SUMMARY: 12 errors from 12 contexts (suppressed: 0 from 0)
