==6748== Memcheck, a memory error detector
==6748== Copyright (C) 2002-2017, and GNU GPL'd, by Julian Seward et al.
==6748== Using Valgrind-3.13.0 and LibVEX; rerun with -h for copyright info
==6748== Command: ./louvain ./sample/Output/example-l3 -w ./sample/Output/example-lw3 -l -1 -i ./sample/input/example-l4.txt -g ./sample/Output/full/example-l4.bin -x ./sample/Output/full/example-lw4.bin -f ./sample/Output/full/example-l3.bin -o ./sample/Output/full/example-lw3.bin -u ./sample/Output/example-l-n2c.txt -q id_qual
==6748== Parent PID: 6747
==6748== 
==6748== Syscall param write(buf) points to uninitialised byte(s)
==6748==    at 0x44B0483: __write_nocancel (syscall-template.S:81)
==6748==    by 0x43356E5: ??? (in /usr/lib/i386-linux-gnu/libstdc++.so.6.0.19)
==6748==    by 0x4372C0C: std::basic_filebuf<char, std::char_traits<char> >::_M_convert_to_external(char*, int) (in /usr/lib/i386-linux-gnu/libstdc++.so.6.0.19)
==6748==    by 0x437382A: std::basic_filebuf<char, std::char_traits<char> >::overflow(int) (in /usr/lib/i386-linux-gnu/libstdc++.so.6.0.19)
==6748==    by 0x4372E57: std::basic_filebuf<char, std::char_traits<char> >::_M_terminate_output() (in /usr/lib/i386-linux-gnu/libstdc++.so.6.0.19)
==6748==    by 0x4372F24: std::basic_filebuf<char, std::char_traits<char> >::close() (in /usr/lib/i386-linux-gnu/libstdc++.so.6.0.19)
==6748==    by 0x804D61B: Graph::display_binary(char*, char*) (in /home/safrin/Desktop/Test/louvain-bdsc/Test-2/louvain)
==6748==    by 0x804B134: main (in /home/safrin/Desktop/Test/louvain-bdsc/Test-2/louvain)
==6748==  Address 0x48c74e2 is 10 bytes inside a block of size 8,192 alloc'd
==6748==    at 0x4029F39: operator new[](unsigned int) (vg_replace_malloc.c:417)
==6748==    by 0x4372A32: std::basic_filebuf<char, std::char_traits<char> >::_M_allocate_internal_buffer() (in /usr/lib/i386-linux-gnu/libstdc++.so.6.0.19)
==6748==    by 0x43730C0: std::basic_filebuf<char, std::char_traits<char> >::open(char const*, std::_Ios_Openmode) (in /usr/lib/i386-linux-gnu/libstdc++.so.6.0.19)
==6748==    by 0x804D5C7: Graph::display_binary(char*, char*) (in /home/safrin/Desktop/Test/louvain-bdsc/Test-2/louvain)
==6748==    by 0x804B134: main (in /home/safrin/Desktop/Test/louvain-bdsc/Test-2/louvain)
==6748== 
==6748== 
==6748== HEAP SUMMARY:
==6748==     in use at exit: 1,313 bytes in 17 blocks
==6748==   total heap usage: 635 allocs, 618 frees, 2,947,333 bytes allocated
==6748== 
==6748== 4 bytes in 1 blocks are definitely lost in loss record 1 of 17
==6748==    at 0x4029F39: operator new[](unsigned int) (vg_replace_malloc.c:417)
==6748==    by 0x804AC50: main (in /home/safrin/Desktop/Test/louvain-bdsc/Test-2/louvain)
==6748== 
==6748== 8 bytes in 1 blocks are definitely lost in loss record 2 of 17
==6748==    at 0x4029F39: operator new[](unsigned int) (vg_replace_malloc.c:417)
==6748==    by 0x805C812: gather_neighbor_info(Louvain) (in /home/safrin/Desktop/Test/louvain-bdsc/Test-2/louvain)
==6748==    by 0x804A98D: main (in /home/safrin/Desktop/Test/louvain-bdsc/Test-2/louvain)
==6748== 
==6748== 8 bytes in 1 blocks are definitely lost in loss record 3 of 17
==6748==    at 0x4029F39: operator new[](unsigned int) (vg_replace_malloc.c:417)
==6748==    by 0x805D03E: gather_neighbor_info(Louvain) (in /home/safrin/Desktop/Test/louvain-bdsc/Test-2/louvain)
==6748==    by 0x804A98D: main (in /home/safrin/Desktop/Test/louvain-bdsc/Test-2/louvain)
==6748== 
==6748== 24 bytes in 1 blocks are definitely lost in loss record 4 of 17
==6748==    at 0x4029F39: operator new[](unsigned int) (vg_replace_malloc.c:417)
==6748==    by 0x805C838: gather_neighbor_info(Louvain) (in /home/safrin/Desktop/Test/louvain-bdsc/Test-2/louvain)
==6748==    by 0x804A98D: main (in /home/safrin/Desktop/Test/louvain-bdsc/Test-2/louvain)
==6748== 
==6748== 24 bytes in 1 blocks are definitely lost in loss record 5 of 17
==6748==    at 0x4029F39: operator new[](unsigned int) (vg_replace_malloc.c:417)
==6748==    by 0x805D061: gather_neighbor_info(Louvain) (in /home/safrin/Desktop/Test/louvain-bdsc/Test-2/louvain)
==6748==    by 0x804A98D: main (in /home/safrin/Desktop/Test/louvain-bdsc/Test-2/louvain)
==6748== 
==6748== 33 bytes in 1 blocks are definitely lost in loss record 6 of 17
==6748==    at 0x4029F39: operator new[](unsigned int) (vg_replace_malloc.c:417)
==6748==    by 0x804A7E4: main (in /home/safrin/Desktop/Test/louvain-bdsc/Test-2/louvain)
==6748== 
==6748== LEAK SUMMARY:
==6748==    definitely lost: 101 bytes in 6 blocks
==6748==    indirectly lost: 0 bytes in 0 blocks
==6748==      possibly lost: 0 bytes in 0 blocks
==6748==    still reachable: 1,212 bytes in 11 blocks
==6748==         suppressed: 0 bytes in 0 blocks
==6748== Reachable blocks (those to which a pointer was found) are not shown.
==6748== To see them, rerun with: --leak-check=full --show-leak-kinds=all
==6748== 
==6748== For counts of detected and suppressed errors, rerun with: -v
==6748== Use --track-origins=yes to see where uninitialised values come from
==6748== ERROR SUMMARY: 7 errors from 7 contexts (suppressed: 0 from 0)
