0 2
1 2
2 11
3 11
4 11
5 11
6 11
7 32
8 32
9 32
10 16
11 32
12 32
13 1
14 4
15 31
16 33
17 2
18 2
19 32
20 16
21 16
22 16
23 1
24 1
25 1
26 1
27 1
28 1
29 1
30 1
31 1
32 1
33 1
34 1
35 1
36 1
37 1
38 1
39 1
40 1
41 30
42 33
43 32
44 32
45 31
46 31
47 7
48 7
49 33
50 33
51 30
52 3
53 4
54 11
55 11
56 11
57 11
58 11
59 11
60 3
61 3
62 33
63 11
64 4
65 4
66 6
67 16
68 16
69 16
70 33
71 33
72 16
73 2
74 2
75 1
76 7
77 33
78 33
79 30
80 16
81 16
82 33
83 33
84 33
85 2
86 16
87 33
88 11
89 11
90 6
91 6
92 16
93 4
94 30
95 30
96 1
97 0
98 0
99 0
100 0
101 0
102 11
103 3
104 3
105 33
106 33
107 33
108 6
109 33
110 6
111 6
112 6
113 7
114 7
115 1
116 1
117 16
118 33
119 1
120 2
121 33
122 3
123 1
124 0
125 0
126 11
127 16
128 30
129 4
130 30
131 11
132 11
133 4
134 8
135 1
136 1
137 11
138 11
139 31
140 31
141 32
142 33
143 6
144 33
145 33
146 2
147 33
148 3
149 3
150 3
151 1
152 33
153 33
154 33
155 33
156 3
157 3
158 33
159 33
160 16
161 32
162 33
163 33
164 31
165 1
166 33
167 30
168 4
169 1
170 1
171 7
172 4
173 33
174 11
175 11
176 4
177 2
178 30
179 3
180 30
181 3
182 3
183 4
184 16
185 0
186 33
187 33
188 16
189 16
190 16
191 3
192 11
193 11
194 11
195 11
196 30
197 30
198 30
199 30
200 30
201 30
202 30
203 30
204 30
205 30
206 30
207 30
208 11
209 33
210 33
211 11
212 33
213 32
214 30
215 2
216 31
217 33
218 2
219 2
220 2
221 2
222 2
223 2
224 2
225 2
226 2
227 2
228 2
229 1
230 33
231 30
232 4
233 33
234 33
235 33
236 33
237 33
238 33
239 33
240 33
241 33
242 33
243 33
244 33
245 7
246 32
247 32
248 2
249 33
250 3
251 1
252 11
253 33
254 33
255 33
256 33
257 4
258 6
259 16
260 16
261 1
262 3
263 7
264 32
265 32
266 32
267 32
268 2
269 31
270 4
271 11
272 31
273 31
274 31
275 4
276 4
277 30
278 30
279 33
280 4
281 11
282 33
283 33
284 30
285 11
286 11
287 16
288 33
289 4
290 4
291 4
292 4
293 32
294 4
295 3
296 3
297 2
298 16
299 16
300 33
301 2
302 11
303 11
304 11
305 11
306 16
307 2
308 3
309 2
310 2
311 2
312 2
313 2
314 2
315 2
316 2
317 2
318 7
319 33
320 3
321 3
322 31
323 0
324 32
325 16
326 16
327 16
328 6
329 6
330 2
331 2
332 32
333 7
334 31
335 31
336 1
337 1
338 1
339 1
340 8
341 2
342 30
343 30
344 3
345 30
346 30
347 3
348 3
349 3
350 30
351 30
352 30
353 0
354 0
355 33
356 6
357 6
358 32
359 32
360 32
361 1
362 32
363 33
364 33
365 32
366 33
367 1
368 3
369 11
370 1
371 33
372 33
373 33
374 32
375 6
376 3
377 3
378 3
379 3
380 3
381 3
382 3
383 3
384 3
385 3
386 3
387 3
388 3
389 3
390 3
391 3
392 3
393 3
394 3
395 3
396 3
397 3
398 3
399 4
400 16
401 4
402 3
403 4
404 33
405 33
406 32
407 32
408 11
409 1
410 6
411 11
412 11
413 4
414 5
415 5
416 32
417 7
418 16
419 4
420 33
421 32
422 33
423 7
424 33
425 4
426 4
427 1
428 31
429 31
430 32
431 33
432 33
433 33
434 33
435 2
436 1
437 1
438 1
439 1
440 4
441 32
442 7
443 7
444 7
445 30
446 31
447 31
448 31
449 5
450 4
451 32
452 32
453 33
454 33
455 1
456 4
457 4
458 4
459 2
460 16
461 31
462 33
463 33
464 4
465 16
466 32
467 16
468 2
469 6
470 1
471 33
472 33
473 16
474 6
475 6
476 6
477 6
478 6
479 5
480 16
481 11
482 8
483 30
484 4
485 7
486 4
487 32
488 32
489 33
490 33
491 3
492 33
493 4
494 1
495 33
496 32
497 33
498 32
499 32
500 32
501 32
502 32
503 32
504 32
505 32
506 32
507 2
508 16
509 16
510 32
511 2
512 33
513 33
514 6
515 4
516 11
517 11
518 33
519 2
520 11
521 8
522 4
523 4
524 16
525 32
526 4
527 7
528 11
529 32
530 32
531 33
532 11
533 16
534 4
535 8
536 16
537 2
538 16
539 30
540 16
541 33
542 4
543 4
544 4
545 1
546 33
547 7
548 33
549 16
550 16
551 16
552 11
553 8
554 8
555 32
556 4
557 30
558 32
559 33
560 2
561 33
562 4
563 4
564 11
565 32
566 32
567 4
568 4
569 32
570 32
571 11
572 4
573 32
574 4
575 30
576 4
577 33
578 33
579 31
580 9
581 30
582 16
583 8
584 4
585 4
586 11
587 11
588 1
589 33
590 1
591 33
592 31
593 30
594 33
595 3
596 33
597 33
598 8
599 11
600 4
601 33
602 32
603 5
604 11
605 30
606 33
607 33
608 32
609 7
610 11
611 4
612 33
613 2
614 2
615 33
616 2
617 31
618 0
619 11
620 16
621 30
622 33
623 4
624 2
625 11
626 33
627 16
628 3
629 2
630 11
631 33
632 3
633 10
634 11
635 11
636 11
637 33
638 6
639 33
640 0
641 33
642 33
643 33
644 31
645 3
646 11
647 33
648 12
649 32
650 2
651 33
652 6
653 13
654 33
655 1
656 3
657 31
658 14
659 3
660 15
661 32
662 0
663 16
664 4
665 11
666 32
667 16
668 3
669 33
670 17
671 16
672 32
673 33
674 32
675 18
676 31
677 30
678 16
679 16
680 3
681 30
682 2
683 11
684 19
685 11
686 7
687 0
688 4
689 30
690 16
691 20
692 30
693 33
694 4
695 2
696 2
697 3
698 11
699 32
700 32
701 33
702 33
703 21
704 33
705 4
706 4
707 32
708 0
709 0
710 16
711 22
712 34
713 16
714 4
715 16
716 11
717 11
718 11
719 3
720 32
721 1
722 1
723 16
724 16
725 7
726 33
727 33
728 16
729 32
730 2
731 23
732 24
733 16
734 3
735 31
736 16
737 11
738 11
739 33
740 30
741 3
742 33
743 11
744 25
745 2
746 26
747 16
748 33
749 30
750 11
751 30
752 33
753 1
754 32
755 11
756 2
757 1
758 2
759 2
760 31
761 3
762 11
763 11
764 2
765 32
766 8
767 7
768 0
769 33
770 0
771 33
772 27
773 33
774 11
775 2
776 30
777 16
778 32
779 2
780 33
781 2
782 3
783 33
784 11
785 1
786 16
787 16
788 11
789 4
790 4
791 4
792 33
793 2
794 31
795 7
796 33
797 30
798 28
799 16
800 16
801 30
802 4
803 11
804 32
805 32
806 11
807 11
808 29
809 11
810 2
811 33
812 11
813 4
814 3
815 11
816 1
817 4
818 16
819 31
820 30
821 16
822 4
823 32
824 3
825 16
826 11
827 32
828 33
829 4
830 32
831 6
832 11
833 32
834 33
835 4
836 4
837 33
838 0
839 3
840 4
841 3
842 1
843 4
844 32
845 11
846 30
847 7
848 8
849 11
850 30
851 30
852 30
853 33
854 11
855 16
856 32
857 2
858 16
859 11
860 1
861 30
862 16
863 11
864 11
865 11
866 16
867 8
868 3
869 3
870 4
871 30
872 2
873 4
874 4
875 1
876 11
877 16
878 1
879 33
880 11
881 1
882 16
883 1
884 11
885 16
886 11
887 16
888 11
889 33
890 33
891 7
892 7
893 32
894 16
895 7
896 6
897 7
898 11
899 11
900 1
901 11
902 11
903 3
904 3
905 2
906 16
907 3
908 30
909 4
910 4
911 16
912 32
913 32
914 1
915 1
916 5
917 30
918 30
919 7
920 2
921 11
922 32
923 16
924 11
925 7
926 33
927 33
928 11
929 31
930 33
931 33
932 33
933 31
934 8
935 0
936 30
937 0
938 4
939 4
940 30
941 16
942 2
943 3
944 33
945 16
946 33
947 3
948 3
949 11
950 33
951 32
952 16
953 1
954 33
955 30
956 32
957 32
958 16
959 3
960 3
961 3
962 16
963 33
964 1
965 30
966 16
967 32
968 16
969 16
970 30
971 32
972 32
973 32
974 30
975 32
976 7
977 33
978 1
979 2
980 1
981 7
982 11
983 7
984 6
985 3
986 1
987 1
988 1
989 6
990 11
991 11
992 4
993 11
994 11
995 34
996 32
997 1
998 4
999 33
1000 4
1001 11
1002 2
1003 6
1004 11
