==7091== Memcheck, a memory error detector
==7091== Copyright (C) 2002-2017, and GNU GPL'd, by Julian Seward et al.
==7091== Using Valgrind-3.13.0 and LibVEX; rerun with -h for copyright info
==7091== Command: ./louvain ./sample/Output/example-l0 -l -1 -i ./sample/input/example-l1.txt -g ./sample/Output/full/example-l1.bin -x ./sample/Output/full/example-lw1.bin -f ./sample/Output/full/example-l0.bin -u ./sample/Output/example-l-n2c.txt -q id_qual
==7091== Parent PID: 7089
==7091== 
==7091== Conditional jump or move depends on uninitialised value(s)
==7091==    at 0x4344F13: std::ostreambuf_iterator<char, std::char_traits<char> > std::num_put<char, std::ostreambuf_iterator<char, std::char_traits<char> > >::_M_insert_int<long>(std::ostreambuf_iterator<char, std::char_traits<char> >, std::ios_base&, char, long) const (in /usr/lib/i386-linux-gnu/libstdc++.so.6.0.19)
==7091==    by 0x4345558: std::num_put<char, std::ostreambuf_iterator<char, std::char_traits<char> > >::do_put(std::ostreambuf_iterator<char, std::char_traits<char> >, std::ios_base&, char, long) const (in /usr/lib/i386-linux-gnu/libstdc++.so.6.0.19)
==7091==    by 0x43515DD: std::ostream& std::ostream::_M_insert<long>(long) (in /usr/lib/i386-linux-gnu/libstdc++.so.6.0.19)
==7091==    by 0x43517D2: std::ostream::operator<<(int) (in /usr/lib/i386-linux-gnu/libstdc++.so.6.0.19)
==7091==    by 0x805ABB9: exchange_updated_community(Louvain) (in /home/safrin/Desktop/Test/louvain-bdsc/Test-2/louvain)
==7091==    by 0x804AA51: main (in /home/safrin/Desktop/Test/louvain-bdsc/Test-2/louvain)
==7091== 
==7091== Use of uninitialised value of size 4
==7091==    at 0x4344E03: ??? (in /usr/lib/i386-linux-gnu/libstdc++.so.6.0.19)
==7091==    by 0x4344F47: std::ostreambuf_iterator<char, std::char_traits<char> > std::num_put<char, std::ostreambuf_iterator<char, std::char_traits<char> > >::_M_insert_int<long>(std::ostreambuf_iterator<char, std::char_traits<char> >, std::ios_base&, char, long) const (in /usr/lib/i386-linux-gnu/libstdc++.so.6.0.19)
==7091==    by 0x4345558: std::num_put<char, std::ostreambuf_iterator<char, std::char_traits<char> > >::do_put(std::ostreambuf_iterator<char, std::char_traits<char> >, std::ios_base&, char, long) const (in /usr/lib/i386-linux-gnu/libstdc++.so.6.0.19)
==7091==    by 0x43515DD: std::ostream& std::ostream::_M_insert<long>(long) (in /usr/lib/i386-linux-gnu/libstdc++.so.6.0.19)
==7091==    by 0x43517D2: std::ostream::operator<<(int) (in /usr/lib/i386-linux-gnu/libstdc++.so.6.0.19)
==7091==    by 0x805ABB9: exchange_updated_community(Louvain) (in /home/safrin/Desktop/Test/louvain-bdsc/Test-2/louvain)
==7091==    by 0x804AA51: main (in /home/safrin/Desktop/Test/louvain-bdsc/Test-2/louvain)
==7091== 
==7091== Conditional jump or move depends on uninitialised value(s)
==7091==    at 0x4344E0C: ??? (in /usr/lib/i386-linux-gnu/libstdc++.so.6.0.19)
==7091==    by 0x4344F47: std::ostreambuf_iterator<char, std::char_traits<char> > std::num_put<char, std::ostreambuf_iterator<char, std::char_traits<char> > >::_M_insert_int<long>(std::ostreambuf_iterator<char, std::char_traits<char> >, std::ios_base&, char, long) const (in /usr/lib/i386-linux-gnu/libstdc++.so.6.0.19)
==7091==    by 0x4345558: std::num_put<char, std::ostreambuf_iterator<char, std::char_traits<char> > >::do_put(std::ostreambuf_iterator<char, std::char_traits<char> >, std::ios_base&, char, long) const (in /usr/lib/i386-linux-gnu/libstdc++.so.6.0.19)
==7091==    by 0x43515DD: std::ostream& std::ostream::_M_insert<long>(long) (in /usr/lib/i386-linux-gnu/libstdc++.so.6.0.19)
==7091==    by 0x43517D2: std::ostream::operator<<(int) (in /usr/lib/i386-linux-gnu/libstdc++.so.6.0.19)
==7091==    by 0x805ABB9: exchange_updated_community(Louvain) (in /home/safrin/Desktop/Test/louvain-bdsc/Test-2/louvain)
==7091==    by 0x804AA51: main (in /home/safrin/Desktop/Test/louvain-bdsc/Test-2/louvain)
==7091== 
==7091== Conditional jump or move depends on uninitialised value(s)
==7091==    at 0x4344F6F: std::ostreambuf_iterator<char, std::char_traits<char> > std::num_put<char, std::ostreambuf_iterator<char, std::char_traits<char> > >::_M_insert_int<long>(std::ostreambuf_iterator<char, std::char_traits<char> >, std::ios_base&, char, long) const (in /usr/lib/i386-linux-gnu/libstdc++.so.6.0.19)
==7091==    by 0x4345558: std::num_put<char, std::ostreambuf_iterator<char, std::char_traits<char> > >::do_put(std::ostreambuf_iterator<char, std::char_traits<char> >, std::ios_base&, char, long) const (in /usr/lib/i386-linux-gnu/libstdc++.so.6.0.19)
==7091==    by 0x43515DD: std::ostream& std::ostream::_M_insert<long>(long) (in /usr/lib/i386-linux-gnu/libstdc++.so.6.0.19)
==7091==    by 0x43517D2: std::ostream::operator<<(int) (in /usr/lib/i386-linux-gnu/libstdc++.so.6.0.19)
==7091==    by 0x805ABB9: exchange_updated_community(Louvain) (in /home/safrin/Desktop/Test/louvain-bdsc/Test-2/louvain)
==7091==    by 0x804AA51: main (in /home/safrin/Desktop/Test/louvain-bdsc/Test-2/louvain)
==7091== 
==7091== Invalid read of size 4
==7091==    at 0x805AB7B: exchange_updated_community(Louvain) (in /home/safrin/Desktop/Test/louvain-bdsc/Test-2/louvain)
==7091==    by 0x804AA51: main (in /home/safrin/Desktop/Test/louvain-bdsc/Test-2/louvain)
==7091==  Address 0x4903af0 is 0 bytes after a block of size 16 alloc'd
==7091==    at 0x4029F39: operator new[](unsigned int) (vg_replace_malloc.c:417)
==7091==    by 0x805A470: exchange_updated_community(Louvain) (in /home/safrin/Desktop/Test/louvain-bdsc/Test-2/louvain)
==7091==    by 0x804AA51: main (in /home/safrin/Desktop/Test/louvain-bdsc/Test-2/louvain)
==7091== 
==7091== 
==7091== HEAP SUMMARY:
==7091==     in use at exit: 5,799 bytes in 73 blocks
==7091==   total heap usage: 843 allocs, 770 frees, 3,188,448 bytes allocated
==7091== 
==7091== 8 bytes in 1 blocks are definitely lost in loss record 1 of 36
==7091==    at 0x4029F39: operator new[](unsigned int) (vg_replace_malloc.c:417)
==7091==    by 0x805A768: exchange_updated_community(Louvain) (in /home/safrin/Desktop/Test/louvain-bdsc/Test-2/louvain)
==7091==    by 0x804AA51: main (in /home/safrin/Desktop/Test/louvain-bdsc/Test-2/louvain)
==7091== 
==7091== 8 bytes in 1 blocks are definitely lost in loss record 2 of 36
==7091==    at 0x4029F39: operator new[](unsigned int) (vg_replace_malloc.c:417)
==7091==    by 0x805A793: exchange_updated_community(Louvain) (in /home/safrin/Desktop/Test/louvain-bdsc/Test-2/louvain)
==7091==    by 0x804AA51: main (in /home/safrin/Desktop/Test/louvain-bdsc/Test-2/louvain)
==7091== 
==7091== 8 bytes in 1 blocks are definitely lost in loss record 3 of 36
==7091==    at 0x4029F39: operator new[](unsigned int) (vg_replace_malloc.c:417)
==7091==    by 0x804B4A6: main (in /home/safrin/Desktop/Test/louvain-bdsc/Test-2/louvain)
==7091== 
==7091== 16 bytes in 1 blocks are definitely lost in loss record 4 of 36
==7091==    at 0x4029F39: operator new[](unsigned int) (vg_replace_malloc.c:417)
==7091==    by 0x805A470: exchange_updated_community(Louvain) (in /home/safrin/Desktop/Test/louvain-bdsc/Test-2/louvain)
==7091==    by 0x804AA51: main (in /home/safrin/Desktop/Test/louvain-bdsc/Test-2/louvain)
==7091== 
==7091== 16 bytes in 1 blocks are definitely lost in loss record 5 of 36
==7091==    at 0x4029F39: operator new[](unsigned int) (vg_replace_malloc.c:417)
==7091==    by 0x805A49B: exchange_updated_community(Louvain) (in /home/safrin/Desktop/Test/louvain-bdsc/Test-2/louvain)
==7091==    by 0x804AA51: main (in /home/safrin/Desktop/Test/louvain-bdsc/Test-2/louvain)
==7091== 
==7091== 16 bytes in 1 blocks are definitely lost in loss record 6 of 36
==7091==    at 0x4029F39: operator new[](unsigned int) (vg_replace_malloc.c:417)
==7091==    by 0x805B5DF: exchange_duality_resolved_community(Louvain) (in /home/safrin/Desktop/Test/louvain-bdsc/Test-2/louvain)
==7091==    by 0x804AB24: main (in /home/safrin/Desktop/Test/louvain-bdsc/Test-2/louvain)
==7091== 
==7091== 16 bytes in 1 blocks are definitely lost in loss record 7 of 36
==7091==    at 0x4029F39: operator new[](unsigned int) (vg_replace_malloc.c:417)
==7091==    by 0x805B5F8: exchange_duality_resolved_community(Louvain) (in /home/safrin/Desktop/Test/louvain-bdsc/Test-2/louvain)
==7091==    by 0x804AB24: main (in /home/safrin/Desktop/Test/louvain-bdsc/Test-2/louvain)
==7091== 
==7091== 24 bytes in 1 blocks are definitely lost in loss record 8 of 36
==7091==    at 0x4029F39: operator new[](unsigned int) (vg_replace_malloc.c:417)
==7091==    by 0x805A7BB: exchange_updated_community(Louvain) (in /home/safrin/Desktop/Test/louvain-bdsc/Test-2/louvain)
==7091==    by 0x804AA51: main (in /home/safrin/Desktop/Test/louvain-bdsc/Test-2/louvain)
==7091== 
==7091== 33 bytes in 1 blocks are definitely lost in loss record 9 of 36
==7091==    at 0x4029F39: operator new[](unsigned int) (vg_replace_malloc.c:417)
==7091==    by 0x804A7E4: main (in /home/safrin/Desktop/Test/louvain-bdsc/Test-2/louvain)
==7091== 
==7091== 44 bytes in 1 blocks are definitely lost in loss record 11 of 36
==7091==    at 0x40292D8: malloc (vg_replace_malloc.c:299)
==7091==    by 0x41BE897: MPID_Datatype_set_contents (in /usr/local/lib/libmpi.so.12.1.0)
==7091==    by 0x40D0600: MPIR_Type_create_struct_impl (in /usr/local/lib/libmpi.so.12.1.0)
==7091==    by 0x40D0A85: PMPI_Type_create_struct (in /usr/local/lib/libmpi.so.12.1.0)
==7091==    by 0x805B647: exchange_duality_resolved_community(Louvain) (in /home/safrin/Desktop/Test/louvain-bdsc/Test-2/louvain)
==7091==    by 0x804AB24: main (in /home/safrin/Desktop/Test/louvain-bdsc/Test-2/louvain)
==7091== 
==7091== 44 bytes in 1 blocks are definitely lost in loss record 12 of 36
==7091==    at 0x40292D8: malloc (vg_replace_malloc.c:299)
==7091==    by 0x41B0559: MPID_Dataloop_alloc_and_copy (in /usr/local/lib/libmpi.so.12.1.0)
==7091==    by 0x41B0772: MPID_Dataloop_alloc (in /usr/local/lib/libmpi.so.12.1.0)
==7091==    by 0x41B2457: MPID_Dataloop_create_blockindexed (in /usr/local/lib/libmpi.so.12.1.0)
==7091==    by 0x41B31FA: MPID_Dataloop_create_indexed (in /usr/local/lib/libmpi.so.12.1.0)
==7091==    by 0x41B41E8: MPID_Dataloop_create_struct (in /usr/local/lib/libmpi.so.12.1.0)
==7091==    by 0x41B1C8E: MPID_Dataloop_create (in /usr/local/lib/libmpi.so.12.1.0)
==7091==    by 0x41C0614: MPID_Type_commit (in /usr/local/lib/libmpi.so.12.1.0)
==7091==    by 0x40CB2A0: MPIR_Type_commit_impl (in /usr/local/lib/libmpi.so.12.1.0)
==7091==    by 0x40CB505: PMPI_Type_commit (in /usr/local/lib/libmpi.so.12.1.0)
==7091==    by 0x805B64F: exchange_duality_resolved_community(Louvain) (in /home/safrin/Desktop/Test/louvain-bdsc/Test-2/louvain)
==7091==    by 0x804AB24: main (in /home/safrin/Desktop/Test/louvain-bdsc/Test-2/louvain)
==7091== 
==7091== 44 bytes in 1 blocks are definitely lost in loss record 13 of 36
==7091==    at 0x40292D8: malloc (vg_replace_malloc.c:299)
==7091==    by 0x41B0559: MPID_Dataloop_alloc_and_copy (in /usr/local/lib/libmpi.so.12.1.0)
==7091==    by 0x41B0772: MPID_Dataloop_alloc (in /usr/local/lib/libmpi.so.12.1.0)
==7091==    by 0x41B2457: MPID_Dataloop_create_blockindexed (in /usr/local/lib/libmpi.so.12.1.0)
==7091==    by 0x41B31FA: MPID_Dataloop_create_indexed (in /usr/local/lib/libmpi.so.12.1.0)
==7091==    by 0x41B41E8: MPID_Dataloop_create_struct (in /usr/local/lib/libmpi.so.12.1.0)
==7091==    by 0x41B1C8E: MPID_Dataloop_create (in /usr/local/lib/libmpi.so.12.1.0)
==7091==    by 0x41C063B: MPID_Type_commit (in /usr/local/lib/libmpi.so.12.1.0)
==7091==    by 0x40CB2A0: MPIR_Type_commit_impl (in /usr/local/lib/libmpi.so.12.1.0)
==7091==    by 0x40CB505: PMPI_Type_commit (in /usr/local/lib/libmpi.so.12.1.0)
==7091==    by 0x805B64F: exchange_duality_resolved_community(Louvain) (in /home/safrin/Desktop/Test/louvain-bdsc/Test-2/louvain)
==7091==    by 0x804AB24: main (in /home/safrin/Desktop/Test/louvain-bdsc/Test-2/louvain)
==7091== 
==7091== 48 bytes in 1 blocks are definitely lost in loss record 14 of 36
==7091==    at 0x4029F39: operator new[](unsigned int) (vg_replace_malloc.c:417)
==7091==    by 0x805A4C3: exchange_updated_community(Louvain) (in /home/safrin/Desktop/Test/louvain-bdsc/Test-2/louvain)
==7091==    by 0x804AA51: main (in /home/safrin/Desktop/Test/louvain-bdsc/Test-2/louvain)
==7091== 
==7091== 56 bytes in 1 blocks are definitely lost in loss record 15 of 36
==7091==    at 0x40292D8: malloc (vg_replace_malloc.c:299)
==7091==    by 0x41BE897: MPID_Datatype_set_contents (in /usr/local/lib/libmpi.so.12.1.0)
==7091==    by 0x40D0600: MPIR_Type_create_struct_impl (in /usr/local/lib/libmpi.so.12.1.0)
==7091==    by 0x40D0A85: PMPI_Type_create_struct (in /usr/local/lib/libmpi.so.12.1.0)
==7091==    by 0x805A56C: exchange_updated_community(Louvain) (in /home/safrin/Desktop/Test/louvain-bdsc/Test-2/louvain)
==7091==    by 0x804AA51: main (in /home/safrin/Desktop/Test/louvain-bdsc/Test-2/louvain)
==7091== 
==7091== 56 bytes in 1 blocks are definitely lost in loss record 16 of 36
==7091==    at 0x40292D8: malloc (vg_replace_malloc.c:299)
==7091==    by 0x41BE897: MPID_Datatype_set_contents (in /usr/local/lib/libmpi.so.12.1.0)
==7091==    by 0x40D0600: MPIR_Type_create_struct_impl (in /usr/local/lib/libmpi.so.12.1.0)
==7091==    by 0x40D0A85: PMPI_Type_create_struct (in /usr/local/lib/libmpi.so.12.1.0)
==7091==    by 0x805A867: exchange_updated_community(Louvain) (in /home/safrin/Desktop/Test/louvain-bdsc/Test-2/louvain)
==7091==    by 0x804AA51: main (in /home/safrin/Desktop/Test/louvain-bdsc/Test-2/louvain)
==7091== 
==7091== 60 bytes in 1 blocks are definitely lost in loss record 17 of 36
==7091==    at 0x40292D8: malloc (vg_replace_malloc.c:299)
==7091==    by 0x41B0559: MPID_Dataloop_alloc_and_copy (in /usr/local/lib/libmpi.so.12.1.0)
==7091==    by 0x41B0772: MPID_Dataloop_alloc (in /usr/local/lib/libmpi.so.12.1.0)
==7091==    by 0x41B351A: MPID_Dataloop_create_indexed (in /usr/local/lib/libmpi.so.12.1.0)
==7091==    by 0x41B41E8: MPID_Dataloop_create_struct (in /usr/local/lib/libmpi.so.12.1.0)
==7091==    by 0x41B1C8E: MPID_Dataloop_create (in /usr/local/lib/libmpi.so.12.1.0)
==7091==    by 0x41C0614: MPID_Type_commit (in /usr/local/lib/libmpi.so.12.1.0)
==7091==    by 0x40CB2A0: MPIR_Type_commit_impl (in /usr/local/lib/libmpi.so.12.1.0)
==7091==    by 0x40CB505: PMPI_Type_commit (in /usr/local/lib/libmpi.so.12.1.0)
==7091==    by 0x805A578: exchange_updated_community(Louvain) (in /home/safrin/Desktop/Test/louvain-bdsc/Test-2/louvain)
==7091==    by 0x804AA51: main (in /home/safrin/Desktop/Test/louvain-bdsc/Test-2/louvain)
==7091== 
==7091== 60 bytes in 1 blocks are definitely lost in loss record 18 of 36
==7091==    at 0x40292D8: malloc (vg_replace_malloc.c:299)
==7091==    by 0x41B0559: MPID_Dataloop_alloc_and_copy (in /usr/local/lib/libmpi.so.12.1.0)
==7091==    by 0x41B0772: MPID_Dataloop_alloc (in /usr/local/lib/libmpi.so.12.1.0)
==7091==    by 0x41B351A: MPID_Dataloop_create_indexed (in /usr/local/lib/libmpi.so.12.1.0)
==7091==    by 0x41B41E8: MPID_Dataloop_create_struct (in /usr/local/lib/libmpi.so.12.1.0)
==7091==    by 0x41B1C8E: MPID_Dataloop_create (in /usr/local/lib/libmpi.so.12.1.0)
==7091==    by 0x41C0614: MPID_Type_commit (in /usr/local/lib/libmpi.so.12.1.0)
==7091==    by 0x40CB2A0: MPIR_Type_commit_impl (in /usr/local/lib/libmpi.so.12.1.0)
==7091==    by 0x40CB505: PMPI_Type_commit (in /usr/local/lib/libmpi.so.12.1.0)
==7091==    by 0x805A876: exchange_updated_community(Louvain) (in /home/safrin/Desktop/Test/louvain-bdsc/Test-2/louvain)
==7091==    by 0x804AA51: main (in /home/safrin/Desktop/Test/louvain-bdsc/Test-2/louvain)
==7091== 
==7091== 60 bytes in 4 blocks are definitely lost in loss record 19 of 36
==7091==    at 0x4029F39: operator new[](unsigned int) (vg_replace_malloc.c:417)
==7091==    by 0x805C842: gather_neighbor_info(Louvain) (in /home/safrin/Desktop/Test/louvain-bdsc/Test-2/louvain)
==7091==    by 0x804A98D: main (in /home/safrin/Desktop/Test/louvain-bdsc/Test-2/louvain)
==7091== 
==7091== 68 bytes in 1 blocks are definitely lost in loss record 20 of 36
==7091==    at 0x40292D8: malloc (vg_replace_malloc.c:299)
==7091==    by 0x41BE897: MPID_Datatype_set_contents (in /usr/local/lib/libmpi.so.12.1.0)
==7091==    by 0x40D0600: MPIR_Type_create_struct_impl (in /usr/local/lib/libmpi.so.12.1.0)
==7091==    by 0x40D0A85: PMPI_Type_create_struct (in /usr/local/lib/libmpi.so.12.1.0)
==7091==    by 0x805C8F3: gather_neighbor_info(Louvain) (in /home/safrin/Desktop/Test/louvain-bdsc/Test-2/louvain)
==7091==    by 0x804A98D: main (in /home/safrin/Desktop/Test/louvain-bdsc/Test-2/louvain)
==7091== 
==7091== 68 bytes in 1 blocks are definitely lost in loss record 21 of 36
==7091==    at 0x40292D8: malloc (vg_replace_malloc.c:299)
==7091==    by 0x41B0559: MPID_Dataloop_alloc_and_copy (in /usr/local/lib/libmpi.so.12.1.0)
==7091==    by 0x41B0772: MPID_Dataloop_alloc (in /usr/local/lib/libmpi.so.12.1.0)
==7091==    by 0x41B351A: MPID_Dataloop_create_indexed (in /usr/local/lib/libmpi.so.12.1.0)
==7091==    by 0x41B41E8: MPID_Dataloop_create_struct (in /usr/local/lib/libmpi.so.12.1.0)
==7091==    by 0x41B1C8E: MPID_Dataloop_create (in /usr/local/lib/libmpi.so.12.1.0)
==7091==    by 0x41C0614: MPID_Type_commit (in /usr/local/lib/libmpi.so.12.1.0)
==7091==    by 0x40CB2A0: MPIR_Type_commit_impl (in /usr/local/lib/libmpi.so.12.1.0)
==7091==    by 0x40CB505: PMPI_Type_commit (in /usr/local/lib/libmpi.so.12.1.0)
==7091==    by 0x805C901: gather_neighbor_info(Louvain) (in /home/safrin/Desktop/Test/louvain-bdsc/Test-2/louvain)
==7091==    by 0x804A98D: main (in /home/safrin/Desktop/Test/louvain-bdsc/Test-2/louvain)
==7091== 
==7091== 68 bytes in 1 blocks are definitely lost in loss record 22 of 36
==7091==    at 0x40292D8: malloc (vg_replace_malloc.c:299)
==7091==    by 0x41BE897: MPID_Datatype_set_contents (in /usr/local/lib/libmpi.so.12.1.0)
==7091==    by 0x40D0600: MPIR_Type_create_struct_impl (in /usr/local/lib/libmpi.so.12.1.0)
==7091==    by 0x40D0A85: PMPI_Type_create_struct (in /usr/local/lib/libmpi.so.12.1.0)
==7091==    by 0x804B588: main (in /home/safrin/Desktop/Test/louvain-bdsc/Test-2/louvain)
==7091== 
==7091== 68 bytes in 1 blocks are definitely lost in loss record 23 of 36
==7091==    at 0x40292D8: malloc (vg_replace_malloc.c:299)
==7091==    by 0x41B0559: MPID_Dataloop_alloc_and_copy (in /usr/local/lib/libmpi.so.12.1.0)
==7091==    by 0x41B0772: MPID_Dataloop_alloc (in /usr/local/lib/libmpi.so.12.1.0)
==7091==    by 0x41B351A: MPID_Dataloop_create_indexed (in /usr/local/lib/libmpi.so.12.1.0)
==7091==    by 0x41B41E8: MPID_Dataloop_create_struct (in /usr/local/lib/libmpi.so.12.1.0)
==7091==    by 0x41B1C8E: MPID_Dataloop_create (in /usr/local/lib/libmpi.so.12.1.0)
==7091==    by 0x41C0614: MPID_Type_commit (in /usr/local/lib/libmpi.so.12.1.0)
==7091==    by 0x40CB2A0: MPIR_Type_commit_impl (in /usr/local/lib/libmpi.so.12.1.0)
==7091==    by 0x40CB505: PMPI_Type_commit (in /usr/local/lib/libmpi.so.12.1.0)
==7091==    by 0x804B590: main (in /home/safrin/Desktop/Test/louvain-bdsc/Test-2/louvain)
==7091== 
==7091== 100 bytes in 6 blocks are definitely lost in loss record 24 of 36
==7091==    at 0x4029F39: operator new[](unsigned int) (vg_replace_malloc.c:417)
==7091==    by 0x805D06E: gather_neighbor_info(Louvain) (in /home/safrin/Desktop/Test/louvain-bdsc/Test-2/louvain)
==7091==    by 0x804A98D: main (in /home/safrin/Desktop/Test/louvain-bdsc/Test-2/louvain)
==7091== 
==7091== 180 bytes in 4 blocks are definitely lost in loss record 25 of 36
==7091==    at 0x4029F39: operator new[](unsigned int) (vg_replace_malloc.c:417)
==7091==    by 0x805C868: gather_neighbor_info(Louvain) (in /home/safrin/Desktop/Test/louvain-bdsc/Test-2/louvain)
==7091==    by 0x804A98D: main (in /home/safrin/Desktop/Test/louvain-bdsc/Test-2/louvain)
==7091== 
==7091== 192 bytes in 1 blocks are definitely lost in loss record 26 of 36
==7091==    at 0x40292D8: malloc (vg_replace_malloc.c:299)
==7091==    by 0x41B07C5: MPID_Dataloop_struct_alloc (in /usr/local/lib/libmpi.so.12.1.0)
==7091==    by 0x41B427B: MPID_Dataloop_create_struct (in /usr/local/lib/libmpi.so.12.1.0)
==7091==    by 0x41B1C8E: MPID_Dataloop_create (in /usr/local/lib/libmpi.so.12.1.0)
==7091==    by 0x41C063B: MPID_Type_commit (in /usr/local/lib/libmpi.so.12.1.0)
==7091==    by 0x40CB2A0: MPIR_Type_commit_impl (in /usr/local/lib/libmpi.so.12.1.0)
==7091==    by 0x40CB505: PMPI_Type_commit (in /usr/local/lib/libmpi.so.12.1.0)
==7091==    by 0x805A578: exchange_updated_community(Louvain) (in /home/safrin/Desktop/Test/louvain-bdsc/Test-2/louvain)
==7091==    by 0x804AA51: main (in /home/safrin/Desktop/Test/louvain-bdsc/Test-2/louvain)
==7091== 
==7091== 192 bytes in 1 blocks are definitely lost in loss record 27 of 36
==7091==    at 0x40292D8: malloc (vg_replace_malloc.c:299)
==7091==    by 0x41B07C5: MPID_Dataloop_struct_alloc (in /usr/local/lib/libmpi.so.12.1.0)
==7091==    by 0x41B427B: MPID_Dataloop_create_struct (in /usr/local/lib/libmpi.so.12.1.0)
==7091==    by 0x41B1C8E: MPID_Dataloop_create (in /usr/local/lib/libmpi.so.12.1.0)
==7091==    by 0x41C063B: MPID_Type_commit (in /usr/local/lib/libmpi.so.12.1.0)
==7091==    by 0x40CB2A0: MPIR_Type_commit_impl (in /usr/local/lib/libmpi.so.12.1.0)
==7091==    by 0x40CB505: PMPI_Type_commit (in /usr/local/lib/libmpi.so.12.1.0)
==7091==    by 0x805A876: exchange_updated_community(Louvain) (in /home/safrin/Desktop/Test/louvain-bdsc/Test-2/louvain)
==7091==    by 0x804AA51: main (in /home/safrin/Desktop/Test/louvain-bdsc/Test-2/louvain)
==7091== 
==7091== 244 bytes in 1 blocks are definitely lost in loss record 30 of 36
==7091==    at 0x40292D8: malloc (vg_replace_malloc.c:299)
==7091==    by 0x41B07C5: MPID_Dataloop_struct_alloc (in /usr/local/lib/libmpi.so.12.1.0)
==7091==    by 0x41B427B: MPID_Dataloop_create_struct (in /usr/local/lib/libmpi.so.12.1.0)
==7091==    by 0x41B1C8E: MPID_Dataloop_create (in /usr/local/lib/libmpi.so.12.1.0)
==7091==    by 0x41C063B: MPID_Type_commit (in /usr/local/lib/libmpi.so.12.1.0)
==7091==    by 0x40CB2A0: MPIR_Type_commit_impl (in /usr/local/lib/libmpi.so.12.1.0)
==7091==    by 0x40CB505: PMPI_Type_commit (in /usr/local/lib/libmpi.so.12.1.0)
==7091==    by 0x805C901: gather_neighbor_info(Louvain) (in /home/safrin/Desktop/Test/louvain-bdsc/Test-2/louvain)
==7091==    by 0x804A98D: main (in /home/safrin/Desktop/Test/louvain-bdsc/Test-2/louvain)
==7091== 
==7091== 244 bytes in 1 blocks are definitely lost in loss record 31 of 36
==7091==    at 0x40292D8: malloc (vg_replace_malloc.c:299)
==7091==    by 0x41B07C5: MPID_Dataloop_struct_alloc (in /usr/local/lib/libmpi.so.12.1.0)
==7091==    by 0x41B427B: MPID_Dataloop_create_struct (in /usr/local/lib/libmpi.so.12.1.0)
==7091==    by 0x41B1C8E: MPID_Dataloop_create (in /usr/local/lib/libmpi.so.12.1.0)
==7091==    by 0x41C063B: MPID_Type_commit (in /usr/local/lib/libmpi.so.12.1.0)
==7091==    by 0x40CB2A0: MPIR_Type_commit_impl (in /usr/local/lib/libmpi.so.12.1.0)
==7091==    by 0x40CB505: PMPI_Type_commit (in /usr/local/lib/libmpi.so.12.1.0)
==7091==    by 0x804B590: main (in /home/safrin/Desktop/Test/louvain-bdsc/Test-2/louvain)
==7091== 
==7091== 300 bytes in 6 blocks are definitely lost in loss record 32 of 36
==7091==    at 0x4029F39: operator new[](unsigned int) (vg_replace_malloc.c:417)
==7091==    by 0x805D091: gather_neighbor_info(Louvain) (in /home/safrin/Desktop/Test/louvain-bdsc/Test-2/louvain)
==7091==    by 0x804A98D: main (in /home/safrin/Desktop/Test/louvain-bdsc/Test-2/louvain)
==7091== 
==7091== 408 bytes in 6 blocks are definitely lost in loss record 33 of 36
==7091==    at 0x40292D8: malloc (vg_replace_malloc.c:299)
==7091==    by 0x41BE897: MPID_Datatype_set_contents (in /usr/local/lib/libmpi.so.12.1.0)
==7091==    by 0x40D0600: MPIR_Type_create_struct_impl (in /usr/local/lib/libmpi.so.12.1.0)
==7091==    by 0x40D0A85: PMPI_Type_create_struct (in /usr/local/lib/libmpi.so.12.1.0)
==7091==    by 0x805D116: gather_neighbor_info(Louvain) (in /home/safrin/Desktop/Test/louvain-bdsc/Test-2/louvain)
==7091==    by 0x804A98D: main (in /home/safrin/Desktop/Test/louvain-bdsc/Test-2/louvain)
==7091== 
==7091== 408 bytes in 6 blocks are definitely lost in loss record 34 of 36
==7091==    at 0x40292D8: malloc (vg_replace_malloc.c:299)
==7091==    by 0x41B0559: MPID_Dataloop_alloc_and_copy (in /usr/local/lib/libmpi.so.12.1.0)
==7091==    by 0x41B0772: MPID_Dataloop_alloc (in /usr/local/lib/libmpi.so.12.1.0)
==7091==    by 0x41B351A: MPID_Dataloop_create_indexed (in /usr/local/lib/libmpi.so.12.1.0)
==7091==    by 0x41B41E8: MPID_Dataloop_create_struct (in /usr/local/lib/libmpi.so.12.1.0)
==7091==    by 0x41B1C8E: MPID_Dataloop_create (in /usr/local/lib/libmpi.so.12.1.0)
==7091==    by 0x41C0614: MPID_Type_commit (in /usr/local/lib/libmpi.so.12.1.0)
==7091==    by 0x40CB2A0: MPIR_Type_commit_impl (in /usr/local/lib/libmpi.so.12.1.0)
==7091==    by 0x40CB505: PMPI_Type_commit (in /usr/local/lib/libmpi.so.12.1.0)
==7091==    by 0x805D124: gather_neighbor_info(Louvain) (in /home/safrin/Desktop/Test/louvain-bdsc/Test-2/louvain)
==7091==    by 0x804A98D: main (in /home/safrin/Desktop/Test/louvain-bdsc/Test-2/louvain)
==7091== 
==7091== 1,464 bytes in 6 blocks are definitely lost in loss record 36 of 36
==7091==    at 0x40292D8: malloc (vg_replace_malloc.c:299)
==7091==    by 0x41B07C5: MPID_Dataloop_struct_alloc (in /usr/local/lib/libmpi.so.12.1.0)
==7091==    by 0x41B427B: MPID_Dataloop_create_struct (in /usr/local/lib/libmpi.so.12.1.0)
==7091==    by 0x41B1C8E: MPID_Dataloop_create (in /usr/local/lib/libmpi.so.12.1.0)
==7091==    by 0x41C063B: MPID_Type_commit (in /usr/local/lib/libmpi.so.12.1.0)
==7091==    by 0x40CB2A0: MPIR_Type_commit_impl (in /usr/local/lib/libmpi.so.12.1.0)
==7091==    by 0x40CB505: PMPI_Type_commit (in /usr/local/lib/libmpi.so.12.1.0)
==7091==    by 0x805D124: gather_neighbor_info(Louvain) (in /home/safrin/Desktop/Test/louvain-bdsc/Test-2/louvain)
==7091==    by 0x804A98D: main (in /home/safrin/Desktop/Test/louvain-bdsc/Test-2/louvain)
==7091== 
==7091== LEAK SUMMARY:
==7091==    definitely lost: 4,621 bytes in 63 blocks
==7091==    indirectly lost: 0 bytes in 0 blocks
==7091==      possibly lost: 0 bytes in 0 blocks
==7091==    still reachable: 1,178 bytes in 10 blocks
==7091==         suppressed: 0 bytes in 0 blocks
==7091== Reachable blocks (those to which a pointer was found) are not shown.
==7091== To see them, rerun with: --leak-check=full --show-leak-kinds=all
==7091== 
==7091== For counts of detected and suppressed errors, rerun with: -v
==7091== Use --track-origins=yes to see where uninitialised values come from
==7091== ERROR SUMMARY: 45 errors from 37 contexts (suppressed: 0 from 0)
