==31002== Memcheck, a memory error detector
==31002== Copyright (C) 2002-2017, and GNU GPL'd, by Julian Seward et al.
==31002== Using Valgrind-3.13.0 and LibVEX; rerun with -h for copyright info
==31002== Command: ./louvain ./sample/Output/gt-l0 -l -1 -i ./sample/input/gt-l1.txt -g ./sample/Output/full/gt-l1.bin -x ./sample/Output/full/gt-lw1.bin -f ./sample/Output/full/gt-l0.bin -u ./sample/Output/gt-l-n2c.txt -q id_qual
==31002== Parent PID: 30998
==31002== 
--31002-- 
--31002-- Valgrind options:
--31002--    --leak-check=full
--31002--    --show-leak-kinds=all
--31002--    --track-origins=yes
--31002--    --show-reachable=yes
--31002--    -v
--31002--    --dsymutil=yes
--31002--    --log-file=./Log/l-0-nc.vg.%p
--31002-- Contents of /proc/version:
--31002--   Linux version 4.4.0-116-generic (buildd@lgw01-amd64-042) (gcc version 4.8.4 (Ubuntu 4.8.4-2ubuntu1~14.04.4) ) #140~14.04.1-Ubuntu SMP Fri Feb 16 09:25:49 UTC 2018
--31002-- 
--31002-- Arch and hwcaps: X86, LittleEndian, x86-mmxext-sse1-sse2-sse3-lzcnt
--31002-- Page sizes: currently 4096, max supported 4096
--31002-- Valgrind library directory: /home/safrin/programs/valgrind-install/lib/valgrind
--31002-- Reading syms from /lib/i386-linux-gnu/ld-2.19.so
--31002--   Considering /lib/i386-linux-gnu/ld-2.19.so ..
--31002--   .. CRC mismatch (computed f920290a wanted 863ea278)
--31002--   Considering /usr/lib/debug/lib/i386-linux-gnu/ld-2.19.so ..
--31002--   .. CRC is valid
--31002-- Reading syms from /home/safrin/Desktop/Test/louvain-bdsc/Test-2/louvain
--31002-- Reading syms from /home/safrin/programs/valgrind-install/lib/valgrind/memcheck-x86-linux
--31002--    object doesn't have a dynamic symbol table
--31002-- Scheduler: using generic scheduler lock implementation.
--31002-- Reading suppressions file: /home/safrin/programs/valgrind-install/lib/valgrind/default.supp
==31002== embedded gdbserver: reading from /tmp/vgdb-pipe-from-vgdb-to-31002-by-safrin-on-???
==31002== embedded gdbserver: writing to   /tmp/vgdb-pipe-to-vgdb-from-31002-by-safrin-on-???
==31002== embedded gdbserver: shared mem   /tmp/vgdb-pipe-shared-mem-vgdb-31002-by-safrin-on-???
==31002== 
==31002== TO CONTROL THIS PROCESS USING vgdb (which you probably
==31002== don't want to do, unless you know exactly what you're doing,
==31002== or are doing some strange experiment):
==31002==   /home/safrin/programs/valgrind-install/lib/valgrind/../../bin/vgdb --pid=31002 ...command...
==31002== 
==31002== TO DEBUG THIS PROCESS USING GDB: start GDB like this
==31002==   /path/to/gdb ./louvain
==31002== and then give GDB the following command
==31002==   target remote | /home/safrin/programs/valgrind-install/lib/valgrind/../../bin/vgdb --pid=31002
==31002== --pid is optional if only one valgrind process is running
==31002== 
--31002-- REDIR: 0x40180a0 (ld-linux.so.2:strlen) redirected to 0x58060452 (vgPlain_x86_linux_REDIR_FOR_strlen)
--31002-- REDIR: 0x4017eb0 (ld-linux.so.2:index) redirected to 0x5806042d (vgPlain_x86_linux_REDIR_FOR_index)
--31002-- Reading syms from /home/safrin/programs/valgrind-install/lib/valgrind/vgpreload_core-x86-linux.so
--31002-- Reading syms from /home/safrin/programs/valgrind-install/lib/valgrind/vgpreload_memcheck-x86-linux.so
==31002== WARNING: new redirection conflicts with existing -- ignoring it
--31002--     old: 0x040180a0 (strlen              ) R-> (0000.0) 0x58060452 vgPlain_x86_linux_REDIR_FOR_strlen
--31002--     new: 0x040180a0 (strlen              ) R-> (2007.0) 0x0402bff0 strlen
--31002-- Reading syms from /usr/local/lib/libmpi.so.12.1.0
--31002-- Reading syms from /usr/lib/i386-linux-gnu/libstdc++.so.6.0.19
--31002--   Considering /usr/lib/i386-linux-gnu/libstdc++.so.6.0.19 ..
--31002--   .. CRC mismatch (computed 895036ef wanted 8bfeb94d)
--31002--    object doesn't have a symbol table
--31002-- Reading syms from /lib/i386-linux-gnu/libgcc_s.so.1
--31002--   Considering /lib/i386-linux-gnu/libgcc_s.so.1 ..
--31002--   .. CRC mismatch (computed 002a6602 wanted 8322ad7d)
--31002--    object doesn't have a symbol table
--31002-- Reading syms from /lib/i386-linux-gnu/libc-2.19.so
--31002--   Considering /lib/i386-linux-gnu/libc-2.19.so ..
--31002--   .. CRC mismatch (computed 01b4966f wanted 035f12ef)
--31002--   Considering /usr/lib/debug/lib/i386-linux-gnu/libc-2.19.so ..
--31002--   .. CRC is valid
--31002-- Reading syms from /lib/i386-linux-gnu/librt-2.19.so
--31002--   Considering /lib/i386-linux-gnu/librt-2.19.so ..
--31002--   .. CRC mismatch (computed 756c3096 wanted 57be6945)
--31002--   Considering /usr/lib/debug/lib/i386-linux-gnu/librt-2.19.so ..
--31002--   .. CRC is valid
--31002-- Reading syms from /lib/i386-linux-gnu/libpthread-2.19.so
--31002--   Considering /lib/i386-linux-gnu/libpthread-2.19.so ..
--31002--   .. CRC mismatch (computed ec231574 wanted af8e32bd)
--31002--   Considering /usr/lib/debug/lib/i386-linux-gnu/libpthread-2.19.so ..
--31002--   .. CRC is valid
--31002-- Reading syms from /lib/i386-linux-gnu/libm-2.19.so
--31002--   Considering /lib/i386-linux-gnu/libm-2.19.so ..
--31002--   .. CRC mismatch (computed 9f94914f wanted 4929b954)
--31002--   Considering /usr/lib/debug/lib/i386-linux-gnu/libm-2.19.so ..
--31002--   .. CRC is valid
--31002-- REDIR: 0x444e090 (libc.so.6:strnlen) redirected to 0x40235db (_vgnU_ifunc_wrapper)
--31002-- REDIR: 0x4450040 (libc.so.6:strncasecmp) redirected to 0x40235db (_vgnU_ifunc_wrapper)
--31002-- REDIR: 0x4457250 (libc.so.6:memrchr) redirected to 0x40235db (_vgnU_ifunc_wrapper)
--31002-- REDIR: 0x446a290 (libc.so.6:wcslen) redirected to 0x40235db (_vgnU_ifunc_wrapper)
--31002-- REDIR: 0x444ee10 (libc.so.6:strstr) redirected to 0x4030530 (strstr)
--31002-- REDIR: 0x444e240 (libc.so.6:__GI_strrchr) redirected to 0x402b9c0 (__GI_strrchr)
--31002-- REDIR: 0x444dfd0 (libc.so.6:__GI_strlen) redirected to 0x402bf70 (__GI_strlen)
--31002-- REDIR: 0x444f770 (libc.so.6:__GI_memcmp) redirected to 0x402eb50 (__GI_memcmp)
--31002-- REDIR: 0x444d830 (libc.so.6:strcmp) redirected to 0x40235db (_vgnU_ifunc_wrapper)
--31002-- REDIR: 0x450edf0 (libc.so.6:__strcmp_ssse3) redirected to 0x402d120 (strcmp)
--31002-- REDIR: 0x4449980 (libc.so.6:malloc) redirected to 0x402924f (malloc)
--31002-- REDIR: 0x4449fe0 (libc.so.6:realloc) redirected to 0x402b076 (realloc)
--31002-- REDIR: 0x444fb10 (libc.so.6:memset) redirected to 0x40235db (_vgnU_ifunc_wrapper)
--31002-- REDIR: 0x4501700 (libc.so.6:__memset_sse2) redirected to 0x402f570 (memset)
--31002-- REDIR: 0x4450200 (libc.so.6:__GI_memcpy) redirected to 0x402dc00 (__GI_memcpy)
--31002-- REDIR: 0x444df80 (libc.so.6:strlen) redirected to 0x40235db (_vgnU_ifunc_wrapper)
--31002-- REDIR: 0x44579b0 (libc.so.6:__strlen_sse2_bsf) redirected to 0x402bf50 (strlen)
--31002-- REDIR: 0x444f720 (libc.so.6:bcmp) redirected to 0x40235db (_vgnU_ifunc_wrapper)
--31002-- REDIR: 0x4519050 (libc.so.6:__memcmp_ssse3) redirected to 0x402ed30 (bcmp)
--31002-- REDIR: 0x44501a0 (libc.so.6:memcpy) redirected to 0x40235db (_vgnU_ifunc_wrapper)
--31002-- REDIR: 0x4502810 (libc.so.6:__memcpy_ssse3) redirected to 0x402d910 (memcpy)
--31002-- REDIR: 0x44578b0 (libc.so.6:__GI_strncmp) redirected to 0x402c7d0 (__GI_strncmp)
--31002-- REDIR: 0x444d900 (libc.so.6:strcpy) redirected to 0x40235db (_vgnU_ifunc_wrapper)
--31002-- REDIR: 0x4457b70 (libc.so.6:__strcpy_ssse3) redirected to 0x402c030 (strcpy)
--31002-- REDIR: 0x4449f30 (libc.so.6:free) redirected to 0x402a2c4 (free)
--31002-- REDIR: 0x4451f80 (libc.so.6:strchrnul) redirected to 0x402fe30 (strchrnul)
--31002-- REDIR: 0x444fc20 (libc.so.6:__GI_mempcpy) redirected to 0x4030070 (__GI_mempcpy)
--31002-- REDIR: 0x444e130 (libc.so.6:strncmp) redirected to 0x40235db (_vgnU_ifunc_wrapper)
--31002-- REDIR: 0x4510260 (libc.so.6:__strncmp_ssse3) redirected to 0x402c730 (strncmp)
--31002-- REDIR: 0x444f580 (libc.so.6:__GI_memchr) redirected to 0x402d340 (__GI_memchr)
--31002-- REDIR: 0x4457a80 (libc.so.6:__GI_strncpy) redirected to 0x402c340 (__GI_strncpy)
--31002-- REDIR: 0x444d670 (libc.so.6:__GI_strchr) redirected to 0x402baf0 (__GI_strchr)
--31002-- REDIR: 0x4514160 (libc.so.6:__strncasecmp_ssse3) redirected to 0x402cad0 (strncasecmp)
--31002-- REDIR: 0x444d890 (libc.so.6:__GI_strcmp) redirected to 0x402d170 (__GI_strcmp)
--31002-- REDIR: 0x444fe50 (libc.so.6:__GI_stpcpy) redirected to 0x402ef60 (__GI_stpcpy)
--31002-- REDIR: 0x444a2a0 (libc.so.6:calloc) redirected to 0x402aeae (calloc)
--31002-- Reading syms from /lib/i386-linux-gnu/libnss_files-2.19.so
--31002--   Considering /lib/i386-linux-gnu/libnss_files-2.19.so ..
--31002--   .. CRC mismatch (computed 055d7741 wanted d76337e8)
--31002--   Considering /usr/lib/debug/lib/i386-linux-gnu/libnss_files-2.19.so ..
--31002--   .. CRC is valid
--31002-- REDIR: 0x444d960 (libc.so.6:__GI_strcpy) redirected to 0x402c110 (__GI_strcpy)
--31002-- REDIR: 0x4451e60 (libc.so.6:rawmemchr) redirected to 0x40235db (_vgnU_ifunc_wrapper)
--31002-- REDIR: 0x4469580 (libc.so.6:__rawmemchr_sse2_bsf) redirected to 0x402fe60 (rawmemchr)
--31002-- REDIR: 0x444ffe0 (libc.so.6:strcasecmp) redirected to 0x40235db (_vgnU_ifunc_wrapper)
--31002-- REDIR: 0x4511c50 (libc.so.6:__strcasecmp_ssse3) redirected to 0x402c9b0 (strcasecmp)
--31002-- REDIR: 0x44cf190 (libc.so.6:__memcpy_chk) redirected to 0x40235db (_vgnU_ifunc_wrapper)
--31002-- REDIR: 0x4502800 (libc.so.6:__memcpy_chk_ssse3) redirected to 0x4030430 (__memcpy_chk)
--31002-- REDIR: 0x444d620 (libc.so.6:index) redirected to 0x40235db (_vgnU_ifunc_wrapper)
--31002-- REDIR: 0x4468aa0 (libc.so.6:__strchr_sse2_bsf) redirected to 0x402bbb0 (index)
--31002-- REDIR: 0x444e190 (libc.so.6:strncpy) redirected to 0x40235db (_vgnU_ifunc_wrapper)
--31002-- REDIR: 0x44593c0 (libc.so.6:__strncpy_ssse3) redirected to 0x402c1f0 (strncpy)
--31002-- REDIR: 0x4317890 (libstdc++.so.6:operator new(unsigned int)) redirected to 0x402983c (operator new(unsigned int))
--31002-- REDIR: 0x4315810 (libstdc++.so.6:operator delete(void*)) redirected to 0x402a734 (operator delete(void*))
--31002-- REDIR: 0x43179b0 (libstdc++.so.6:operator new[](unsigned int)) redirected to 0x4029eb0 (operator new[](unsigned int))
--31002-- REDIR: 0x4315860 (libstdc++.so.6:operator delete[](void*)) redirected to 0x402aba4 (operator delete[](void*))
--31002-- REDIR: 0x444fa50 (libc.so.6:memmove) redirected to 0x40235db (_vgnU_ifunc_wrapper)
--31002-- REDIR: 0x45067f0 (libc.so.6:__memmove_ssse3) redirected to 0x402f640 (memmove)
--31002-- Discarding syms at 0x6d75ad0-0x6d7b9ab in /lib/i386-linux-gnu/libnss_files-2.19.so due to munmap()
==31002== 
==31002== HEAP SUMMARY:
==31002==     in use at exit: 514,761 bytes in 1,627 blocks
==31002==   total heap usage: 27,584 allocs, 25,957 frees, 99,738,697 bytes allocated
==31002== 
==31002== Searching for pointers to 1,627 not-freed blocks
==31002== Checked 311,728 bytes
==31002== 
==31002== 28 bytes in 1 blocks are definitely lost in loss record 1 of 22
==31002==    at 0x4029F39: operator new[](unsigned int) (vg_replace_malloc.c:417)
==31002==    by 0x804A804: main (in /home/safrin/Desktop/Test/louvain-bdsc/Test-2/louvain)
==31002== 
==31002== 33 bytes in 1 blocks are still reachable in loss record 2 of 22
==31002==    at 0x4029F39: operator new[](unsigned int) (vg_replace_malloc.c:417)
==31002==    by 0x804A832: main (in /home/safrin/Desktop/Test/louvain-bdsc/Test-2/louvain)
==31002== 
==31002== 44 bytes in 3 blocks are definitely lost in loss record 3 of 22
==31002==    at 0x4029F39: operator new[](unsigned int) (vg_replace_malloc.c:417)
==31002==    by 0x805B2FF: exchange_duality_resolved_community(Louvain) (in /home/safrin/Desktop/Test/louvain-bdsc/Test-2/louvain)
==31002==    by 0x804AB44: main (in /home/safrin/Desktop/Test/louvain-bdsc/Test-2/louvain)
==31002== 
==31002== 44 bytes in 3 blocks are definitely lost in loss record 4 of 22
==31002==    at 0x4029F39: operator new[](unsigned int) (vg_replace_malloc.c:417)
==31002==    by 0x805B318: exchange_duality_resolved_community(Louvain) (in /home/safrin/Desktop/Test/louvain-bdsc/Test-2/louvain)
==31002==    by 0x804AB44: main (in /home/safrin/Desktop/Test/louvain-bdsc/Test-2/louvain)
==31002== 
==31002== 132 bytes in 1 blocks are definitely lost in loss record 5 of 22
==31002==    at 0x4029F39: operator new[](unsigned int) (vg_replace_malloc.c:417)
==31002==    by 0x804B4D6: main (in /home/safrin/Desktop/Test/louvain-bdsc/Test-2/louvain)
==31002== 
==31002== 220 bytes in 4 blocks are definitely lost in loss record 6 of 22
==31002==    at 0x4029F39: operator new[](unsigned int) (vg_replace_malloc.c:417)
==31002==    by 0x805B535: exchange_duality_resolved_community(Louvain) (in /home/safrin/Desktop/Test/louvain-bdsc/Test-2/louvain)
==31002==    by 0x804AB44: main (in /home/safrin/Desktop/Test/louvain-bdsc/Test-2/louvain)
==31002== 
==31002== 220 bytes in 4 blocks are definitely lost in loss record 7 of 22
==31002==    at 0x4029F39: operator new[](unsigned int) (vg_replace_malloc.c:417)
==31002==    by 0x805B555: exchange_duality_resolved_community(Louvain) (in /home/safrin/Desktop/Test/louvain-bdsc/Test-2/louvain)
==31002==    by 0x804AB44: main (in /home/safrin/Desktop/Test/louvain-bdsc/Test-2/louvain)
==31002== 
==31002== 352 bytes in 7 blocks are definitely lost in loss record 8 of 22
==31002==    at 0x4029F39: operator new[](unsigned int) (vg_replace_malloc.c:417)
==31002==    by 0x805A0F0: exchange_updated_community(Louvain) (in /home/safrin/Desktop/Test/louvain-bdsc/Test-2/louvain)
==31002==    by 0x804AA71: main (in /home/safrin/Desktop/Test/louvain-bdsc/Test-2/louvain)
==31002== 
==31002== 352 bytes in 7 blocks are definitely lost in loss record 9 of 22
==31002==    at 0x4029F39: operator new[](unsigned int) (vg_replace_malloc.c:417)
==31002==    by 0x805A11B: exchange_updated_community(Louvain) (in /home/safrin/Desktop/Test/louvain-bdsc/Test-2/louvain)
==31002==    by 0x804AA71: main (in /home/safrin/Desktop/Test/louvain-bdsc/Test-2/louvain)
==31002== 
==31002== 456 bytes in 1 blocks are indirectly lost in loss record 10 of 22
==31002==    at 0x4029F39: operator new[](unsigned int) (vg_replace_malloc.c:417)
==31002==    by 0x805CDD1: gather_neighbor_info(Louvain) (in /home/safrin/Desktop/Test/louvain-bdsc/Test-2/louvain)
==31002==    by 0x804A9AD: main (in /home/safrin/Desktop/Test/louvain-bdsc/Test-2/louvain)
==31002== 
==31002== 456 bytes in 7 blocks are definitely lost in loss record 11 of 22
==31002==    at 0x4029F39: operator new[](unsigned int) (vg_replace_malloc.c:417)
==31002==    by 0x805A48B: exchange_updated_community(Louvain) (in /home/safrin/Desktop/Test/louvain-bdsc/Test-2/louvain)
==31002==    by 0x804AA71: main (in /home/safrin/Desktop/Test/louvain-bdsc/Test-2/louvain)
==31002== 
==31002== 456 bytes in 7 blocks are definitely lost in loss record 12 of 22
==31002==    at 0x4029F39: operator new[](unsigned int) (vg_replace_malloc.c:417)
==31002==    by 0x805A4B6: exchange_updated_community(Louvain) (in /home/safrin/Desktop/Test/louvain-bdsc/Test-2/louvain)
==31002==    by 0x804AA71: main (in /home/safrin/Desktop/Test/louvain-bdsc/Test-2/louvain)
==31002== 
==31002== 1,056 bytes in 7 blocks are definitely lost in loss record 13 of 22
==31002==    at 0x4029F39: operator new[](unsigned int) (vg_replace_malloc.c:417)
==31002==    by 0x805A143: exchange_updated_community(Louvain) (in /home/safrin/Desktop/Test/louvain-bdsc/Test-2/louvain)
==31002==    by 0x804AA71: main (in /home/safrin/Desktop/Test/louvain-bdsc/Test-2/louvain)
==31002== 
==31002== 1,056 bytes in 7 blocks are definitely lost in loss record 14 of 22
==31002==    at 0x4029F39: operator new[](unsigned int) (vg_replace_malloc.c:417)
==31002==    by 0x805A16B: exchange_updated_community(Louvain) (in /home/safrin/Desktop/Test/louvain-bdsc/Test-2/louvain)
==31002==    by 0x804AA71: main (in /home/safrin/Desktop/Test/louvain-bdsc/Test-2/louvain)
==31002== 
==31002== 1,056 bytes in 7 blocks are definitely lost in loss record 15 of 22
==31002==    at 0x4029F39: operator new[](unsigned int) (vg_replace_malloc.c:417)
==31002==    by 0x805A193: exchange_updated_community(Louvain) (in /home/safrin/Desktop/Test/louvain-bdsc/Test-2/louvain)
==31002==    by 0x804AA71: main (in /home/safrin/Desktop/Test/louvain-bdsc/Test-2/louvain)
==31002== 
==31002== 1,368 bytes in 7 blocks are definitely lost in loss record 16 of 22
==31002==    at 0x4029F39: operator new[](unsigned int) (vg_replace_malloc.c:417)
==31002==    by 0x805A4DE: exchange_updated_community(Louvain) (in /home/safrin/Desktop/Test/louvain-bdsc/Test-2/louvain)
==31002==    by 0x804AA71: main (in /home/safrin/Desktop/Test/louvain-bdsc/Test-2/louvain)
==31002== 
==31002== 1,368 bytes in 7 blocks are definitely lost in loss record 17 of 22
==31002==    at 0x4029F39: operator new[](unsigned int) (vg_replace_malloc.c:417)
==31002==    by 0x805A506: exchange_updated_community(Louvain) (in /home/safrin/Desktop/Test/louvain-bdsc/Test-2/louvain)
==31002==    by 0x804AA71: main (in /home/safrin/Desktop/Test/louvain-bdsc/Test-2/louvain)
==31002== 
==31002== 1,368 bytes in 7 blocks are definitely lost in loss record 18 of 22
==31002==    at 0x4029F39: operator new[](unsigned int) (vg_replace_malloc.c:417)
==31002==    by 0x805A52E: exchange_updated_community(Louvain) (in /home/safrin/Desktop/Test/louvain-bdsc/Test-2/louvain)
==31002==    by 0x804AA71: main (in /home/safrin/Desktop/Test/louvain-bdsc/Test-2/louvain)
==31002== 
==31002== 19,876 bytes in 126 blocks are definitely lost in loss record 19 of 22
==31002==    at 0x4029F39: operator new[](unsigned int) (vg_replace_malloc.c:417)
==31002==    by 0x805C572: gather_neighbor_info(Louvain) (in /home/safrin/Desktop/Test/louvain-bdsc/Test-2/louvain)
==31002==    by 0x804A9AD: main (in /home/safrin/Desktop/Test/louvain-bdsc/Test-2/louvain)
==31002== 
==31002== 59,628 bytes in 126 blocks are definitely lost in loss record 20 of 22
==31002==    at 0x4029F39: operator new[](unsigned int) (vg_replace_malloc.c:417)
==31002==    by 0x805C598: gather_neighbor_info(Louvain) (in /home/safrin/Desktop/Test/louvain-bdsc/Test-2/louvain)
==31002==    by 0x804A9AD: main (in /home/safrin/Desktop/Test/louvain-bdsc/Test-2/louvain)
==31002== 
==31002== 106,412 bytes in 644 blocks are definitely lost in loss record 21 of 22
==31002==    at 0x4029F39: operator new[](unsigned int) (vg_replace_malloc.c:417)
==31002==    by 0x805CDAE: gather_neighbor_info(Louvain) (in /home/safrin/Desktop/Test/louvain-bdsc/Test-2/louvain)
==31002==    by 0x804A9AD: main (in /home/safrin/Desktop/Test/louvain-bdsc/Test-2/louvain)
==31002== 
==31002== 319,236 (318,780 direct, 456 indirect) bytes in 643 blocks are definitely lost in loss record 22 of 22
==31002==    at 0x4029F39: operator new[](unsigned int) (vg_replace_malloc.c:417)
==31002==    by 0x805CDD1: gather_neighbor_info(Louvain) (in /home/safrin/Desktop/Test/louvain-bdsc/Test-2/louvain)
==31002==    by 0x804A9AD: main (in /home/safrin/Desktop/Test/louvain-bdsc/Test-2/louvain)
==31002== 
==31002== LEAK SUMMARY:
==31002==    definitely lost: 514,272 bytes in 1,625 blocks
==31002==    indirectly lost: 456 bytes in 1 blocks
==31002==      possibly lost: 0 bytes in 0 blocks
==31002==    still reachable: 33 bytes in 1 blocks
==31002==         suppressed: 0 bytes in 0 blocks
==31002== 
==31002== ERROR SUMMARY: 20 errors from 20 contexts (suppressed: 0 from 0)
==31002== ERROR SUMMARY: 20 errors from 20 contexts (suppressed: 0 from 0)
