==6626== Memcheck, a memory error detector
==6626== Copyright (C) 2002-2017, and GNU GPL'd, by Julian Seward et al.
==6626== Using Valgrind-3.13.0 and LibVEX; rerun with -h for copyright info
==6626== Command: ./louvain ./sample/Output/example-l1 -w ./sample/Output/example-lw1 -l -1 -i ./sample/input/example-l2.txt -g ./sample/Output/full/example-l2.bin -x ./sample/Output/full/example-lw2.bin -f ./sample/Output/full/example-l1.bin -o ./sample/Output/full/example-lw1.bin -u ./sample/Output/example-l-n2c.txt -q id_qual
==6626== Parent PID: 6622
==6626== 
==6626== Invalid read of size 4
==6626==    at 0x805AB2D: exchange_updated_community(Louvain) (in /home/safrin/Desktop/Test/louvain-bdsc/Test-2/louvain)
==6626==    by 0x804AA51: main (in /home/safrin/Desktop/Test/louvain-bdsc/Test-2/louvain)
==6626==  Address 0x48b8190 is 16 bytes after a block of size 8 alloc'd
==6626==    at 0x40298C5: operator new(unsigned int) (vg_replace_malloc.c:328)
==6626==    by 0x8050C96: std::vector<unsigned long long, std::allocator<unsigned long long> >::_M_fill_insert(__gnu_cxx::__normal_iterator<unsigned long long*, std::vector<unsigned long long, std::allocator<unsigned long long> > >, unsigned int, unsigned long long const&) (in /home/safrin/Desktop/Test/louvain-bdsc/Test-2/louvain)
==6626==    by 0x804F19F: Graph::Graph(int, char*, char*, int) (in /home/safrin/Desktop/Test/louvain-bdsc/Test-2/louvain)
==6626==    by 0x804A87E: main (in /home/safrin/Desktop/Test/louvain-bdsc/Test-2/louvain)
==6626== 
==6626== Invalid read of size 4
==6626==    at 0x805AB34: exchange_updated_community(Louvain) (in /home/safrin/Desktop/Test/louvain-bdsc/Test-2/louvain)
==6626==    by 0x804AA51: main (in /home/safrin/Desktop/Test/louvain-bdsc/Test-2/louvain)
==6626==  Address 0x48b8198 is 24 bytes before a block of size 16 in arena "client"
==6626== 
==6626== Invalid read of size 4
==6626==    at 0x805AB5C: exchange_updated_community(Louvain) (in /home/safrin/Desktop/Test/louvain-bdsc/Test-2/louvain)
==6626==    by 0x804AA51: main (in /home/safrin/Desktop/Test/louvain-bdsc/Test-2/louvain)
==6626==  Address 0x48ba3d4 is 0 bytes after a block of size 36 alloc'd
==6626==    at 0x40298C5: operator new(unsigned int) (vg_replace_malloc.c:328)
==6626==    by 0x804F2AE: Graph::Graph(int, char*, char*, int) (in /home/safrin/Desktop/Test/louvain-bdsc/Test-2/louvain)
==6626==    by 0x804A87E: main (in /home/safrin/Desktop/Test/louvain-bdsc/Test-2/louvain)
==6626== 
==6626== Invalid read of size 2
==6626==    at 0x805AB5C: exchange_updated_community(Louvain) (in /home/safrin/Desktop/Test/louvain-bdsc/Test-2/louvain)
==6626==    by 0x804AA51: main (in /home/safrin/Desktop/Test/louvain-bdsc/Test-2/louvain)
==6626==  Address 0x48ba3dc is 8 bytes after a block of size 36 alloc'd
==6626==    at 0x40298C5: operator new(unsigned int) (vg_replace_malloc.c:328)
==6626==    by 0x804F2AE: Graph::Graph(int, char*, char*, int) (in /home/safrin/Desktop/Test/louvain-bdsc/Test-2/louvain)
==6626==    by 0x804A87E: main (in /home/safrin/Desktop/Test/louvain-bdsc/Test-2/louvain)
==6626== 
==6626== Invalid read of size 4
==6626==    at 0x805AB50: exchange_updated_community(Louvain) (in /home/safrin/Desktop/Test/louvain-bdsc/Test-2/louvain)
==6626==    by 0x804AA51: main (in /home/safrin/Desktop/Test/louvain-bdsc/Test-2/louvain)
==6626==  Address 0x48ba3e0 is 12 bytes after a block of size 36 alloc'd
==6626==    at 0x40298C5: operator new(unsigned int) (vg_replace_malloc.c:328)
==6626==    by 0x804F2AE: Graph::Graph(int, char*, char*, int) (in /home/safrin/Desktop/Test/louvain-bdsc/Test-2/louvain)
==6626==    by 0x804A87E: main (in /home/safrin/Desktop/Test/louvain-bdsc/Test-2/louvain)
==6626== 
==6626== Invalid read of size 2
==6626==    at 0x805AB50: exchange_updated_community(Louvain) (in /home/safrin/Desktop/Test/louvain-bdsc/Test-2/louvain)
==6626==    by 0x804AA51: main (in /home/safrin/Desktop/Test/louvain-bdsc/Test-2/louvain)
==6626==  Address 0x48ba3e8 is 16 bytes after a block of size 40 in arena "client"
==6626== 
==6626== Invalid read of size 4
==6626==    at 0x805AB72: exchange_updated_community(Louvain) (in /home/safrin/Desktop/Test/louvain-bdsc/Test-2/louvain)
==6626==    by 0x804AA51: main (in /home/safrin/Desktop/Test/louvain-bdsc/Test-2/louvain)
==6626==  Address 0x48b8190 is 16 bytes after a block of size 8 alloc'd
==6626==    at 0x40298C5: operator new(unsigned int) (vg_replace_malloc.c:328)
==6626==    by 0x8050C96: std::vector<unsigned long long, std::allocator<unsigned long long> >::_M_fill_insert(__gnu_cxx::__normal_iterator<unsigned long long*, std::vector<unsigned long long, std::allocator<unsigned long long> > >, unsigned int, unsigned long long const&) (in /home/safrin/Desktop/Test/louvain-bdsc/Test-2/louvain)
==6626==    by 0x804F19F: Graph::Graph(int, char*, char*, int) (in /home/safrin/Desktop/Test/louvain-bdsc/Test-2/louvain)
==6626==    by 0x804A87E: main (in /home/safrin/Desktop/Test/louvain-bdsc/Test-2/louvain)
==6626== 
==6626== Invalid read of size 4
==6626==    at 0x805AB8D: exchange_updated_community(Louvain) (in /home/safrin/Desktop/Test/louvain-bdsc/Test-2/louvain)
==6626==    by 0x804AA51: main (in /home/safrin/Desktop/Test/louvain-bdsc/Test-2/louvain)
==6626==  Address 0x48b8198 is 24 bytes before a block of size 16 in arena "client"
==6626== 
==6626== Invalid read of size 4
==6626==    at 0x805ABB3: exchange_updated_community(Louvain) (in /home/safrin/Desktop/Test/louvain-bdsc/Test-2/louvain)
==6626==    by 0x804AA51: main (in /home/safrin/Desktop/Test/louvain-bdsc/Test-2/louvain)
==6626==  Address 0x48bcf9c is 0 bytes after a block of size 4 alloc'd
==6626==    at 0x4029F39: operator new[](unsigned int) (vg_replace_malloc.c:417)
==6626==    by 0x805A470: exchange_updated_community(Louvain) (in /home/safrin/Desktop/Test/louvain-bdsc/Test-2/louvain)
==6626==    by 0x804AA51: main (in /home/safrin/Desktop/Test/louvain-bdsc/Test-2/louvain)
==6626== 
==6626== Conditional jump or move depends on uninitialised value(s)
==6626==    at 0x441BBD4: __printf_fp (printf_fp.c:355)
==6626==    by 0x441727E: vfprintf (vfprintf.c:1660)
==6626==    by 0x443AFA2: vsnprintf (vsnprintf.c:119)
==6626==    by 0x433EED4: ??? (in /usr/lib/i386-linux-gnu/libstdc++.so.6.0.19)
==6626==    by 0x4346A99: std::ostreambuf_iterator<char, std::char_traits<char> > std::num_put<char, std::ostreambuf_iterator<char, std::char_traits<char> > >::_M_insert_float<long double>(std::ostreambuf_iterator<char, std::char_traits<char> >, std::ios_base&, char, char, long double) const (in /usr/lib/i386-linux-gnu/libstdc++.so.6.0.19)
==6626==    by 0x4346DC0: std::num_put<char, std::ostreambuf_iterator<char, std::char_traits<char> > >::do_put(std::ostreambuf_iterator<char, std::char_traits<char> >, std::ios_base&, char, long double) const (in /usr/lib/i386-linux-gnu/libstdc++.so.6.0.19)
==6626==    by 0x43524A0: std::ostream& std::ostream::_M_insert<long double>(long double) (in /usr/lib/i386-linux-gnu/libstdc++.so.6.0.19)
==6626==    by 0x805AC45: exchange_updated_community(Louvain) (in /home/safrin/Desktop/Test/louvain-bdsc/Test-2/louvain)
==6626==    by 0x804AA51: main (in /home/safrin/Desktop/Test/louvain-bdsc/Test-2/louvain)
==6626== 
==6626== Conditional jump or move depends on uninitialised value(s)
==6626==    at 0x441BC3F: __printf_fp (printf_fp.c:443)
==6626==    by 0x441727E: vfprintf (vfprintf.c:1660)
==6626==    by 0x443AFA2: vsnprintf (vsnprintf.c:119)
==6626==    by 0x433EED4: ??? (in /usr/lib/i386-linux-gnu/libstdc++.so.6.0.19)
==6626==    by 0x4346A99: std::ostreambuf_iterator<char, std::char_traits<char> > std::num_put<char, std::ostreambuf_iterator<char, std::char_traits<char> > >::_M_insert_float<long double>(std::ostreambuf_iterator<char, std::char_traits<char> >, std::ios_base&, char, char, long double) const (in /usr/lib/i386-linux-gnu/libstdc++.so.6.0.19)
==6626==    by 0x4346DC0: std::num_put<char, std::ostreambuf_iterator<char, std::char_traits<char> > >::do_put(std::ostreambuf_iterator<char, std::char_traits<char> >, std::ios_base&, char, long double) const (in /usr/lib/i386-linux-gnu/libstdc++.so.6.0.19)
==6626==    by 0x43524A0: std::ostream& std::ostream::_M_insert<long double>(long double) (in /usr/lib/i386-linux-gnu/libstdc++.so.6.0.19)
==6626==    by 0x805AC45: exchange_updated_community(Louvain) (in /home/safrin/Desktop/Test/louvain-bdsc/Test-2/louvain)
==6626==    by 0x804AA51: main (in /home/safrin/Desktop/Test/louvain-bdsc/Test-2/louvain)
==6626== 
==6626== Conditional jump or move depends on uninitialised value(s)
==6626==    at 0x441BD54: __printf_fp (printf_fp.c:450)
==6626==    by 0x441727E: vfprintf (vfprintf.c:1660)
==6626==    by 0x443AFA2: vsnprintf (vsnprintf.c:119)
==6626==    by 0x433EED4: ??? (in /usr/lib/i386-linux-gnu/libstdc++.so.6.0.19)
==6626==    by 0x4346A99: std::ostreambuf_iterator<char, std::char_traits<char> > std::num_put<char, std::ostreambuf_iterator<char, std::char_traits<char> > >::_M_insert_float<long double>(std::ostreambuf_iterator<char, std::char_traits<char> >, std::ios_base&, char, char, long double) const (in /usr/lib/i386-linux-gnu/libstdc++.so.6.0.19)
==6626==    by 0x4346DC0: std::num_put<char, std::ostreambuf_iterator<char, std::char_traits<char> > >::do_put(std::ostreambuf_iterator<char, std::char_traits<char> >, std::ios_base&, char, long double) const (in /usr/lib/i386-linux-gnu/libstdc++.so.6.0.19)
==6626==    by 0x43524A0: std::ostream& std::ostream::_M_insert<long double>(long double) (in /usr/lib/i386-linux-gnu/libstdc++.so.6.0.19)
==6626==    by 0x805AC45: exchange_updated_community(Louvain) (in /home/safrin/Desktop/Test/louvain-bdsc/Test-2/louvain)
==6626==    by 0x804AA51: main (in /home/safrin/Desktop/Test/louvain-bdsc/Test-2/louvain)
==6626== 
==6626== 
==6626== HEAP SUMMARY:
==6626==     in use at exit: 2,273 bytes in 33 blocks
==6626==   total heap usage: 657 allocs, 624 frees, 3,176,029 bytes allocated
==6626== 
==6626== 4 bytes in 1 blocks are definitely lost in loss record 1 of 28
==6626==    at 0x4029F39: operator new[](unsigned int) (vg_replace_malloc.c:417)
==6626==    by 0x805A470: exchange_updated_community(Louvain) (in /home/safrin/Desktop/Test/louvain-bdsc/Test-2/louvain)
==6626==    by 0x804AA51: main (in /home/safrin/Desktop/Test/louvain-bdsc/Test-2/louvain)
==6626== 
==6626== 4 bytes in 1 blocks are definitely lost in loss record 2 of 28
==6626==    at 0x4029F39: operator new[](unsigned int) (vg_replace_malloc.c:417)
==6626==    by 0x805A49B: exchange_updated_community(Louvain) (in /home/safrin/Desktop/Test/louvain-bdsc/Test-2/louvain)
==6626==    by 0x804AA51: main (in /home/safrin/Desktop/Test/louvain-bdsc/Test-2/louvain)
==6626== 
==6626== 4 bytes in 1 blocks are definitely lost in loss record 3 of 28
==6626==    at 0x4029F39: operator new[](unsigned int) (vg_replace_malloc.c:417)
==6626==    by 0x805B51F: exchange_duality_resolved_community(Louvain) (in /home/safrin/Desktop/Test/louvain-bdsc/Test-2/louvain)
==6626==    by 0x804AB24: main (in /home/safrin/Desktop/Test/louvain-bdsc/Test-2/louvain)
==6626== 
==6626== 4 bytes in 1 blocks are definitely lost in loss record 4 of 28
==6626==    at 0x4029F39: operator new[](unsigned int) (vg_replace_malloc.c:417)
==6626==    by 0x805B538: exchange_duality_resolved_community(Louvain) (in /home/safrin/Desktop/Test/louvain-bdsc/Test-2/louvain)
==6626==    by 0x804AB24: main (in /home/safrin/Desktop/Test/louvain-bdsc/Test-2/louvain)
==6626== 
==6626== 4 bytes in 1 blocks are definitely lost in loss record 5 of 28
==6626==    at 0x4029F39: operator new[](unsigned int) (vg_replace_malloc.c:417)
==6626==    by 0x804B4A6: main (in /home/safrin/Desktop/Test/louvain-bdsc/Test-2/louvain)
==6626== 
==6626== 12 bytes in 1 blocks are definitely lost in loss record 6 of 28
==6626==    at 0x4029F39: operator new[](unsigned int) (vg_replace_malloc.c:417)
==6626==    by 0x805C782: gather_neighbor_info(Louvain) (in /home/safrin/Desktop/Test/louvain-bdsc/Test-2/louvain)
==6626==    by 0x804A98D: main (in /home/safrin/Desktop/Test/louvain-bdsc/Test-2/louvain)
==6626== 
==6626== 12 bytes in 1 blocks are definitely lost in loss record 7 of 28
==6626==    at 0x4029F39: operator new[](unsigned int) (vg_replace_malloc.c:417)
==6626==    by 0x805A4C3: exchange_updated_community(Louvain) (in /home/safrin/Desktop/Test/louvain-bdsc/Test-2/louvain)
==6626==    by 0x804AA51: main (in /home/safrin/Desktop/Test/louvain-bdsc/Test-2/louvain)
==6626== 
==6626== 32 bytes in 2 blocks are definitely lost in loss record 8 of 28
==6626==    at 0x4029F39: operator new[](unsigned int) (vg_replace_malloc.c:417)
==6626==    by 0x805CFAE: gather_neighbor_info(Louvain) (in /home/safrin/Desktop/Test/louvain-bdsc/Test-2/louvain)
==6626==    by 0x804A98D: main (in /home/safrin/Desktop/Test/louvain-bdsc/Test-2/louvain)
==6626== 
==6626== 33 bytes in 1 blocks are definitely lost in loss record 9 of 28
==6626==    at 0x4029F39: operator new[](unsigned int) (vg_replace_malloc.c:417)
==6626==    by 0x804A7E4: main (in /home/safrin/Desktop/Test/louvain-bdsc/Test-2/louvain)
==6626== 
==6626== 36 bytes in 1 blocks are definitely lost in loss record 11 of 28
==6626==    at 0x4029F39: operator new[](unsigned int) (vg_replace_malloc.c:417)
==6626==    by 0x805C7A8: gather_neighbor_info(Louvain) (in /home/safrin/Desktop/Test/louvain-bdsc/Test-2/louvain)
==6626==    by 0x804A98D: main (in /home/safrin/Desktop/Test/louvain-bdsc/Test-2/louvain)
==6626== 
==6626== 44 bytes in 1 blocks are definitely lost in loss record 13 of 28
==6626==    at 0x40292D8: malloc (vg_replace_malloc.c:299)
==6626==    by 0x41BE897: MPID_Datatype_set_contents (in /usr/local/lib/libmpi.so.12.1.0)
==6626==    by 0x40D0600: MPIR_Type_create_struct_impl (in /usr/local/lib/libmpi.so.12.1.0)
==6626==    by 0x40D0A85: PMPI_Type_create_struct (in /usr/local/lib/libmpi.so.12.1.0)
==6626==    by 0x805B587: exchange_duality_resolved_community(Louvain) (in /home/safrin/Desktop/Test/louvain-bdsc/Test-2/louvain)
==6626==    by 0x804AB24: main (in /home/safrin/Desktop/Test/louvain-bdsc/Test-2/louvain)
==6626== 
==6626== 44 bytes in 1 blocks are definitely lost in loss record 14 of 28
==6626==    at 0x40292D8: malloc (vg_replace_malloc.c:299)
==6626==    by 0x41B0559: MPID_Dataloop_alloc_and_copy (in /usr/local/lib/libmpi.so.12.1.0)
==6626==    by 0x41B0772: MPID_Dataloop_alloc (in /usr/local/lib/libmpi.so.12.1.0)
==6626==    by 0x41B2457: MPID_Dataloop_create_blockindexed (in /usr/local/lib/libmpi.so.12.1.0)
==6626==    by 0x41B31FA: MPID_Dataloop_create_indexed (in /usr/local/lib/libmpi.so.12.1.0)
==6626==    by 0x41B41E8: MPID_Dataloop_create_struct (in /usr/local/lib/libmpi.so.12.1.0)
==6626==    by 0x41B1C8E: MPID_Dataloop_create (in /usr/local/lib/libmpi.so.12.1.0)
==6626==    by 0x41C0614: MPID_Type_commit (in /usr/local/lib/libmpi.so.12.1.0)
==6626==    by 0x40CB2A0: MPIR_Type_commit_impl (in /usr/local/lib/libmpi.so.12.1.0)
==6626==    by 0x40CB505: PMPI_Type_commit (in /usr/local/lib/libmpi.so.12.1.0)
==6626==    by 0x805B58F: exchange_duality_resolved_community(Louvain) (in /home/safrin/Desktop/Test/louvain-bdsc/Test-2/louvain)
==6626==    by 0x804AB24: main (in /home/safrin/Desktop/Test/louvain-bdsc/Test-2/louvain)
==6626== 
==6626== 44 bytes in 1 blocks are definitely lost in loss record 15 of 28
==6626==    at 0x40292D8: malloc (vg_replace_malloc.c:299)
==6626==    by 0x41B0559: MPID_Dataloop_alloc_and_copy (in /usr/local/lib/libmpi.so.12.1.0)
==6626==    by 0x41B0772: MPID_Dataloop_alloc (in /usr/local/lib/libmpi.so.12.1.0)
==6626==    by 0x41B2457: MPID_Dataloop_create_blockindexed (in /usr/local/lib/libmpi.so.12.1.0)
==6626==    by 0x41B31FA: MPID_Dataloop_create_indexed (in /usr/local/lib/libmpi.so.12.1.0)
==6626==    by 0x41B41E8: MPID_Dataloop_create_struct (in /usr/local/lib/libmpi.so.12.1.0)
==6626==    by 0x41B1C8E: MPID_Dataloop_create (in /usr/local/lib/libmpi.so.12.1.0)
==6626==    by 0x41C063B: MPID_Type_commit (in /usr/local/lib/libmpi.so.12.1.0)
==6626==    by 0x40CB2A0: MPIR_Type_commit_impl (in /usr/local/lib/libmpi.so.12.1.0)
==6626==    by 0x40CB505: PMPI_Type_commit (in /usr/local/lib/libmpi.so.12.1.0)
==6626==    by 0x805B58F: exchange_duality_resolved_community(Louvain) (in /home/safrin/Desktop/Test/louvain-bdsc/Test-2/louvain)
==6626==    by 0x804AB24: main (in /home/safrin/Desktop/Test/louvain-bdsc/Test-2/louvain)
==6626== 
==6626== 56 bytes in 1 blocks are definitely lost in loss record 16 of 28
==6626==    at 0x40292D8: malloc (vg_replace_malloc.c:299)
==6626==    by 0x41BE897: MPID_Datatype_set_contents (in /usr/local/lib/libmpi.so.12.1.0)
==6626==    by 0x40D0600: MPIR_Type_create_struct_impl (in /usr/local/lib/libmpi.so.12.1.0)
==6626==    by 0x40D0A85: PMPI_Type_create_struct (in /usr/local/lib/libmpi.so.12.1.0)
==6626==    by 0x805A56C: exchange_updated_community(Louvain) (in /home/safrin/Desktop/Test/louvain-bdsc/Test-2/louvain)
==6626==    by 0x804AA51: main (in /home/safrin/Desktop/Test/louvain-bdsc/Test-2/louvain)
==6626== 
==6626== 60 bytes in 1 blocks are definitely lost in loss record 17 of 28
==6626==    at 0x40292D8: malloc (vg_replace_malloc.c:299)
==6626==    by 0x41B0559: MPID_Dataloop_alloc_and_copy (in /usr/local/lib/libmpi.so.12.1.0)
==6626==    by 0x41B0772: MPID_Dataloop_alloc (in /usr/local/lib/libmpi.so.12.1.0)
==6626==    by 0x41B351A: MPID_Dataloop_create_indexed (in /usr/local/lib/libmpi.so.12.1.0)
==6626==    by 0x41B41E8: MPID_Dataloop_create_struct (in /usr/local/lib/libmpi.so.12.1.0)
==6626==    by 0x41B1C8E: MPID_Dataloop_create (in /usr/local/lib/libmpi.so.12.1.0)
==6626==    by 0x41C0614: MPID_Type_commit (in /usr/local/lib/libmpi.so.12.1.0)
==6626==    by 0x40CB2A0: MPIR_Type_commit_impl (in /usr/local/lib/libmpi.so.12.1.0)
==6626==    by 0x40CB505: PMPI_Type_commit (in /usr/local/lib/libmpi.so.12.1.0)
==6626==    by 0x805A578: exchange_updated_community(Louvain) (in /home/safrin/Desktop/Test/louvain-bdsc/Test-2/louvain)
==6626==    by 0x804AA51: main (in /home/safrin/Desktop/Test/louvain-bdsc/Test-2/louvain)
==6626== 
==6626== 68 bytes in 1 blocks are definitely lost in loss record 20 of 28
==6626==    at 0x40292D8: malloc (vg_replace_malloc.c:299)
==6626==    by 0x41BE897: MPID_Datatype_set_contents (in /usr/local/lib/libmpi.so.12.1.0)
==6626==    by 0x40D0600: MPIR_Type_create_struct_impl (in /usr/local/lib/libmpi.so.12.1.0)
==6626==    by 0x40D0A85: PMPI_Type_create_struct (in /usr/local/lib/libmpi.so.12.1.0)
==6626==    by 0x804B588: main (in /home/safrin/Desktop/Test/louvain-bdsc/Test-2/louvain)
==6626== 
==6626== 68 bytes in 1 blocks are definitely lost in loss record 21 of 28
==6626==    at 0x40292D8: malloc (vg_replace_malloc.c:299)
==6626==    by 0x41B0559: MPID_Dataloop_alloc_and_copy (in /usr/local/lib/libmpi.so.12.1.0)
==6626==    by 0x41B0772: MPID_Dataloop_alloc (in /usr/local/lib/libmpi.so.12.1.0)
==6626==    by 0x41B351A: MPID_Dataloop_create_indexed (in /usr/local/lib/libmpi.so.12.1.0)
==6626==    by 0x41B41E8: MPID_Dataloop_create_struct (in /usr/local/lib/libmpi.so.12.1.0)
==6626==    by 0x41B1C8E: MPID_Dataloop_create (in /usr/local/lib/libmpi.so.12.1.0)
==6626==    by 0x41C0614: MPID_Type_commit (in /usr/local/lib/libmpi.so.12.1.0)
==6626==    by 0x40CB2A0: MPIR_Type_commit_impl (in /usr/local/lib/libmpi.so.12.1.0)
==6626==    by 0x40CB505: PMPI_Type_commit (in /usr/local/lib/libmpi.so.12.1.0)
==6626==    by 0x804B590: main (in /home/safrin/Desktop/Test/louvain-bdsc/Test-2/louvain)
==6626== 
==6626== 96 bytes in 2 blocks are definitely lost in loss record 22 of 28
==6626==    at 0x4029F39: operator new[](unsigned int) (vg_replace_malloc.c:417)
==6626==    by 0x805CFD1: gather_neighbor_info(Louvain) (in /home/safrin/Desktop/Test/louvain-bdsc/Test-2/louvain)
==6626==    by 0x804A98D: main (in /home/safrin/Desktop/Test/louvain-bdsc/Test-2/louvain)
==6626== 
==6626== 192 bytes in 1 blocks are definitely lost in loss record 25 of 28
==6626==    at 0x40292D8: malloc (vg_replace_malloc.c:299)
==6626==    by 0x41B07C5: MPID_Dataloop_struct_alloc (in /usr/local/lib/libmpi.so.12.1.0)
==6626==    by 0x41B427B: MPID_Dataloop_create_struct (in /usr/local/lib/libmpi.so.12.1.0)
==6626==    by 0x41B1C8E: MPID_Dataloop_create (in /usr/local/lib/libmpi.so.12.1.0)
==6626==    by 0x41C063B: MPID_Type_commit (in /usr/local/lib/libmpi.so.12.1.0)
==6626==    by 0x40CB2A0: MPIR_Type_commit_impl (in /usr/local/lib/libmpi.so.12.1.0)
==6626==    by 0x40CB505: PMPI_Type_commit (in /usr/local/lib/libmpi.so.12.1.0)
==6626==    by 0x805A578: exchange_updated_community(Louvain) (in /home/safrin/Desktop/Test/louvain-bdsc/Test-2/louvain)
==6626==    by 0x804AA51: main (in /home/safrin/Desktop/Test/louvain-bdsc/Test-2/louvain)
==6626== 
==6626== 244 bytes in 1 blocks are definitely lost in loss record 27 of 28
==6626==    at 0x40292D8: malloc (vg_replace_malloc.c:299)
==6626==    by 0x41B07C5: MPID_Dataloop_struct_alloc (in /usr/local/lib/libmpi.so.12.1.0)
==6626==    by 0x41B427B: MPID_Dataloop_create_struct (in /usr/local/lib/libmpi.so.12.1.0)
==6626==    by 0x41B1C8E: MPID_Dataloop_create (in /usr/local/lib/libmpi.so.12.1.0)
==6626==    by 0x41C063B: MPID_Type_commit (in /usr/local/lib/libmpi.so.12.1.0)
==6626==    by 0x40CB2A0: MPIR_Type_commit_impl (in /usr/local/lib/libmpi.so.12.1.0)
==6626==    by 0x40CB505: PMPI_Type_commit (in /usr/local/lib/libmpi.so.12.1.0)
==6626==    by 0x804B590: main (in /home/safrin/Desktop/Test/louvain-bdsc/Test-2/louvain)
==6626== 
==6626== LEAK SUMMARY:
==6626==    definitely lost: 1,061 bytes in 22 blocks
==6626==    indirectly lost: 0 bytes in 0 blocks
==6626==      possibly lost: 0 bytes in 0 blocks
==6626==    still reachable: 1,212 bytes in 11 blocks
==6626==         suppressed: 0 bytes in 0 blocks
==6626== Reachable blocks (those to which a pointer was found) are not shown.
==6626== To see them, rerun with: --leak-check=full --show-leak-kinds=all
==6626== 
==6626== For counts of detected and suppressed errors, rerun with: -v
==6626== Use --track-origins=yes to see where uninitialised values come from
==6626== ERROR SUMMARY: 114 errors from 32 contexts (suppressed: 0 from 0)
