==6740== Memcheck, a memory error detector
==6740== Copyright (C) 2002-2017, and GNU GPL'd, by Julian Seward et al.
==6740== Using Valgrind-3.13.0 and LibVEX; rerun with -h for copyright info
==6740== Command: ./louvain ./sample/Output/example-l2 -w ./sample/Output/example-lw2 -l -1 -i ./sample/input/example-l3.txt -g ./sample/Output/full/example-l3.bin -x ./sample/Output/full/example-lw3.bin -f ./sample/Output/full/example-l2.bin -o ./sample/Output/full/example-lw2.bin -u ./sample/Output/example-l-n2c.txt -q id_qual
==6740== Parent PID: 6738
==6740== 
==6740== 
==6740== HEAP SUMMARY:
==6740==     in use at exit: 1,313 bytes in 17 blocks
==6740==   total heap usage: 592 allocs, 575 frees, 2,895,485 bytes allocated
==6740== 
==6740== 4 bytes in 1 blocks are definitely lost in loss record 1 of 17
==6740==    at 0x4029F39: operator new[](unsigned int) (vg_replace_malloc.c:417)
==6740==    by 0x804B4A6: main (in /home/safrin/Desktop/Test/louvain-bdsc/Test-2/louvain)
==6740== 
==6740== 8 bytes in 1 blocks are definitely lost in loss record 2 of 17
==6740==    at 0x4029F39: operator new[](unsigned int) (vg_replace_malloc.c:417)
==6740==    by 0x805C812: gather_neighbor_info(Louvain) (in /home/safrin/Desktop/Test/louvain-bdsc/Test-2/louvain)
==6740==    by 0x804A98D: main (in /home/safrin/Desktop/Test/louvain-bdsc/Test-2/louvain)
==6740== 
==6740== 8 bytes in 1 blocks are definitely lost in loss record 3 of 17
==6740==    at 0x4029F39: operator new[](unsigned int) (vg_replace_malloc.c:417)
==6740==    by 0x805D03E: gather_neighbor_info(Louvain) (in /home/safrin/Desktop/Test/louvain-bdsc/Test-2/louvain)
==6740==    by 0x804A98D: main (in /home/safrin/Desktop/Test/louvain-bdsc/Test-2/louvain)
==6740== 
==6740== 24 bytes in 1 blocks are definitely lost in loss record 4 of 17
==6740==    at 0x4029F39: operator new[](unsigned int) (vg_replace_malloc.c:417)
==6740==    by 0x805C838: gather_neighbor_info(Louvain) (in /home/safrin/Desktop/Test/louvain-bdsc/Test-2/louvain)
==6740==    by 0x804A98D: main (in /home/safrin/Desktop/Test/louvain-bdsc/Test-2/louvain)
==6740== 
==6740== 24 bytes in 1 blocks are definitely lost in loss record 5 of 17
==6740==    at 0x4029F39: operator new[](unsigned int) (vg_replace_malloc.c:417)
==6740==    by 0x805D061: gather_neighbor_info(Louvain) (in /home/safrin/Desktop/Test/louvain-bdsc/Test-2/louvain)
==6740==    by 0x804A98D: main (in /home/safrin/Desktop/Test/louvain-bdsc/Test-2/louvain)
==6740== 
==6740== 33 bytes in 1 blocks are definitely lost in loss record 6 of 17
==6740==    at 0x4029F39: operator new[](unsigned int) (vg_replace_malloc.c:417)
==6740==    by 0x804A7E4: main (in /home/safrin/Desktop/Test/louvain-bdsc/Test-2/louvain)
==6740== 
==6740== LEAK SUMMARY:
==6740==    definitely lost: 101 bytes in 6 blocks
==6740==    indirectly lost: 0 bytes in 0 blocks
==6740==      possibly lost: 0 bytes in 0 blocks
==6740==    still reachable: 1,212 bytes in 11 blocks
==6740==         suppressed: 0 bytes in 0 blocks
==6740== Reachable blocks (those to which a pointer was found) are not shown.
==6740== To see them, rerun with: --leak-check=full --show-leak-kinds=all
==6740== 
==6740== For counts of detected and suppressed errors, rerun with: -v
==6740== ERROR SUMMARY: 6 errors from 6 contexts (suppressed: 0 from 0)
